%YAML 1.1
%TAG !u! tag:unity3d.com,2011:
--- !u!74 &7400000
AnimationClip:
  m_CorrespondingSourceObject: {fileID: 0}
  m_PrefabInstance: {fileID: 0}
  m_PrefabAsset: {fileID: 0}
  m_Name: fusilado_unload
  serializedVersion: 6
  m_Legacy: 0
  m_Compressed: 0
  m_UseHighQualityCurve: 0
  m_RotationCurves:
  - curve:
      serializedVersion: 2
      m_Curve:
      - serializedVersion: 3
        time: 0
        value: {x: 0.7071062, y: 0.0009218905, z: 0.7071062, w: 0.0009218905}
        inSlope: {x: 0, y: 0, z: 0, w: 0}
        outSlope: {x: 0, y: 0, z: 0, w: 0}
        tangentMode: 1
        weightedMode: 0
        inWeight: {x: 0.3333333, y: 0.3333333, z: 0.3333333, w: 0.3333333}
        outWeight: {x: 0.3333333, y: 0.3333333, z: 0.3333333, w: 0.3333333}
      - serializedVersion: 3
        time: 0.01666667
        value: {x: 0.7069185, y: -0.0163176, z: 0.7069185, w: -0.0163176}
        inSlope: {x: 0, y: 0, z: 0, w: 0}
        outSlope: {x: 0, y: 0, z: 0, w: 0}
        tangentMode: 1
        weightedMode: 0
        inWeight: {x: 0.3333333, y: 0.3333333, z: 0.3333333, w: 0.3333333}
        outWeight: {x: 0.3333333, y: 0.3333333, z: 0.3333333, w: 0.3333333}
      - serializedVersion: 3
        time: 0.03333334
        value: {x: 0.70424, y: -0.06173728, z: 0.70424, w: -0.06173728}
        inSlope: {x: 0, y: 0, z: 0, w: 0}
        outSlope: {x: 0, y: 0, z: 0, w: 0}
        tangentMode: 1
        weightedMode: 0
        inWeight: {x: 0.3333333, y: 0.3333333, z: 0.3333333, w: 0.3333333}
        outWeight: {x: 0.3333333, y: 0.3333333, z: 0.3333333, w: 0.3333333}
      - serializedVersion: 3
        time: 0.05
        value: {x: 0.6959111, y: -0.1253308, z: 0.6959111, w: -0.1253308}
        inSlope: {x: 0, y: 0, z: 0, w: 0}
        outSlope: {x: 0, y: 0, z: 0, w: 0}
        tangentMode: 1
        weightedMode: 0
        inWeight: {x: 0.3333333, y: 0.3333333, z: 0.3333333, w: 0.3333333}
        outWeight: {x: 0.3333333, y: 0.3333333, z: 0.3333333, w: 0.3333333}
      - serializedVersion: 3
        time: 0.06666667
        value: {x: 0.6786536, y: -0.1968499, z: 0.6786536, w: -0.1968499}
        inSlope: {x: 0, y: 0, z: 0, w: 0}
        outSlope: {x: 0, y: 0, z: 0, w: 0}
        tangentMode: 1
        weightedMode: 0
        inWeight: {x: 0.3333333, y: 0.3333333, z: 0.3333333, w: 0.3333333}
        outWeight: {x: 0.3333333, y: 0.3333333, z: 0.3333333, w: 0.3333333}
      - serializedVersion: 3
        time: 0.08333334
        value: {x: 0.6549628, y: -0.2665029, z: 0.6549628, w: -0.2665029}
        inSlope: {x: 0, y: 0, z: 0, w: 0}
        outSlope: {x: 0, y: 0, z: 0, w: 0}
        tangentMode: 1
        weightedMode: 0
        inWeight: {x: 0.3333333, y: 0.3333333, z: 0.3333333, w: 0.3333333}
        outWeight: {x: 0.3333333, y: 0.3333333, z: 0.3333333, w: 0.3333333}
      - serializedVersion: 3
        time: 0.1
        value: {x: 0.6279701, y: -0.3246827, z: 0.6279701, w: -0.3246827}
        inSlope: {x: 0, y: 0, z: 0, w: 0}
        outSlope: {x: 0, y: 0, z: 0, w: 0}
        tangentMode: 1
        weightedMode: 0
        inWeight: {x: 0.3333333, y: 0.3333333, z: 0.3333333, w: 0.3333333}
        outWeight: {x: 0.3333333, y: 0.3333333, z: 0.3333333, w: 0.3333333}
      - serializedVersion: 3
        time: 0.1166667
        value: {x: 0.6059289, y: -0.3644861, z: 0.6059289, w: -0.3644861}
        inSlope: {x: 0, y: 0, z: 0, w: 0}
        outSlope: {x: 0, y: 0, z: 0, w: 0}
        tangentMode: 1
        weightedMode: 0
        inWeight: {x: 0.3333333, y: 0.3333333, z: 0.3333333, w: 0.3333333}
        outWeight: {x: 0.3333333, y: 0.3333333, z: 0.3333333, w: 0.3333333}
      - serializedVersion: 3
        time: 0.1333333
        value: {x: 0.5966399, y: -0.3803613, z: 0.5966399, w: -0.3803613}
        inSlope: {x: 0, y: 0, z: 0, w: 0}
        outSlope: {x: 0, y: 0, z: 0, w: 0}
        tangentMode: 1
        weightedMode: 0
        inWeight: {x: 0.3333333, y: 0.3333333, z: 0.3333333, w: 0.3333333}
        outWeight: {x: 0.3333333, y: 0.3333333, z: 0.3333333, w: 0.3333333}
      - serializedVersion: 3
        time: 0.15
        value: {x: 0.595744, y: -0.3813852, z: 0.595744, w: -0.3813852}
        inSlope: {x: 0, y: 0, z: 0, w: 0}
        outSlope: {x: 0, y: 0, z: 0, w: 0}
        tangentMode: 1
        weightedMode: 0
        inWeight: {x: 0.3333333, y: 0.3333333, z: 0.3333333, w: 0.3333333}
        outWeight: {x: 0.3333333, y: 0.3333333, z: 0.3333333, w: 0.3333333}
      - serializedVersion: 3
        time: 0.1666667
        value: {x: 0.5968627, y: -0.3791504, z: 0.5968627, w: -0.3791504}
        inSlope: {x: 0, y: 0, z: 0, w: 0}
        outSlope: {x: 0, y: 0, z: 0, w: 0}
        tangentMode: 1
        weightedMode: 0
        inWeight: {x: 0.3333333, y: 0.3333333, z: 0.3333333, w: 0.3333333}
        outWeight: {x: 0.3333333, y: 0.3333333, z: 0.3333333, w: 0.3333333}
      - serializedVersion: 3
        time: 0.1833333
        value: {x: 0.5968627, y: -0.3791504, z: 0.5968627, w: -0.3791504}
        inSlope: {x: 0, y: 0, z: 0, w: 0}
        outSlope: {x: 0, y: 0, z: 0, w: 0}
        tangentMode: 1
        weightedMode: 0
        inWeight: {x: 0.3333333, y: 0.3333333, z: 0.3333333, w: 0.3333333}
        outWeight: {x: 0.3333333, y: 0.3333333, z: 0.3333333, w: 0.3333333}
      - serializedVersion: 3
        time: 0.2
        value: {x: 0.5968627, y: -0.3791504, z: 0.5968627, w: -0.3791504}
        inSlope: {x: 0, y: 0, z: 0, w: 0}
        outSlope: {x: 0, y: 0, z: 0, w: 0}
        tangentMode: 1
        weightedMode: 0
        inWeight: {x: 0.3333333, y: 0.3333333, z: 0.3333333, w: 0.3333333}
        outWeight: {x: 0.3333333, y: 0.3333333, z: 0.3333333, w: 0.3333333}
      - serializedVersion: 3
        time: 0.2166667
        value: {x: 0.5968627, y: -0.3791504, z: 0.5968627, w: -0.3791504}
        inSlope: {x: 0, y: 0, z: 0, w: 0}
        outSlope: {x: 0, y: 0, z: 0, w: 0}
        tangentMode: 1
        weightedMode: 0
        inWeight: {x: 0.3333333, y: 0.3333333, z: 0.3333333, w: 0.3333333}
        outWeight: {x: 0.3333333, y: 0.3333333, z: 0.3333333, w: 0.3333333}
      - serializedVersion: 3
        time: 0.2333333
        value: {x: 0.5968627, y: -0.3791504, z: 0.5968627, w: -0.3791504}
        inSlope: {x: 0, y: 0, z: 0, w: 0}
        outSlope: {x: 0, y: 0, z: 0, w: 0}
        tangentMode: 1
        weightedMode: 0
        inWeight: {x: 0.3333333, y: 0.3333333, z: 0.3333333, w: 0.3333333}
        outWeight: {x: 0.3333333, y: 0.3333333, z: 0.3333333, w: 0.3333333}
      - serializedVersion: 3
        time: 0.25
        value: {x: 0.5968627, y: -0.3791504, z: 0.5968627, w: -0.3791504}
        inSlope: {x: 0, y: 0, z: 0, w: 0}
        outSlope: {x: 0, y: 0, z: 0, w: 0}
        tangentMode: 1
        weightedMode: 0
        inWeight: {x: 0.3333333, y: 0.3333333, z: 0.3333333, w: 0.3333333}
        outWeight: {x: 0.3333333, y: 0.3333333, z: 0.3333333, w: 0.3333333}
      - serializedVersion: 3
        time: 0.2666667
        value: {x: 0.5968627, y: -0.3791504, z: 0.5968627, w: -0.3791504}
        inSlope: {x: 0, y: 0, z: 0, w: 0}
        outSlope: {x: 0, y: 0, z: 0, w: 0}
        tangentMode: 1
        weightedMode: 0
        inWeight: {x: 0.3333333, y: 0.3333333, z: 0.3333333, w: 0.3333333}
        outWeight: {x: 0.3333333, y: 0.3333333, z: 0.3333333, w: 0.3333333}
      m_PreInfinity: 2
      m_PostInfinity: 2
      m_RotationOrder: 4
    path: Bone_hinge1
  - curve:
      serializedVersion: 2
      m_Curve:
      - serializedVersion: 3
        time: 0
        value: {x: 4.577874E-11, y: -4.369801E-08, z: 0.001047611, w: 0.9999995}
        inSlope: {x: 0, y: 0, z: 0, w: 0}
        outSlope: {x: 0, y: 0, z: 0, w: 0}
        tangentMode: 1
        weightedMode: 0
        inWeight: {x: 0.3333333, y: 0.3333333, z: 0.3333333, w: 0.3333333}
        outWeight: {x: 0.3333333, y: 0.3333333, z: 0.3333333, w: 0.3333333}
      - serializedVersion: 3
        time: 0.01666667
        value: {x: -2.386706E-09, y: -4.363281E-08, z: -0.05461816, w: 0.9985073}
        inSlope: {x: 0, y: 0, z: 0, w: 0}
        outSlope: {x: 0, y: 0, z: 0, w: 0}
        tangentMode: 1
        weightedMode: 0
        inWeight: {x: 0.3333333, y: 0.3333333, z: 0.3333333, w: 0.3333333}
        outWeight: {x: 0.3333333, y: 0.3333333, z: 0.3333333, w: 0.3333333}
      - serializedVersion: 3
        time: 0.03333334
        value: {x: -8.004656E-09, y: -4.295863E-08, z: -0.1831812, w: 0.9830792}
        inSlope: {x: 0, y: 0, z: 0, w: 0}
        outSlope: {x: 0, y: 0, z: 0, w: 0}
        tangentMode: 1
        weightedMode: 0
        inWeight: {x: 0.3333333, y: 0.3333333, z: 0.3333333, w: 0.3333333}
        outWeight: {x: 0.3333333, y: 0.3333333, z: 0.3333333, w: 0.3333333}
      - serializedVersion: 3
        time: 0.05
        value: {x: -1.422262E-08, y: -4.131871E-08, z: -0.3254752, w: 0.9455506}
        inSlope: {x: 0, y: 0, z: 0, w: 0}
        outSlope: {x: 0, y: 0, z: 0, w: 0}
        tangentMode: 1
        weightedMode: 0
        inWeight: {x: 0.3333333, y: 0.3333333, z: 0.3333333, w: 0.3333333}
        outWeight: {x: 0.3333333, y: 0.3333333, z: 0.3333333, w: 0.3333333}
      - serializedVersion: 3
        time: 0.06666667
        value: {x: -1.862747E-08, y: -3.952892E-08, z: -0.426277, w: 0.9045927}
        inSlope: {x: 0, y: 0, z: 0, w: 0}
        outSlope: {x: 0, y: 0, z: 0, w: 0}
        tangentMode: 1
        weightedMode: 0
        inWeight: {x: 0.3333333, y: 0.3333333, z: 0.3333333, w: 0.3333333}
        outWeight: {x: 0.3333333, y: 0.3333333, z: 0.3333333, w: 0.3333333}
      - serializedVersion: 3
        time: 0.08333334
        value: {x: -2.108127E-08, y: -3.831326E-08, z: -0.4824305, w: 0.8767731}
        inSlope: {x: 0, y: 0, z: 0, w: 0}
        outSlope: {x: 0, y: 0, z: 0, w: 0}
        tangentMode: 1
        weightedMode: 0
        inWeight: {x: 0.3333333, y: 0.3333333, z: 0.3333333, w: 0.3333333}
        outWeight: {x: 0.3333333, y: 0.3333333, z: 0.3333333, w: 0.3333333}
      - serializedVersion: 3
        time: 0.1
        value: {x: -2.241874E-08, y: -3.750891E-08, z: -0.5130378, w: 0.858366}
        inSlope: {x: 0, y: 0, z: 0, w: 0}
        outSlope: {x: 0, y: 0, z: 0, w: 0}
        tangentMode: 1
        weightedMode: 0
        inWeight: {x: 0.3333333, y: 0.3333333, z: 0.3333333, w: 0.3333333}
        outWeight: {x: 0.3333333, y: 0.3333333, z: 0.3333333, w: 0.3333333}
      - serializedVersion: 3
        time: 0.1166667
        value: {x: -2.321358E-08, y: -3.703844E-08, z: -0.531227, w: 0.8475997}
        inSlope: {x: 0, y: 0, z: 0, w: 0}
        outSlope: {x: 0, y: 0, z: 0, w: 0}
        tangentMode: 1
        weightedMode: 0
        inWeight: {x: 0.3333333, y: 0.3333333, z: 0.3333333, w: 0.3333333}
        outWeight: {x: 0.3333333, y: 0.3333333, z: 0.3333333, w: 0.3333333}
      - serializedVersion: 3
        time: 0.1333333
        value: {x: -2.349416E-08, y: -3.686329E-08, z: -0.537648, w: 0.8435916}
        inSlope: {x: 0, y: 0, z: 0, w: 0}
        outSlope: {x: 0, y: 0, z: 0, w: 0}
        tangentMode: 1
        weightedMode: 0
        inWeight: {x: 0.3333333, y: 0.3333333, z: 0.3333333, w: 0.3333333}
        outWeight: {x: 0.3333333, y: 0.3333333, z: 0.3333333, w: 0.3333333}
      - serializedVersion: 3
        time: 0.15
        value: {x: -2.349243E-08, y: -3.685351E-08, z: -0.5376084, w: 0.8433676}
        inSlope: {x: 0, y: 0, z: 0, w: 0}
        outSlope: {x: 0, y: 0, z: 0, w: 0}
        tangentMode: 1
        weightedMode: 0
        inWeight: {x: 0.3333333, y: 0.3333333, z: 0.3333333, w: 0.3333333}
        outWeight: {x: 0.3333333, y: 0.3333333, z: 0.3333333, w: 0.3333333}
      - serializedVersion: 3
        time: 0.1666667
        value: {x: -2.344031E-08, y: -3.687913E-08, z: -0.5364158, w: 0.8439538}
        inSlope: {x: 0, y: 0, z: 0, w: 0}
        outSlope: {x: 0, y: 0, z: 0, w: 0}
        tangentMode: 1
        weightedMode: 0
        inWeight: {x: 0.3333333, y: 0.3333333, z: 0.3333333, w: 0.3333333}
        outWeight: {x: 0.3333333, y: 0.3333333, z: 0.3333333, w: 0.3333333}
      - serializedVersion: 3
        time: 0.1833333
        value: {x: -2.344031E-08, y: -3.687913E-08, z: -0.5364158, w: 0.8439538}
        inSlope: {x: 0, y: 0, z: 0, w: 0}
        outSlope: {x: 0, y: 0, z: 0, w: 0}
        tangentMode: 1
        weightedMode: 0
        inWeight: {x: 0.3333333, y: 0.3333333, z: 0.3333333, w: 0.3333333}
        outWeight: {x: 0.3333333, y: 0.3333333, z: 0.3333333, w: 0.3333333}
      - serializedVersion: 3
        time: 0.2
        value: {x: -2.344031E-08, y: -3.687913E-08, z: -0.5364158, w: 0.8439538}
        inSlope: {x: 0, y: 0, z: 0, w: 0}
        outSlope: {x: 0, y: 0, z: 0, w: 0}
        tangentMode: 1
        weightedMode: 0
        inWeight: {x: 0.3333333, y: 0.3333333, z: 0.3333333, w: 0.3333333}
        outWeight: {x: 0.3333333, y: 0.3333333, z: 0.3333333, w: 0.3333333}
      - serializedVersion: 3
        time: 0.2166667
        value: {x: -2.344031E-08, y: -3.687913E-08, z: -0.5364158, w: 0.8439538}
        inSlope: {x: 0, y: 0, z: 0, w: 0}
        outSlope: {x: 0, y: 0, z: 0, w: 0}
        tangentMode: 1
        weightedMode: 0
        inWeight: {x: 0.3333333, y: 0.3333333, z: 0.3333333, w: 0.3333333}
        outWeight: {x: 0.3333333, y: 0.3333333, z: 0.3333333, w: 0.3333333}
      - serializedVersion: 3
        time: 0.2333333
        value: {x: -2.344031E-08, y: -3.687913E-08, z: -0.5364158, w: 0.8439538}
        inSlope: {x: 0, y: 0, z: 0, w: 0}
        outSlope: {x: 0, y: 0, z: 0, w: 0}
        tangentMode: 1
        weightedMode: 0
        inWeight: {x: 0.3333333, y: 0.3333333, z: 0.3333333, w: 0.3333333}
        outWeight: {x: 0.3333333, y: 0.3333333, z: 0.3333333, w: 0.3333333}
      - serializedVersion: 3
        time: 0.25
        value: {x: -2.344031E-08, y: -3.687913E-08, z: -0.5364158, w: 0.8439538}
        inSlope: {x: 0, y: 0, z: 0, w: 0}
        outSlope: {x: 0, y: 0, z: 0, w: 0}
        tangentMode: 1
        weightedMode: 0
        inWeight: {x: 0.3333333, y: 0.3333333, z: 0.3333333, w: 0.3333333}
        outWeight: {x: 0.3333333, y: 0.3333333, z: 0.3333333, w: 0.3333333}
      - serializedVersion: 3
        time: 0.2666667
        value: {x: -2.344031E-08, y: -3.687913E-08, z: -0.5364158, w: 0.8439538}
        inSlope: {x: 0, y: 0, z: 0, w: 0}
        outSlope: {x: 0, y: 0, z: 0, w: 0}
        tangentMode: 1
        weightedMode: 0
        inWeight: {x: 0.3333333, y: 0.3333333, z: 0.3333333, w: 0.3333333}
        outWeight: {x: 0.3333333, y: 0.3333333, z: 0.3333333, w: 0.3333333}
      m_PreInfinity: 2
      m_PostInfinity: 2
      m_RotationOrder: 4
    path: Bone_hinge1/Bone_hinge2
  - curve:
      serializedVersion: 2
      m_Curve:
      - serializedVersion: 3
        time: 0
        value: {x: 0.7071068, y: 0.0001555002, z: 0.7071068, w: 0.0001555002}
        inSlope: {x: 0, y: 0, z: 0, w: 0}
        outSlope: {x: 0, y: 0, z: 0, w: 0}
        tangentMode: 1
        weightedMode: 0
        inWeight: {x: 0.3333333, y: 0.3333333, z: 0.3333333, w: 0.3333333}
        outWeight: {x: 0.3333333, y: 0.3333333, z: 0.3333333, w: 0.3333333}
      - serializedVersion: 3
        time: 0.01666667
        value: {x: 0.7048782, y: 0.05609602, z: 0.7048782, w: 0.05609602}
        inSlope: {x: 0, y: 0, z: 0, w: 0}
        outSlope: {x: 0, y: 0, z: 0, w: 0}
        tangentMode: 1
        weightedMode: 0
        inWeight: {x: 0.3333333, y: 0.3333333, z: 0.3333333, w: 0.3333333}
        outWeight: {x: 0.3333333, y: 0.3333333, z: 0.3333333, w: 0.3333333}
      - serializedVersion: 3
        time: 0.03333334
        value: {x: 0.6890529, y: 0.1587643, z: 0.6890529, w: 0.1587643}
        inSlope: {x: 0, y: 0, z: 0, w: 0}
        outSlope: {x: 0, y: 0, z: 0, w: 0}
        tangentMode: 1
        weightedMode: 0
        inWeight: {x: 0.3333333, y: 0.3333333, z: 0.3333333, w: 0.3333333}
        outWeight: {x: 0.3333333, y: 0.3333333, z: 0.3333333, w: 0.3333333}
      - serializedVersion: 3
        time: 0.05
        value: {x: 0.674333, y: 0.2127794, z: 0.674333, w: 0.2127794}
        inSlope: {x: 0, y: 0, z: 0, w: 0}
        outSlope: {x: 0, y: 0, z: 0, w: 0}
        tangentMode: 1
        weightedMode: 0
        inWeight: {x: 0.3333333, y: 0.3333333, z: 0.3333333, w: 0.3333333}
        outWeight: {x: 0.3333333, y: 0.3333333, z: 0.3333333, w: 0.3333333}
      - serializedVersion: 3
        time: 0.06666667
        value: {x: 0.674333, y: 0.2127794, z: 0.674333, w: 0.2127794}
        inSlope: {x: 0, y: 0, z: 0, w: 0}
        outSlope: {x: 0, y: 0, z: 0, w: 0}
        tangentMode: 1
        weightedMode: 0
        inWeight: {x: 0.3333333, y: 0.3333333, z: 0.3333333, w: 0.3333333}
        outWeight: {x: 0.3333333, y: 0.3333333, z: 0.3333333, w: 0.3333333}
      - serializedVersion: 3
        time: 0.08333334
        value: {x: 0.674333, y: 0.2127794, z: 0.674333, w: 0.2127794}
        inSlope: {x: 0, y: 0, z: 0, w: 0}
        outSlope: {x: 0, y: 0, z: 0, w: 0}
        tangentMode: 1
        weightedMode: 0
        inWeight: {x: 0.3333333, y: 0.3333333, z: 0.3333333, w: 0.3333333}
        outWeight: {x: 0.3333333, y: 0.3333333, z: 0.3333333, w: 0.3333333}
      - serializedVersion: 3
        time: 0.1
        value: {x: 0.674333, y: 0.2127794, z: 0.674333, w: 0.2127794}
        inSlope: {x: 0, y: 0, z: 0, w: 0}
        outSlope: {x: 0, y: 0, z: 0, w: 0}
        tangentMode: 1
        weightedMode: 0
        inWeight: {x: 0.3333333, y: 0.3333333, z: 0.3333333, w: 0.3333333}
        outWeight: {x: 0.3333333, y: 0.3333333, z: 0.3333333, w: 0.3333333}
      - serializedVersion: 3
        time: 0.1166667
        value: {x: 0.674333, y: 0.2127794, z: 0.674333, w: 0.2127794}
        inSlope: {x: 0, y: 0, z: 0, w: 0}
        outSlope: {x: 0, y: 0, z: 0, w: 0}
        tangentMode: 1
        weightedMode: 0
        inWeight: {x: 0.3333333, y: 0.3333333, z: 0.3333333, w: 0.3333333}
        outWeight: {x: 0.3333333, y: 0.3333333, z: 0.3333333, w: 0.3333333}
      - serializedVersion: 3
        time: 0.1333333
        value: {x: 0.674333, y: 0.2127794, z: 0.674333, w: 0.2127794}
        inSlope: {x: 0, y: 0, z: 0, w: 0}
        outSlope: {x: 0, y: 0, z: 0, w: 0}
        tangentMode: 1
        weightedMode: 0
        inWeight: {x: 0.3333333, y: 0.3333333, z: 0.3333333, w: 0.3333333}
        outWeight: {x: 0.3333333, y: 0.3333333, z: 0.3333333, w: 0.3333333}
      - serializedVersion: 3
        time: 0.15
        value: {x: 0.674333, y: 0.2127794, z: 0.674333, w: 0.2127794}
        inSlope: {x: 0, y: 0, z: 0, w: 0}
        outSlope: {x: 0, y: 0, z: 0, w: 0}
        tangentMode: 1
        weightedMode: 0
        inWeight: {x: 0.3333333, y: 0.3333333, z: 0.3333333, w: 0.3333333}
        outWeight: {x: 0.3333333, y: 0.3333333, z: 0.3333333, w: 0.3333333}
      - serializedVersion: 3
        time: 0.1666667
        value: {x: 0.674333, y: 0.2127794, z: 0.674333, w: 0.2127794}
        inSlope: {x: 0, y: 0, z: 0, w: 0}
        outSlope: {x: 0, y: 0, z: 0, w: 0}
        tangentMode: 1
        weightedMode: 0
        inWeight: {x: 0.3333333, y: 0.3333333, z: 0.3333333, w: 0.3333333}
        outWeight: {x: 0.3333333, y: 0.3333333, z: 0.3333333, w: 0.3333333}
      - serializedVersion: 3
        time: 0.1833333
        value: {x: 0.674333, y: 0.2127794, z: 0.674333, w: 0.2127794}
        inSlope: {x: 0, y: 0, z: 0, w: 0}
        outSlope: {x: 0, y: 0, z: 0, w: 0}
        tangentMode: 1
        weightedMode: 0
        inWeight: {x: 0.3333333, y: 0.3333333, z: 0.3333333, w: 0.3333333}
        outWeight: {x: 0.3333333, y: 0.3333333, z: 0.3333333, w: 0.3333333}
      - serializedVersion: 3
        time: 0.2
        value: {x: 0.674333, y: 0.2127794, z: 0.674333, w: 0.2127794}
        inSlope: {x: 0, y: 0, z: 0, w: 0}
        outSlope: {x: 0, y: 0, z: 0, w: 0}
        tangentMode: 1
        weightedMode: 0
        inWeight: {x: 0.3333333, y: 0.3333333, z: 0.3333333, w: 0.3333333}
        outWeight: {x: 0.3333333, y: 0.3333333, z: 0.3333333, w: 0.3333333}
      - serializedVersion: 3
        time: 0.2166667
        value: {x: 0.674333, y: 0.2127794, z: 0.674333, w: 0.2127794}
        inSlope: {x: 0, y: 0, z: 0, w: 0}
        outSlope: {x: 0, y: 0, z: 0, w: 0}
        tangentMode: 1
        weightedMode: 0
        inWeight: {x: 0.3333333, y: 0.3333333, z: 0.3333333, w: 0.3333333}
        outWeight: {x: 0.3333333, y: 0.3333333, z: 0.3333333, w: 0.3333333}
      - serializedVersion: 3
        time: 0.2333333
        value: {x: 0.674333, y: 0.2127794, z: 0.674333, w: 0.2127794}
        inSlope: {x: 0, y: 0, z: 0, w: 0}
        outSlope: {x: 0, y: 0, z: 0, w: 0}
        tangentMode: 1
        weightedMode: 0
        inWeight: {x: 0.3333333, y: 0.3333333, z: 0.3333333, w: 0.3333333}
        outWeight: {x: 0.3333333, y: 0.3333333, z: 0.3333333, w: 0.3333333}
      - serializedVersion: 3
        time: 0.25
        value: {x: 0.674333, y: 0.2127794, z: 0.674333, w: 0.2127794}
        inSlope: {x: 0, y: 0, z: 0, w: 0}
        outSlope: {x: 0, y: 0, z: 0, w: 0}
        tangentMode: 1
        weightedMode: 0
        inWeight: {x: 0.3333333, y: 0.3333333, z: 0.3333333, w: 0.3333333}
        outWeight: {x: 0.3333333, y: 0.3333333, z: 0.3333333, w: 0.3333333}
      - serializedVersion: 3
        time: 0.2666667
        value: {x: 0.674333, y: 0.2127794, z: 0.674333, w: 0.2127794}
        inSlope: {x: 0, y: 0, z: 0, w: 0}
        outSlope: {x: 0, y: 0, z: 0, w: 0}
        tangentMode: 1
        weightedMode: 0
        inWeight: {x: 0.3333333, y: 0.3333333, z: 0.3333333, w: 0.3333333}
        outWeight: {x: 0.3333333, y: 0.3333333, z: 0.3333333, w: 0.3333333}
      m_PreInfinity: 2
      m_PostInfinity: 2
      m_RotationOrder: 4
    path: Bone_latch
  - curve:
      serializedVersion: 2
      m_Curve:
      - serializedVersion: 3
        time: 0
        value: {x: -9.3685E-06, y: 0.7071068, z: -9.462658E-06, w: 0.7071067}
        inSlope: {x: 0, y: 0, z: 0, w: 0}
        outSlope: {x: 0, y: 0, z: 0, w: 0}
        tangentMode: 1
        weightedMode: 0
        inWeight: {x: 0.3333333, y: 0.3333333, z: 0.3333333, w: 0.3333333}
        outWeight: {x: 0.3333333, y: 0.3333333, z: 0.3333333, w: 0.3333333}
      - serializedVersion: 3
        time: 0.2833333
        value: {x: -9.3685E-06, y: 0.7071068, z: -9.462658E-06, w: 0.7071067}
        inSlope: {x: 0, y: 0, z: 0, w: 0}
        outSlope: {x: 0, y: 0, z: 0, w: 0}
        tangentMode: 1
        weightedMode: 0
        inWeight: {x: 0.3333333, y: 0.3333333, z: 0.3333333, w: 0.3333333}
        outWeight: {x: 0.3333333, y: 0.3333333, z: 0.3333333, w: 0.3333333}
      m_PreInfinity: 2
      m_PostInfinity: 2
      m_RotationOrder: 4
    path: Bone_grip
  - curve:
      serializedVersion: 2
      m_Curve:
      - serializedVersion: 3
        time: 0
        value: {x: 0, y: 0, z: 0, w: 1}
        inSlope: {x: 0, y: 0, z: 0, w: 0}
        outSlope: {x: 0, y: 0, z: 0, w: 0}
        tangentMode: 1
        weightedMode: 0
        inWeight: {x: 0.3333333, y: 0.3333333, z: 0.3333333, w: 0.3333333}
        outWeight: {x: 0.3333333, y: 0.3333333, z: 0.3333333, w: 0.3333333}
      - serializedVersion: 3
        time: 0.2833333
        value: {x: 0, y: 0, z: 0, w: 1}
        inSlope: {x: 0, y: 0, z: 0, w: 0}
        outSlope: {x: 0, y: 0, z: 0, w: 0}
        tangentMode: 1
        weightedMode: 0
        inWeight: {x: 0.3333333, y: 0.3333333, z: 0.3333333, w: 0.3333333}
        outWeight: {x: 0.3333333, y: 0.3333333, z: 0.3333333, w: 0.3333333}
      m_PreInfinity: 2
      m_PostInfinity: 2
      m_RotationOrder: 4
    path: Bone_grip/Bone_grip_nub
  - curve:
      serializedVersion: 2
      m_Curve:
      - serializedVersion: 3
        time: 0
        value: {x: 0.596368, y: 0.379928, z: 0.596368, w: 0.379928}
        inSlope: {x: 0, y: 0, z: 0, w: 0}
        outSlope: {x: 0, y: 0, z: 0, w: 0}
        tangentMode: 1
        weightedMode: 0
        inWeight: {x: 0.3333333, y: 0.3333333, z: 0.3333333, w: 0.3333333}
        outWeight: {x: 0.3333333, y: 0.3333333, z: 0.3333333, w: 0.3333333}
      - serializedVersion: 3
        time: 0.2833333
        value: {x: 0.596368, y: 0.379928, z: 0.596368, w: 0.379928}
        inSlope: {x: 0, y: 0, z: 0, w: 0}
        outSlope: {x: 0, y: 0, z: 0, w: 0}
        tangentMode: 1
        weightedMode: 0
        inWeight: {x: 0.3333333, y: 0.3333333, z: 0.3333333, w: 0.3333333}
        outWeight: {x: 0.3333333, y: 0.3333333, z: 0.3333333, w: 0.3333333}
      m_PreInfinity: 2
      m_PostInfinity: 2
      m_RotationOrder: 4
    path: Bone_sensor
  - curve:
      serializedVersion: 2
      m_Curve:
      - serializedVersion: 3
        time: 0
        value: {x: 0, y: 0, z: 0, w: 1}
        inSlope: {x: 0, y: 0, z: 0, w: 0}
        outSlope: {x: 0, y: 0, z: 0, w: 0}
        tangentMode: 1
        weightedMode: 0
        inWeight: {x: 0.3333333, y: 0.3333333, z: 0.3333333, w: 0.3333333}
        outWeight: {x: 0.3333333, y: 0.3333333, z: 0.3333333, w: 0.3333333}
      - serializedVersion: 3
        time: 0.2833333
        value: {x: 0, y: 0, z: 0, w: 1}
        inSlope: {x: 0, y: 0, z: 0, w: 0}
        outSlope: {x: 0, y: 0, z: 0, w: 0}
        tangentMode: 1
        weightedMode: 0
        inWeight: {x: 0.3333333, y: 0.3333333, z: 0.3333333, w: 0.3333333}
        outWeight: {x: 0.3333333, y: 0.3333333, z: 0.3333333, w: 0.3333333}
      m_PreInfinity: 2
      m_PostInfinity: 2
      m_RotationOrder: 4
    path: Bone_sensor/Bone_sensor_nub
  - curve:
      serializedVersion: 2
      m_Curve:
      - serializedVersion: 3
        time: 0
        value: {x: 0, y: 0, z: 1.224647E-16, w: 1}
        inSlope: {x: 0, y: 0, z: 0, w: 0}
        outSlope: {x: 0, y: 0, z: 0, w: 0}
        tangentMode: 1
        weightedMode: 0
        inWeight: {x: 0.3333333, y: 0.3333333, z: 0.3333333, w: 0.3333333}
        outWeight: {x: 0.3333333, y: 0.3333333, z: 0.3333333, w: 0.3333333}
      - serializedVersion: 3
        time: 0.2833333
        value: {x: 0, y: 0, z: 1.224647E-16, w: 1}
        inSlope: {x: 0, y: 0, z: 0, w: 0}
        outSlope: {x: 0, y: 0, z: 0, w: 0}
        tangentMode: 1
        weightedMode: 0
        inWeight: {x: 0.3333333, y: 0.3333333, z: 0.3333333, w: 0.3333333}
        outWeight: {x: 0.3333333, y: 0.3333333, z: 0.3333333, w: 0.3333333}
      m_PreInfinity: 2
      m_PostInfinity: 2
      m_RotationOrder: 4
    path: Bone_hinge1/Bone_hinge2/Bone_hinge_nub
  - curve:
      serializedVersion: 2
      m_Curve:
      - serializedVersion: 3
        time: 0
        value: {x: 0.6903455, y: -0.1530459, z: 0.6903455, w: -0.1530459}
        inSlope: {x: 0, y: 0, z: 0, w: 0}
        outSlope: {x: 0, y: 0, z: 0, w: 0}
        tangentMode: 1
        weightedMode: 0
        inWeight: {x: 0.3333333, y: 0.3333333, z: 0.3333333, w: 0.3333333}
        outWeight: {x: 0.3333333, y: 0.3333333, z: 0.3333333, w: 0.3333333}
      - serializedVersion: 3
        time: 0.2833333
        value: {x: 0.6903455, y: -0.1530459, z: 0.6903455, w: -0.1530459}
        inSlope: {x: 0, y: 0, z: 0, w: 0}
        outSlope: {x: 0, y: 0, z: 0, w: 0}
        tangentMode: 1
        weightedMode: 0
        inWeight: {x: 0.3333333, y: 0.3333333, z: 0.3333333, w: 0.3333333}
        outWeight: {x: 0.3333333, y: 0.3333333, z: 0.3333333, w: 0.3333333}
      m_PreInfinity: 2
      m_PostInfinity: 2
      m_RotationOrder: 4
    path: Bone_cell
  - curve:
      serializedVersion: 2
      m_Curve:
      - serializedVersion: 3
        time: 0
        value: {x: 0, y: 0, z: 0, w: 1}
        inSlope: {x: 0, y: 0, z: 0, w: 0}
        outSlope: {x: 0, y: 0, z: 0, w: 0}
        tangentMode: 1
        weightedMode: 0
        inWeight: {x: 0.3333333, y: 0.3333333, z: 0.3333333, w: 0.3333333}
        outWeight: {x: 0.3333333, y: 0.3333333, z: 0.3333333, w: 0.3333333}
      - serializedVersion: 3
        time: 0.2833333
        value: {x: 0, y: 0, z: 0, w: 1}
        inSlope: {x: 0, y: 0, z: 0, w: 0}
        outSlope: {x: 0, y: 0, z: 0, w: 0}
        tangentMode: 1
        weightedMode: 0
        inWeight: {x: 0.3333333, y: 0.3333333, z: 0.3333333, w: 0.3333333}
        outWeight: {x: 0.3333333, y: 0.3333333, z: 0.3333333, w: 0.3333333}
      m_PreInfinity: 2
      m_PostInfinity: 2
      m_RotationOrder: 4
    path: Bone_cell/Bone_cell_nub
  - curve:
      serializedVersion: 2
      m_Curve:
      - serializedVersion: 3
        time: 0
        value: {x: 0.4147236, y: 0.5727167, z: 0.4147235, w: 0.5727167}
        inSlope: {x: 0, y: 0, z: 0, w: 0}
        outSlope: {x: 0, y: 0, z: 0, w: 0}
        tangentMode: 1
        weightedMode: 0
        inWeight: {x: 0.3333333, y: 0.3333333, z: 0.3333333, w: 0.3333333}
        outWeight: {x: 0.3333333, y: 0.3333333, z: 0.3333333, w: 0.3333333}
      - serializedVersion: 3
        time: 0.2833333
        value: {x: 0.4147236, y: 0.5727167, z: 0.4147235, w: 0.5727167}
        inSlope: {x: 0, y: 0, z: 0, w: 0}
        outSlope: {x: 0, y: 0, z: 0, w: 0}
        tangentMode: 1
        weightedMode: 0
        inWeight: {x: 0.3333333, y: 0.3333333, z: 0.3333333, w: 0.3333333}
        outWeight: {x: 0.3333333, y: 0.3333333, z: 0.3333333, w: 0.3333333}
      m_PreInfinity: 2
      m_PostInfinity: 2
      m_RotationOrder: 4
    path: Bone_trigger
  - curve:
      serializedVersion: 2
      m_Curve:
      - serializedVersion: 3
        time: 0
        value: {x: 0, y: 0, z: 1.224647E-16, w: 1}
        inSlope: {x: 0, y: 0, z: 0, w: 0}
        outSlope: {x: 0, y: 0, z: 0, w: 0}
        tangentMode: 1
        weightedMode: 0
        inWeight: {x: 0.3333333, y: 0.3333333, z: 0.3333333, w: 0.3333333}
        outWeight: {x: 0.3333333, y: 0.3333333, z: 0.3333333, w: 0.3333333}
      - serializedVersion: 3
        time: 0.2833333
        value: {x: 0, y: 0, z: 1.224647E-16, w: 1}
        inSlope: {x: 0, y: 0, z: 0, w: 0}
        outSlope: {x: 0, y: 0, z: 0, w: 0}
        tangentMode: 1
        weightedMode: 0
        inWeight: {x: 0.3333333, y: 0.3333333, z: 0.3333333, w: 0.3333333}
        outWeight: {x: 0.3333333, y: 0.3333333, z: 0.3333333, w: 0.3333333}
      m_PreInfinity: 2
      m_PostInfinity: 2
      m_RotationOrder: 4
    path: Bone_trigger/Bone_trigger_nub
  - curve:
      serializedVersion: 2
      m_Curve:
      - serializedVersion: 3
        time: 0
        value: {x: 0, y: 0, z: -1.224647E-16, w: 1}
        inSlope: {x: 0, y: 0, z: 0, w: 0}
        outSlope: {x: 0, y: 0, z: 0, w: 0}
        tangentMode: 1
        weightedMode: 0
        inWeight: {x: 0.3333333, y: 0.3333333, z: 0.3333333, w: 0.3333333}
        outWeight: {x: 0.3333333, y: 0.3333333, z: 0.3333333, w: 0.3333333}
      - serializedVersion: 3
        time: 0.2833333
        value: {x: 0, y: 0, z: -1.224647E-16, w: 1}
        inSlope: {x: 0, y: 0, z: 0, w: 0}
        outSlope: {x: 0, y: 0, z: 0, w: 0}
        tangentMode: 1
        weightedMode: 0
        inWeight: {x: 0.3333333, y: 0.3333333, z: 0.3333333, w: 0.3333333}
        outWeight: {x: 0.3333333, y: 0.3333333, z: 0.3333333, w: 0.3333333}
      m_PreInfinity: 2
      m_PostInfinity: 2
      m_RotationOrder: 4
    path: Bone_latch/Bone_latch_nub
  - curve:
      serializedVersion: 2
      m_Curve:
      - serializedVersion: 3
        time: 0
        value: {x: 0.0002030966, y: 0.7071068, z: 0.0002030024, w: 0.7071067}
        inSlope: {x: 0, y: 0, z: 0, w: 0}
        outSlope: {x: 0, y: 0, z: 0, w: 0}
        tangentMode: 1
        weightedMode: 0
        inWeight: {x: 0.3333333, y: 0.3333333, z: 0.3333333, w: 0.3333333}
        outWeight: {x: 0.3333333, y: 0.3333333, z: 0.3333333, w: 0.3333333}
      - serializedVersion: 3
        time: 0.2833333
        value: {x: 0.0002030966, y: 0.7071068, z: 0.0002030024, w: 0.7071067}
        inSlope: {x: 0, y: 0, z: 0, w: 0}
        outSlope: {x: 0, y: 0, z: 0, w: 0}
        tangentMode: 1
        weightedMode: 0
        inWeight: {x: 0.3333333, y: 0.3333333, z: 0.3333333, w: 0.3333333}
        outWeight: {x: 0.3333333, y: 0.3333333, z: 0.3333333, w: 0.3333333}
      m_PreInfinity: 2
      m_PostInfinity: 2
      m_RotationOrder: 4
    path: Bone_gear_front
  - curve:
      serializedVersion: 2
      m_Curve:
      - serializedVersion: 3
        time: 0
        value: {x: 0, y: 0, z: 0, w: 1}
        inSlope: {x: 0, y: 0, z: 0, w: 0}
        outSlope: {x: 0, y: 0, z: 0, w: 0}
        tangentMode: 1
        weightedMode: 0
        inWeight: {x: 0.3333333, y: 0.3333333, z: 0.3333333, w: 0.3333333}
        outWeight: {x: 0.3333333, y: 0.3333333, z: 0.3333333, w: 0.3333333}
      - serializedVersion: 3
        time: 0.2833333
        value: {x: 0, y: 0, z: 0, w: 1}
        inSlope: {x: 0, y: 0, z: 0, w: 0}
        outSlope: {x: 0, y: 0, z: 0, w: 0}
        tangentMode: 1
        weightedMode: 0
        inWeight: {x: 0.3333333, y: 0.3333333, z: 0.3333333, w: 0.3333333}
        outWeight: {x: 0.3333333, y: 0.3333333, z: 0.3333333, w: 0.3333333}
      m_PreInfinity: 2
      m_PostInfinity: 2
      m_RotationOrder: 4
    path: Bone_gear_front/Bone_gear_front_nub
  - curve:
      serializedVersion: 2
      m_Curve:
      - serializedVersion: 3
        time: 0
        value: {x: 0.5001436, y: -0.5001434, z: 0.4998565, w: 0.4998564}
        inSlope: {x: 0, y: 0, z: 0, w: 0}
        outSlope: {x: 0, y: 0, z: 0, w: 0}
        tangentMode: 1
        weightedMode: 0
        inWeight: {x: 0.3333333, y: 0.3333333, z: 0.3333333, w: 0.3333333}
        outWeight: {x: 0.3333333, y: 0.3333333, z: 0.3333333, w: 0.3333333}
      - serializedVersion: 3
        time: 0.2833333
        value: {x: 0.5001436, y: -0.5001434, z: 0.4998565, w: 0.4998564}
        inSlope: {x: 0, y: 0, z: 0, w: 0}
        outSlope: {x: 0, y: 0, z: 0, w: 0}
        tangentMode: 1
        weightedMode: 0
        inWeight: {x: 0.3333333, y: 0.3333333, z: 0.3333333, w: 0.3333333}
        outWeight: {x: 0.3333333, y: 0.3333333, z: 0.3333333, w: 0.3333333}
      m_PreInfinity: 2
      m_PostInfinity: 2
      m_RotationOrder: 4
    path: Bone_gear_back
  - curve:
      serializedVersion: 2
      m_Curve:
      - serializedVersion: 3
        time: 0
        value: {x: 0, y: 0, z: 0, w: 1}
        inSlope: {x: 0, y: 0, z: 0, w: 0}
        outSlope: {x: 0, y: 0, z: 0, w: 0}
        tangentMode: 1
        weightedMode: 0
        inWeight: {x: 0.3333333, y: 0.3333333, z: 0.3333333, w: 0.3333333}
        outWeight: {x: 0.3333333, y: 0.3333333, z: 0.3333333, w: 0.3333333}
      - serializedVersion: 3
        time: 0.2833333
        value: {x: 0, y: 0, z: 0, w: 1}
        inSlope: {x: 0, y: 0, z: 0, w: 0}
        outSlope: {x: 0, y: 0, z: 0, w: 0}
        tangentMode: 1
        weightedMode: 0
        inWeight: {x: 0.3333333, y: 0.3333333, z: 0.3333333, w: 0.3333333}
        outWeight: {x: 0.3333333, y: 0.3333333, z: 0.3333333, w: 0.3333333}
      m_PreInfinity: 2
      m_PostInfinity: 2
      m_RotationOrder: 4
    path: Bone_gear_back/Bone_gear_back_nub
  - curve:
      serializedVersion: 2
      m_Curve:
      - serializedVersion: 3
        time: 0
        value: {x: -0.7071068, y: 4.714216E-05, z: 4.714216E-05, w: 0.7071068}
        inSlope: {x: 0, y: 0, z: 0, w: 0}
        outSlope: {x: 0, y: 0, z: 0, w: 0}
        tangentMode: 1
        weightedMode: 0
        inWeight: {x: 0.3333333, y: 0.3333333, z: 0.3333333, w: 0.3333333}
        outWeight: {x: 0.3333333, y: 0.3333333, z: 0.3333333, w: 0.3333333}
      - serializedVersion: 3
        time: 0.2833333
        value: {x: -0.7071068, y: 4.714216E-05, z: 4.714216E-05, w: 0.7071068}
        inSlope: {x: 0, y: 0, z: 0, w: 0}
        outSlope: {x: 0, y: 0, z: 0, w: 0}
        tangentMode: 1
        weightedMode: 0
        inWeight: {x: 0.3333333, y: 0.3333333, z: 0.3333333, w: 0.3333333}
        outWeight: {x: 0.3333333, y: 0.3333333, z: 0.3333333, w: 0.3333333}
      m_PreInfinity: 2
      m_PostInfinity: 2
      m_RotationOrder: 4
    path: Bone_left_flap
  - curve:
      serializedVersion: 2
      m_Curve:
      - serializedVersion: 3
        time: 0
        value: {x: 0, y: 0, z: 0, w: 1}
        inSlope: {x: 0, y: 0, z: 0, w: 0}
        outSlope: {x: 0, y: 0, z: 0, w: 0}
        tangentMode: 1
        weightedMode: 0
        inWeight: {x: 0.3333333, y: 0.3333333, z: 0.3333333, w: 0.3333333}
        outWeight: {x: 0.3333333, y: 0.3333333, z: 0.3333333, w: 0.3333333}
      - serializedVersion: 3
        time: 0.2833333
        value: {x: 0, y: 0, z: 0, w: 1}
        inSlope: {x: 0, y: 0, z: 0, w: 0}
        outSlope: {x: 0, y: 0, z: 0, w: 0}
        tangentMode: 1
        weightedMode: 0
        inWeight: {x: 0.3333333, y: 0.3333333, z: 0.3333333, w: 0.3333333}
        outWeight: {x: 0.3333333, y: 0.3333333, z: 0.3333333, w: 0.3333333}
      m_PreInfinity: 2
      m_PostInfinity: 2
      m_RotationOrder: 4
    path: Bone_left_flap/Bone_left_flap_nub
  - curve:
      serializedVersion: 2
      m_Curve:
      - serializedVersion: 3
        time: 0
        value: {x: 4.707848E-05, y: 0.7071068, z: 0.7071068, w: -4.707848E-05}
        inSlope: {x: 0, y: 0, z: 0, w: 0}
        outSlope: {x: 0, y: 0, z: 0, w: 0}
        tangentMode: 1
        weightedMode: 0
        inWeight: {x: 0.3333333, y: 0.3333333, z: 0.3333333, w: 0.3333333}
        outWeight: {x: 0.3333333, y: 0.3333333, z: 0.3333333, w: 0.3333333}
      - serializedVersion: 3
        time: 0.2833333
        value: {x: 4.707848E-05, y: 0.7071068, z: 0.7071068, w: -4.707848E-05}
        inSlope: {x: 0, y: 0, z: 0, w: 0}
        outSlope: {x: 0, y: 0, z: 0, w: 0}
        tangentMode: 1
        weightedMode: 0
        inWeight: {x: 0.3333333, y: 0.3333333, z: 0.3333333, w: 0.3333333}
        outWeight: {x: 0.3333333, y: 0.3333333, z: 0.3333333, w: 0.3333333}
      m_PreInfinity: 2
      m_PostInfinity: 2
      m_RotationOrder: 4
    path: Bone_right_flap
  - curve:
      serializedVersion: 2
      m_Curve:
      - serializedVersion: 3
        time: 0
        value: {x: 0, y: 0, z: 0, w: 1}
        inSlope: {x: 0, y: 0, z: 0, w: 0}
        outSlope: {x: 0, y: 0, z: 0, w: 0}
        tangentMode: 1
        weightedMode: 0
        inWeight: {x: 0.3333333, y: 0.3333333, z: 0.3333333, w: 0.3333333}
        outWeight: {x: 0.3333333, y: 0.3333333, z: 0.3333333, w: 0.3333333}
      - serializedVersion: 3
        time: 0.2833333
        value: {x: 0, y: 0, z: 0, w: 1}
        inSlope: {x: 0, y: 0, z: 0, w: 0}
        outSlope: {x: 0, y: 0, z: 0, w: 0}
        tangentMode: 1
        weightedMode: 0
        inWeight: {x: 0.3333333, y: 0.3333333, z: 0.3333333, w: 0.3333333}
        outWeight: {x: 0.3333333, y: 0.3333333, z: 0.3333333, w: 0.3333333}
      m_PreInfinity: 2
      m_PostInfinity: 2
      m_RotationOrder: 4
    path: Bone_right_flap/Bone_right_flap_nub
  m_CompressedRotationCurves: []
  m_EulerCurves: []
  m_PositionCurves:
  - curve:
      serializedVersion: 2
      m_Curve:
      - serializedVersion: 3
        time: 0
        value: {x: 1.110595E-09, y: 0.02761275, z: 0.02540745}
        inSlope: {x: 0, y: 0, z: 0}
        outSlope: {x: 0, y: 0, z: 0}
        tangentMode: 1
        weightedMode: 0
        inWeight: {x: 0.3333333, y: 0.3333333, z: 0.3333333}
        outWeight: {x: 0.3333333, y: 0.3333333, z: 0.3333333}
      - serializedVersion: 3
        time: 0.01666667
        value: {x: 1.110595E-09, y: 0.02761275, z: 0.02540745}
        inSlope: {x: 0, y: 0, z: 0}
        outSlope: {x: 0, y: 0, z: 0}
        tangentMode: 1
        weightedMode: 0
        inWeight: {x: 0.3333333, y: 0.3333333, z: 0.3333333}
        outWeight: {x: 0.3333333, y: 0.3333333, z: 0.3333333}
      - serializedVersion: 3
        time: 0.03333334
        value: {x: 1.110595E-09, y: 0.02761275, z: 0.02540745}
        inSlope: {x: 0, y: 0, z: 0}
        outSlope: {x: 0, y: 0, z: 0}
        tangentMode: 1
        weightedMode: 0
        inWeight: {x: 0.3333333, y: 0.3333333, z: 0.3333333}
        outWeight: {x: 0.3333333, y: 0.3333333, z: 0.3333333}
      - serializedVersion: 3
        time: 0.05
        value: {x: 1.110595E-09, y: 0.02761275, z: 0.02540745}
        inSlope: {x: 0, y: 0, z: 0}
        outSlope: {x: 0, y: 0, z: 0}
        tangentMode: 1
        weightedMode: 0
        inWeight: {x: 0.3333333, y: 0.3333333, z: 0.3333333}
        outWeight: {x: 0.3333333, y: 0.3333333, z: 0.3333333}
      - serializedVersion: 3
        time: 0.06666667
        value: {x: 1.110595E-09, y: 0.02761275, z: 0.02540745}
        inSlope: {x: 0, y: 0, z: 0}
        outSlope: {x: 0, y: 0, z: 0}
        tangentMode: 1
        weightedMode: 0
        inWeight: {x: 0.3333333, y: 0.3333333, z: 0.3333333}
        outWeight: {x: 0.3333333, y: 0.3333333, z: 0.3333333}
      - serializedVersion: 3
        time: 0.08333334
        value: {x: 1.110595E-09, y: 0.02761275, z: 0.02540745}
        inSlope: {x: 0, y: 0, z: 0}
        outSlope: {x: 0, y: 0, z: 0}
        tangentMode: 1
        weightedMode: 0
        inWeight: {x: 0.3333333, y: 0.3333333, z: 0.3333333}
        outWeight: {x: 0.3333333, y: 0.3333333, z: 0.3333333}
      - serializedVersion: 3
        time: 0.1
        value: {x: 1.110595E-09, y: 0.02761275, z: 0.02540745}
        inSlope: {x: 0, y: 0, z: 0}
        outSlope: {x: 0, y: 0, z: 0}
        tangentMode: 1
        weightedMode: 0
        inWeight: {x: 0.3333333, y: 0.3333333, z: 0.3333333}
        outWeight: {x: 0.3333333, y: 0.3333333, z: 0.3333333}
      - serializedVersion: 3
        time: 0.1166667
        value: {x: 1.110595E-09, y: 0.02761275, z: 0.02540745}
        inSlope: {x: 0, y: 0, z: 0}
        outSlope: {x: 0, y: 0, z: 0}
        tangentMode: 1
        weightedMode: 0
        inWeight: {x: 0.3333333, y: 0.3333333, z: 0.3333333}
        outWeight: {x: 0.3333333, y: 0.3333333, z: 0.3333333}
      - serializedVersion: 3
        time: 0.1333333
        value: {x: 1.110595E-09, y: 0.02761275, z: 0.02540745}
        inSlope: {x: 0, y: 0, z: 0}
        outSlope: {x: 0, y: 0, z: 0}
        tangentMode: 1
        weightedMode: 0
        inWeight: {x: 0.3333333, y: 0.3333333, z: 0.3333333}
        outWeight: {x: 0.3333333, y: 0.3333333, z: 0.3333333}
      - serializedVersion: 3
        time: 0.15
        value: {x: 1.220586E-09, y: 0.02878613, z: 0.02289112}
        inSlope: {x: 0, y: 0, z: 0}
        outSlope: {x: 0, y: 0, z: 0}
        tangentMode: 1
        weightedMode: 0
        inWeight: {x: 0.3333333, y: 0.3333333, z: 0.3333333}
        outWeight: {x: 0.3333333, y: 0.3333333, z: 0.3333333}
      - serializedVersion: 3
        time: 0.1666667
        value: {x: 1.504249E-09, y: 0.0318122, z: 0.01640167}
        inSlope: {x: 0, y: 0, z: 0}
        outSlope: {x: 0, y: 0, z: 0}
        tangentMode: 1
        weightedMode: 0
        inWeight: {x: 0.3333333, y: 0.3333333, z: 0.3333333}
        outWeight: {x: 0.3333333, y: 0.3333333, z: 0.3333333}
      - serializedVersion: 3
        time: 0.1833333
        value: {x: 1.892114E-09, y: 0.03594989, z: 0.007528346}
        inSlope: {x: 0, y: 0, z: 0}
        outSlope: {x: 0, y: 0, z: 0}
        tangentMode: 1
        weightedMode: 0
        inWeight: {x: 0.3333333, y: 0.3333333, z: 0.3333333}
        outWeight: {x: 0.3333333, y: 0.3333333, z: 0.3333333}
      - serializedVersion: 3
        time: 0.2
        value: {x: 2.314714E-09, y: 0.04045812, z: -0.002139606}
        inSlope: {x: 0, y: 0, z: 0}
        outSlope: {x: 0, y: 0, z: 0}
        tangentMode: 1
        weightedMode: 0
        inWeight: {x: 0.3333333, y: 0.3333333, z: 0.3333333}
        outWeight: {x: 0.3333333, y: 0.3333333, z: 0.3333333}
      - serializedVersion: 3
        time: 0.2166667
        value: {x: 2.70258E-09, y: 0.04459582, z: -0.01101294}
        inSlope: {x: 0, y: 0, z: 0}
        outSlope: {x: 0, y: 0, z: 0}
        tangentMode: 1
        weightedMode: 0
        inWeight: {x: 0.3333333, y: 0.3333333, z: 0.3333333}
        outWeight: {x: 0.3333333, y: 0.3333333, z: 0.3333333}
      - serializedVersion: 3
        time: 0.2333333
        value: {x: 2.986244E-09, y: 0.04762192, z: -0.0175024}
        inSlope: {x: 0, y: 0, z: 0}
        outSlope: {x: 0, y: 0, z: 0}
        tangentMode: 1
        weightedMode: 0
        inWeight: {x: 0.3333333, y: 0.3333333, z: 0.3333333}
        outWeight: {x: 0.3333333, y: 0.3333333, z: 0.3333333}
      - serializedVersion: 3
        time: 0.25
        value: {x: 3.096237E-09, y: 0.04879533, z: -0.02001876}
        inSlope: {x: 0, y: 0, z: 0}
        outSlope: {x: 0, y: 0, z: 0}
        tangentMode: 1
        weightedMode: 0
        inWeight: {x: 0.3333333, y: 0.3333333, z: 0.3333333}
        outWeight: {x: 0.3333333, y: 0.3333333, z: 0.3333333}
      - serializedVersion: 3
        time: 0.2666667
        value: {x: 3.096237E-09, y: 0.04879533, z: -0.02001876}
        inSlope: {x: 0, y: 0, z: 0}
        outSlope: {x: 0, y: 0, z: 0}
        tangentMode: 1
        weightedMode: 0
        inWeight: {x: 0.3333333, y: 0.3333333, z: 0.3333333}
        outWeight: {x: 0.3333333, y: 0.3333333, z: 0.3333333}
      m_PreInfinity: 2
      m_PostInfinity: 2
      m_RotationOrder: 4
    path: Bone_cell
  - curve:
      serializedVersion: 2
      m_Curve:
      - serializedVersion: 3
        time: 0
        value: {x: -2.095795E-09, y: 0.02721109, z: -0.0479462}
        inSlope: {x: 0, y: 0, z: 0}
        outSlope: {x: 0, y: 0, z: 0}
        tangentMode: 1
        weightedMode: 0
        inWeight: {x: 0.3333333, y: 0.3333333, z: 0.3333333}
        outWeight: {x: 0.3333333, y: 0.3333333, z: 0.3333333}
      - serializedVersion: 3
        time: 0.2833333
        value: {x: -2.095795E-09, y: 0.02721109, z: -0.0479462}
        inSlope: {x: 0, y: 0, z: 0}
        outSlope: {x: 0, y: 0, z: 0}
        tangentMode: 1
        weightedMode: 0
        inWeight: {x: 0.3333333, y: 0.3333333, z: 0.3333333}
        outWeight: {x: 0.3333333, y: 0.3333333, z: 0.3333333}
      m_PreInfinity: 2
      m_PostInfinity: 2
      m_RotationOrder: 4
    path: Bone_grip
  - curve:
      serializedVersion: 2
      m_Curve:
      - serializedVersion: 3
        time: 0
        value: {x: -0.0823441, y: 4.693279E-09, z: -9.815672E-09}
        inSlope: {x: 0, y: 0, z: 0}
        outSlope: {x: 0, y: 0, z: 0}
        tangentMode: 1
        weightedMode: 0
        inWeight: {x: 0.3333333, y: 0.3333333, z: 0.3333333}
        outWeight: {x: 0.3333333, y: 0.3333333, z: 0.3333333}
      - serializedVersion: 3
        time: 0.2833333
        value: {x: -0.0823441, y: 4.693279E-09, z: -9.815672E-09}
        inSlope: {x: 0, y: 0, z: 0}
        outSlope: {x: 0, y: 0, z: 0}
        tangentMode: 1
        weightedMode: 0
        inWeight: {x: 0.3333333, y: 0.3333333, z: 0.3333333}
        outWeight: {x: 0.3333333, y: 0.3333333, z: 0.3333333}
      m_PreInfinity: 2
      m_PostInfinity: 2
      m_RotationOrder: 4
    path: Bone_grip/Bone_grip_nub
  - curve:
      serializedVersion: 2
      m_Curve:
      - serializedVersion: 3
        time: 0
        value: {x: 5.476407E-09, y: 0.004210982, z: 0.1252856}
        inSlope: {x: 0, y: 0, z: 0}
        outSlope: {x: 0, y: 0, z: 0}
        tangentMode: 1
        weightedMode: 0
        inWeight: {x: 0.3333333, y: 0.3333333, z: 0.3333333}
        outWeight: {x: 0.3333333, y: 0.3333333, z: 0.3333333}
      - serializedVersion: 3
        time: 0.2833333
        value: {x: 5.476407E-09, y: 0.004210982, z: 0.1252856}
        inSlope: {x: 0, y: 0, z: 0}
        outSlope: {x: 0, y: 0, z: 0}
        tangentMode: 1
        weightedMode: 0
        inWeight: {x: 0.3333333, y: 0.3333333, z: 0.3333333}
        outWeight: {x: 0.3333333, y: 0.3333333, z: 0.3333333}
      m_PreInfinity: 2
      m_PostInfinity: 2
      m_RotationOrder: 4
    path: Bone_sensor
  - curve:
      serializedVersion: 2
      m_Curve:
      - serializedVersion: 3
        time: 0
        value: {x: -0.007868678, y: 3.754623E-09, z: -2.907232E-10}
        inSlope: {x: 0, y: 0, z: 0}
        outSlope: {x: 0, y: 0, z: 0}
        tangentMode: 1
        weightedMode: 0
        inWeight: {x: 0.3333333, y: 0.3333333, z: 0.3333333}
        outWeight: {x: 0.3333333, y: 0.3333333, z: 0.3333333}
      - serializedVersion: 3
        time: 0.2833333
        value: {x: -0.007868678, y: 3.754623E-09, z: -2.907232E-10}
        inSlope: {x: 0, y: 0, z: 0}
        outSlope: {x: 0, y: 0, z: 0}
        tangentMode: 1
        weightedMode: 0
        inWeight: {x: 0.3333333, y: 0.3333333, z: 0.3333333}
        outWeight: {x: 0.3333333, y: 0.3333333, z: 0.3333333}
      m_PreInfinity: 2
      m_PostInfinity: 2
      m_RotationOrder: 4
    path: Bone_sensor/Bone_sensor_nub
  - curve:
      serializedVersion: 2
      m_Curve:
      - serializedVersion: 3
        time: 0
        value: {x: 1.505238E-10, y: 0.04330803, z: 0.003443584}
        inSlope: {x: 0, y: 0, z: 0}
        outSlope: {x: 0, y: 0, z: 0}
        tangentMode: 1
        weightedMode: 0
        inWeight: {x: 0.3333333, y: 0.3333333, z: 0.3333333}
        outWeight: {x: 0.3333333, y: 0.3333333, z: 0.3333333}
      - serializedVersion: 3
        time: 0.2833333
        value: {x: 1.505238E-10, y: 0.04330803, z: 0.003443584}
        inSlope: {x: 0, y: 0, z: 0}
        outSlope: {x: 0, y: 0, z: 0}
        tangentMode: 1
        weightedMode: 0
        inWeight: {x: 0.3333333, y: 0.3333333, z: 0.3333333}
        outWeight: {x: 0.3333333, y: 0.3333333, z: 0.3333333}
      m_PreInfinity: 2
      m_PostInfinity: 2
      m_RotationOrder: 4
    path: Bone_hinge1
  - curve:
      serializedVersion: 2
      m_Curve:
      - serializedVersion: 3
        time: 0
        value: {x: -0.01368967, y: 2.909833E-07, z: -1.196809E-09}
        inSlope: {x: 0, y: 0, z: 0}
        outSlope: {x: 0, y: 0, z: 0}
        tangentMode: 1
        weightedMode: 0
        inWeight: {x: 0.3333333, y: 0.3333333, z: 0.3333333}
        outWeight: {x: 0.3333333, y: 0.3333333, z: 0.3333333}
      - serializedVersion: 3
        time: 0.2833333
        value: {x: -0.01368967, y: 2.909833E-07, z: -1.196809E-09}
        inSlope: {x: 0, y: 0, z: 0}
        outSlope: {x: 0, y: 0, z: 0}
        tangentMode: 1
        weightedMode: 0
        inWeight: {x: 0.3333333, y: 0.3333333, z: 0.3333333}
        outWeight: {x: 0.3333333, y: 0.3333333, z: 0.3333333}
      m_PreInfinity: 2
      m_PostInfinity: 2
      m_RotationOrder: 4
    path: Bone_hinge1/Bone_hinge2
  - curve:
      serializedVersion: 2
      m_Curve:
      - serializedVersion: 3
        time: 0
        value: {x: -0.01215731, y: 2.008723E-07, z: -1.58893E-14}
        inSlope: {x: 0, y: 0, z: 0}
        outSlope: {x: 0, y: 0, z: 0}
        tangentMode: 1
        weightedMode: 0
        inWeight: {x: 0.3333333, y: 0.3333333, z: 0.3333333}
        outWeight: {x: 0.3333333, y: 0.3333333, z: 0.3333333}
      - serializedVersion: 3
        time: 0.2833333
        value: {x: -0.01215731, y: 2.008723E-07, z: -1.58893E-14}
        inSlope: {x: 0, y: 0, z: 0}
        outSlope: {x: 0, y: 0, z: 0}
        tangentMode: 1
        weightedMode: 0
        inWeight: {x: 0.3333333, y: 0.3333333, z: 0.3333333}
        outWeight: {x: 0.3333333, y: 0.3333333, z: 0.3333333}
      m_PreInfinity: 2
      m_PostInfinity: 2
      m_RotationOrder: 4
    path: Bone_hinge1/Bone_hinge2/Bone_hinge_nub
  - curve:
      serializedVersion: 2
      m_Curve:
      - serializedVersion: 3
        time: 0
        value: {x: -0.02067543, y: 3.754623E-09, z: 5.956253E-10}
        inSlope: {x: 0, y: 0, z: 0}
        outSlope: {x: 0, y: 0, z: 0}
        tangentMode: 1
        weightedMode: 0
        inWeight: {x: 0.3333333, y: 0.3333333, z: 0.3333333}
        outWeight: {x: 0.3333333, y: 0.3333333, z: 0.3333333}
      - serializedVersion: 3
        time: 0.2833333
        value: {x: -0.02067543, y: 3.754623E-09, z: 5.956253E-10}
        inSlope: {x: 0, y: 0, z: 0}
        outSlope: {x: 0, y: 0, z: 0}
        tangentMode: 1
        weightedMode: 0
        inWeight: {x: 0.3333333, y: 0.3333333, z: 0.3333333}
        outWeight: {x: 0.3333333, y: 0.3333333, z: 0.3333333}
      m_PreInfinity: 2
      m_PostInfinity: 2
      m_RotationOrder: 4
    path: Bone_cell/Bone_cell_nub
  - curve:
      serializedVersion: 2
      m_Curve:
      - serializedVersion: 3
        time: 0
        value: {x: -6.174064E-05, y: 0.01911218, z: -0.009856986}
        inSlope: {x: 0, y: 0, z: 0}
        outSlope: {x: 0, y: 0, z: 0}
        tangentMode: 1
        weightedMode: 0
        inWeight: {x: 0.3333333, y: 0.3333333, z: 0.3333333}
        outWeight: {x: 0.3333333, y: 0.3333333, z: 0.3333333}
      - serializedVersion: 3
        time: 0.2833333
        value: {x: -6.174064E-05, y: 0.01911218, z: -0.009856986}
        inSlope: {x: 0, y: 0, z: 0}
        outSlope: {x: 0, y: 0, z: 0}
        tangentMode: 1
        weightedMode: 0
        inWeight: {x: 0.3333333, y: 0.3333333, z: 0.3333333}
        outWeight: {x: 0.3333333, y: 0.3333333, z: 0.3333333}
      m_PreInfinity: 2
      m_PostInfinity: 2
      m_RotationOrder: 4
    path: Bone_trigger
  - curve:
      serializedVersion: 2
      m_Curve:
      - serializedVersion: 3
        time: 0
        value: {x: -0.01195857, y: -7.274583E-09, z: -4.448028E-10}
        inSlope: {x: 0, y: 0, z: 0}
        outSlope: {x: 0, y: 0, z: 0}
        tangentMode: 1
        weightedMode: 0
        inWeight: {x: 0.3333333, y: 0.3333333, z: 0.3333333}
        outWeight: {x: 0.3333333, y: 0.3333333, z: 0.3333333}
      - serializedVersion: 3
        time: 0.2833333
        value: {x: -0.01195857, y: -7.274583E-09, z: -4.448028E-10}
        inSlope: {x: 0, y: 0, z: 0}
        outSlope: {x: 0, y: 0, z: 0}
        tangentMode: 1
        weightedMode: 0
        inWeight: {x: 0.3333333, y: 0.3333333, z: 0.3333333}
        outWeight: {x: 0.3333333, y: 0.3333333, z: 0.3333333}
      m_PreInfinity: 2
      m_PostInfinity: 2
      m_RotationOrder: 4
    path: Bone_trigger/Bone_trigger_nub
  - curve:
      serializedVersion: 2
      m_Curve:
      - serializedVersion: 3
        time: 0
        value: {x: -0.0001062934, y: 0.0265259, z: -0.01429314}
        inSlope: {x: 0, y: 0, z: 0}
        outSlope: {x: 0, y: 0, z: 0}
        tangentMode: 1
        weightedMode: 0
        inWeight: {x: 0.3333333, y: 0.3333333, z: 0.3333333}
        outWeight: {x: 0.3333333, y: 0.3333333, z: 0.3333333}
      - serializedVersion: 3
        time: 0.2833333
        value: {x: -0.0001062934, y: 0.0265259, z: -0.01429314}
        inSlope: {x: 0, y: 0, z: 0}
        outSlope: {x: 0, y: 0, z: 0}
        tangentMode: 1
        weightedMode: 0
        inWeight: {x: 0.3333333, y: 0.3333333, z: 0.3333333}
        outWeight: {x: 0.3333333, y: 0.3333333, z: 0.3333333}
      m_PreInfinity: 2
      m_PostInfinity: 2
      m_RotationOrder: 4
    path: Bone_latch
  - curve:
      serializedVersion: 2
      m_Curve:
      - serializedVersion: 3
        time: 0
        value: {x: -0.007546533, y: -3.942354E-08, z: -2.398737E-10}
        inSlope: {x: 0, y: 0, z: 0}
        outSlope: {x: 0, y: 0, z: 0}
        tangentMode: 1
        weightedMode: 0
        inWeight: {x: 0.3333333, y: 0.3333333, z: 0.3333333}
        outWeight: {x: 0.3333333, y: 0.3333333, z: 0.3333333}
      - serializedVersion: 3
        time: 0.2833333
        value: {x: -0.007546533, y: -3.942354E-08, z: -2.398737E-10}
        inSlope: {x: 0, y: 0, z: 0}
        outSlope: {x: 0, y: 0, z: 0}
        tangentMode: 1
        weightedMode: 0
        inWeight: {x: 0.3333333, y: 0.3333333, z: 0.3333333}
        outWeight: {x: 0.3333333, y: 0.3333333, z: 0.3333333}
      m_PreInfinity: 2
      m_PostInfinity: 2
      m_RotationOrder: 4
    path: Bone_latch/Bone_latch_nub
  - curve:
      serializedVersion: 2
      m_Curve:
      - serializedVersion: 3
        time: 0
        value: {x: 6.356222E-09, y: 0.02296953, z: 0.1454134}
        inSlope: {x: 0, y: 0, z: 0}
        outSlope: {x: 0, y: 0, z: 0}
        tangentMode: 1
        weightedMode: 0
        inWeight: {x: 0.3333333, y: 0.3333333, z: 0.3333333}
        outWeight: {x: 0.3333333, y: 0.3333333, z: 0.3333333}
      - serializedVersion: 3
        time: 0.2833333
        value: {x: 6.356222E-09, y: 0.02296953, z: 0.1454134}
        inSlope: {x: 0, y: 0, z: 0}
        outSlope: {x: 0, y: 0, z: 0}
        tangentMode: 1
        weightedMode: 0
        inWeight: {x: 0.3333333, y: 0.3333333, z: 0.3333333}
        outWeight: {x: 0.3333333, y: 0.3333333, z: 0.3333333}
      m_PreInfinity: 2
      m_PostInfinity: 2
      m_RotationOrder: 4
    path: Bone_gear_front
  - curve:
      serializedVersion: 2
      m_Curve:
      - serializedVersion: 3
        time: 0
        value: {x: -0.001509456, y: -1.971177E-08, z: -1.799627E-10}
        inSlope: {x: 0, y: 0, z: 0}
        outSlope: {x: 0, y: 0, z: 0}
        tangentMode: 1
        weightedMode: 0
        inWeight: {x: 0.3333333, y: 0.3333333, z: 0.3333333}
        outWeight: {x: 0.3333333, y: 0.3333333, z: 0.3333333}
      - serializedVersion: 3
        time: 0.2833333
        value: {x: -0.001509456, y: -1.971177E-08, z: -1.799627E-10}
        inSlope: {x: 0, y: 0, z: 0}
        outSlope: {x: 0, y: 0, z: 0}
        tangentMode: 1
        weightedMode: 0
        inWeight: {x: 0.3333333, y: 0.3333333, z: 0.3333333}
        outWeight: {x: 0.3333333, y: 0.3333333, z: 0.3333333}
      m_PreInfinity: 2
      m_PostInfinity: 2
      m_RotationOrder: 4
    path: Bone_gear_front/Bone_gear_front_nub
  - curve:
      serializedVersion: 2
      m_Curve:
      - serializedVersion: 3
        time: 0
        value: {x: -6.173002E-05, y: 0.02296907, z: 0.1445034}
        inSlope: {x: 0, y: 0, z: 0}
        outSlope: {x: 0, y: 0, z: 0}
        tangentMode: 1
        weightedMode: 0
        inWeight: {x: 0.3333333, y: 0.3333333, z: 0.3333333}
        outWeight: {x: 0.3333333, y: 0.3333333, z: 0.3333333}
      - serializedVersion: 3
        time: 0.2833333
        value: {x: -6.173002E-05, y: 0.02296907, z: 0.1445034}
        inSlope: {x: 0, y: 0, z: 0}
        outSlope: {x: 0, y: 0, z: 0}
        tangentMode: 1
        weightedMode: 0
        inWeight: {x: 0.3333333, y: 0.3333333, z: 0.3333333}
        outWeight: {x: 0.3333333, y: 0.3333333, z: 0.3333333}
      m_PreInfinity: 2
      m_PostInfinity: 2
      m_RotationOrder: 4
    path: Bone_gear_back
  - curve:
      serializedVersion: 2
      m_Curve:
      - serializedVersion: 3
        time: 0
        value: {x: -0.001509456, y: -1.971177E-08, z: -1.799627E-10}
        inSlope: {x: 0, y: 0, z: 0}
        outSlope: {x: 0, y: 0, z: 0}
        tangentMode: 1
        weightedMode: 0
        inWeight: {x: 0.3333333, y: 0.3333333, z: 0.3333333}
        outWeight: {x: 0.3333333, y: 0.3333333, z: 0.3333333}
      - serializedVersion: 3
        time: 0.2833333
        value: {x: -0.001509456, y: -1.971177E-08, z: -1.799627E-10}
        inSlope: {x: 0, y: 0, z: 0}
        outSlope: {x: 0, y: 0, z: 0}
        tangentMode: 1
        weightedMode: 0
        inWeight: {x: 0.3333333, y: 0.3333333, z: 0.3333333}
        outWeight: {x: 0.3333333, y: 0.3333333, z: 0.3333333}
      m_PreInfinity: 2
      m_PostInfinity: 2
      m_RotationOrder: 4
    path: Bone_gear_back/Bone_gear_back_nub
  - curve:
      serializedVersion: 2
      m_Curve:
      - serializedVersion: 3
        time: 0
        value: {x: 0.01685244, y: 0.03881799, z: 0.1427483}
        inSlope: {x: 0, y: 0, z: 0}
        outSlope: {x: 0, y: 0, z: 0}
        tangentMode: 1
        weightedMode: 0
        inWeight: {x: 0.3333333, y: 0.3333333, z: 0.3333333}
        outWeight: {x: 0.3333333, y: 0.3333333, z: 0.3333333}
      - serializedVersion: 3
        time: 0.2833333
        value: {x: 0.01685244, y: 0.03881799, z: 0.1427483}
        inSlope: {x: 0, y: 0, z: 0}
        outSlope: {x: 0, y: 0, z: 0}
        tangentMode: 1
        weightedMode: 0
        inWeight: {x: 0.3333333, y: 0.3333333, z: 0.3333333}
        outWeight: {x: 0.3333333, y: 0.3333333, z: 0.3333333}
      m_PreInfinity: 2
      m_PostInfinity: 2
      m_RotationOrder: 4
    path: Bone_left_flap
  - curve:
      serializedVersion: 2
      m_Curve:
      - serializedVersion: 3
        time: 0
        value: {x: -0.01363028, y: 5.631935E-08, z: 0}
        inSlope: {x: 0, y: 0, z: 0}
        outSlope: {x: 0, y: 0, z: 0}
        tangentMode: 1
        weightedMode: 0
        inWeight: {x: 0.3333333, y: 0.3333333, z: 0.3333333}
        outWeight: {x: 0.3333333, y: 0.3333333, z: 0.3333333}
      - serializedVersion: 3
        time: 0.2833333
        value: {x: -0.01363028, y: 5.631935E-08, z: 0}
        inSlope: {x: 0, y: 0, z: 0}
        outSlope: {x: 0, y: 0, z: 0}
        tangentMode: 1
        weightedMode: 0
        inWeight: {x: 0.3333333, y: 0.3333333, z: 0.3333333}
        outWeight: {x: 0.3333333, y: 0.3333333, z: 0.3333333}
      m_PreInfinity: 2
      m_PostInfinity: 2
      m_RotationOrder: 4
    path: Bone_left_flap/Bone_left_flap_nub
  - curve:
      serializedVersion: 2
      m_Curve:
      - serializedVersion: 3
        time: 0
        value: {x: -0.01643933, y: 0.03881799, z: 0.1474213}
        inSlope: {x: 0, y: 0, z: 0}
        outSlope: {x: 0, y: 0, z: 0}
        tangentMode: 1
        weightedMode: 0
        inWeight: {x: 0.3333333, y: 0.3333333, z: 0.3333333}
        outWeight: {x: 0.3333333, y: 0.3333333, z: 0.3333333}
      - serializedVersion: 3
        time: 0.2833333
        value: {x: -0.01643933, y: 0.03881799, z: 0.1474213}
        inSlope: {x: 0, y: 0, z: 0}
        outSlope: {x: 0, y: 0, z: 0}
        tangentMode: 1
        weightedMode: 0
        inWeight: {x: 0.3333333, y: 0.3333333, z: 0.3333333}
        outWeight: {x: 0.3333333, y: 0.3333333, z: 0.3333333}
      m_PreInfinity: 2
      m_PostInfinity: 2
      m_RotationOrder: 4
    path: Bone_right_flap
  - curve:
      serializedVersion: 2
      m_Curve:
      - serializedVersion: 3
        time: 0
        value: {x: -0.01363028, y: 5.631935E-08, z: 0}
        inSlope: {x: 0, y: 0, z: 0}
        outSlope: {x: 0, y: 0, z: 0}
        tangentMode: 1
        weightedMode: 0
        inWeight: {x: 0.3333333, y: 0.3333333, z: 0.3333333}
        outWeight: {x: 0.3333333, y: 0.3333333, z: 0.3333333}
      - serializedVersion: 3
        time: 0.2833333
        value: {x: -0.01363028, y: 5.631935E-08, z: 0}
        inSlope: {x: 0, y: 0, z: 0}
        outSlope: {x: 0, y: 0, z: 0}
        tangentMode: 1
        weightedMode: 0
        inWeight: {x: 0.3333333, y: 0.3333333, z: 0.3333333}
        outWeight: {x: 0.3333333, y: 0.3333333, z: 0.3333333}
      m_PreInfinity: 2
      m_PostInfinity: 2
      m_RotationOrder: 4
    path: Bone_right_flap/Bone_right_flap_nub
  m_ScaleCurves:
  - curve:
      serializedVersion: 2
      m_Curve:
      - serializedVersion: 3
        time: 0
        value: {x: 2.54, y: 2.54, z: 2.54}
        inSlope: {x: 0, y: 0, z: 0}
        outSlope: {x: 0, y: 0, z: 0}
        tangentMode: 1
        weightedMode: 0
        inWeight: {x: 0.3333333, y: 0.3333333, z: 0.3333333}
        outWeight: {x: 0.3333333, y: 0.3333333, z: 0.3333333}
      - serializedVersion: 3
        time: 0.2833333
        value: {x: 2.54, y: 2.54, z: 2.54}
        inSlope: {x: 0, y: 0, z: 0}
        outSlope: {x: 0, y: 0, z: 0}
        tangentMode: 1
        weightedMode: 0
        inWeight: {x: 0.3333333, y: 0.3333333, z: 0.3333333}
        outWeight: {x: 0.3333333, y: 0.3333333, z: 0.3333333}
      m_PreInfinity: 2
      m_PostInfinity: 2
      m_RotationOrder: 4
    path: Bone_grip
  - curve:
      serializedVersion: 2
      m_Curve:
      - serializedVersion: 3
        time: 0
        value: {x: 1, y: 1, z: 1}
        inSlope: {x: 0, y: 0, z: 0}
        outSlope: {x: 0, y: 0, z: 0}
        tangentMode: 1
        weightedMode: 0
        inWeight: {x: 0.3333333, y: 0.3333333, z: 0.3333333}
        outWeight: {x: 0.3333333, y: 0.3333333, z: 0.3333333}
      - serializedVersion: 3
        time: 0.2833333
        value: {x: 1, y: 1, z: 1}
        inSlope: {x: 0, y: 0, z: 0}
        outSlope: {x: 0, y: 0, z: 0}
        tangentMode: 1
        weightedMode: 0
        inWeight: {x: 0.3333333, y: 0.3333333, z: 0.3333333}
        outWeight: {x: 0.3333333, y: 0.3333333, z: 0.3333333}
      m_PreInfinity: 2
      m_PostInfinity: 2
      m_RotationOrder: 4
    path: Bone_grip/Bone_grip_nub
  - curve:
      serializedVersion: 2
      m_Curve:
      - serializedVersion: 3
        time: 0
        value: {x: 2.54, y: 2.54, z: 2.54}
        inSlope: {x: 0, y: 0, z: 0}
        outSlope: {x: 0, y: 0, z: 0}
        tangentMode: 1
        weightedMode: 0
        inWeight: {x: 0.3333333, y: 0.3333333, z: 0.3333333}
        outWeight: {x: 0.3333333, y: 0.3333333, z: 0.3333333}
      - serializedVersion: 3
        time: 0.2833333
        value: {x: 2.54, y: 2.54, z: 2.54}
        inSlope: {x: 0, y: 0, z: 0}
        outSlope: {x: 0, y: 0, z: 0}
        tangentMode: 1
        weightedMode: 0
        inWeight: {x: 0.3333333, y: 0.3333333, z: 0.3333333}
        outWeight: {x: 0.3333333, y: 0.3333333, z: 0.3333333}
      m_PreInfinity: 2
      m_PostInfinity: 2
      m_RotationOrder: 4
    path: Bone_sensor
  - curve:
      serializedVersion: 2
      m_Curve:
      - serializedVersion: 3
        time: 0
        value: {x: 1, y: 1, z: 1}
        inSlope: {x: 0, y: 0, z: 0}
        outSlope: {x: 0, y: 0, z: 0}
        tangentMode: 1
        weightedMode: 0
        inWeight: {x: 0.3333333, y: 0.3333333, z: 0.3333333}
        outWeight: {x: 0.3333333, y: 0.3333333, z: 0.3333333}
      - serializedVersion: 3
        time: 0.2833333
        value: {x: 1, y: 1, z: 1}
        inSlope: {x: 0, y: 0, z: 0}
        outSlope: {x: 0, y: 0, z: 0}
        tangentMode: 1
        weightedMode: 0
        inWeight: {x: 0.3333333, y: 0.3333333, z: 0.3333333}
        outWeight: {x: 0.3333333, y: 0.3333333, z: 0.3333333}
      m_PreInfinity: 2
      m_PostInfinity: 2
      m_RotationOrder: 4
    path: Bone_sensor/Bone_sensor_nub
  - curve:
      serializedVersion: 2
      m_Curve:
      - serializedVersion: 3
        time: 0
        value: {x: 2.54, y: 2.54, z: 2.54}
        inSlope: {x: 0, y: 0, z: 0}
        outSlope: {x: 0, y: 0, z: 0}
        tangentMode: 1
        weightedMode: 0
        inWeight: {x: 0.3333333, y: 0.3333333, z: 0.3333333}
        outWeight: {x: 0.3333333, y: 0.3333333, z: 0.3333333}
      - serializedVersion: 3
        time: 0.2833333
        value: {x: 2.54, y: 2.54, z: 2.54}
        inSlope: {x: 0, y: 0, z: 0}
        outSlope: {x: 0, y: 0, z: 0}
        tangentMode: 1
        weightedMode: 0
        inWeight: {x: 0.3333333, y: 0.3333333, z: 0.3333333}
        outWeight: {x: 0.3333333, y: 0.3333333, z: 0.3333333}
      m_PreInfinity: 2
      m_PostInfinity: 2
      m_RotationOrder: 4
    path: Bone_hinge1
  - curve:
      serializedVersion: 2
      m_Curve:
      - serializedVersion: 3
        time: 0
        value: {x: 1, y: 1, z: 1}
        inSlope: {x: 0, y: 0, z: 0}
        outSlope: {x: 0, y: 0, z: 0}
        tangentMode: 1
        weightedMode: 0
        inWeight: {x: 0.3333333, y: 0.3333333, z: 0.3333333}
        outWeight: {x: 0.3333333, y: 0.3333333, z: 0.3333333}
      - serializedVersion: 3
        time: 0.2833333
        value: {x: 1, y: 1, z: 1}
        inSlope: {x: 0, y: 0, z: 0}
        outSlope: {x: 0, y: 0, z: 0}
        tangentMode: 1
        weightedMode: 0
        inWeight: {x: 0.3333333, y: 0.3333333, z: 0.3333333}
        outWeight: {x: 0.3333333, y: 0.3333333, z: 0.3333333}
      m_PreInfinity: 2
      m_PostInfinity: 2
      m_RotationOrder: 4
    path: Bone_hinge1/Bone_hinge2
  - curve:
      serializedVersion: 2
      m_Curve:
      - serializedVersion: 3
        time: 0
        value: {x: 1.8127, y: 1.8127, z: 1.8127}
        inSlope: {x: 0, y: 0, z: 0}
        outSlope: {x: 0, y: 0, z: 0}
        tangentMode: 1
        weightedMode: 0
        inWeight: {x: 0.3333333, y: 0.3333333, z: 0.3333333}
        outWeight: {x: 0.3333333, y: 0.3333333, z: 0.3333333}
      - serializedVersion: 3
        time: 0.2833333
        value: {x: 1.8127, y: 1.8127, z: 1.8127}
        inSlope: {x: 0, y: 0, z: 0}
        outSlope: {x: 0, y: 0, z: 0}
        tangentMode: 1
        weightedMode: 0
        inWeight: {x: 0.3333333, y: 0.3333333, z: 0.3333333}
        outWeight: {x: 0.3333333, y: 0.3333333, z: 0.3333333}
      m_PreInfinity: 2
      m_PostInfinity: 2
      m_RotationOrder: 4
    path: Bone_hinge1/Bone_hinge2/Bone_hinge_nub
  - curve:
      serializedVersion: 2
      m_Curve:
      - serializedVersion: 3
        time: 0
        value: {x: 2.54, y: 2.54, z: 2.54}
        inSlope: {x: 0, y: 0, z: 0}
        outSlope: {x: 0, y: 0, z: 0}
        tangentMode: 1
        weightedMode: 0
        inWeight: {x: 0.3333333, y: 0.3333333, z: 0.3333333}
        outWeight: {x: 0.3333333, y: 0.3333333, z: 0.3333333}
      - serializedVersion: 3
        time: 0.2833333
        value: {x: 2.54, y: 2.54, z: 2.54}
        inSlope: {x: 0, y: 0, z: 0}
        outSlope: {x: 0, y: 0, z: 0}
        tangentMode: 1
        weightedMode: 0
        inWeight: {x: 0.3333333, y: 0.3333333, z: 0.3333333}
        outWeight: {x: 0.3333333, y: 0.3333333, z: 0.3333333}
      m_PreInfinity: 2
      m_PostInfinity: 2
      m_RotationOrder: 4
    path: Bone_cell
  - curve:
      serializedVersion: 2
      m_Curve:
      - serializedVersion: 3
        time: 0
        value: {x: 1.79335, y: 1.79335, z: 1.79335}
        inSlope: {x: 0, y: 0, z: 0}
        outSlope: {x: 0, y: 0, z: 0}
        tangentMode: 1
        weightedMode: 0
        inWeight: {x: 0.3333333, y: 0.3333333, z: 0.3333333}
        outWeight: {x: 0.3333333, y: 0.3333333, z: 0.3333333}
      - serializedVersion: 3
        time: 0.2833333
        value: {x: 1.79335, y: 1.79335, z: 1.79335}
        inSlope: {x: 0, y: 0, z: 0}
        outSlope: {x: 0, y: 0, z: 0}
        tangentMode: 1
        weightedMode: 0
        inWeight: {x: 0.3333333, y: 0.3333333, z: 0.3333333}
        outWeight: {x: 0.3333333, y: 0.3333333, z: 0.3333333}
      m_PreInfinity: 2
      m_PostInfinity: 2
      m_RotationOrder: 4
    path: Bone_cell/Bone_cell_nub
  - curve:
      serializedVersion: 2
      m_Curve:
      - serializedVersion: 3
        time: 0
        value: {x: 2.54, y: 2.54, z: 2.54}
        inSlope: {x: 0, y: 0, z: 0}
        outSlope: {x: 0, y: 0, z: 0}
        tangentMode: 1
        weightedMode: 0
        inWeight: {x: 0.3333333, y: 0.3333333, z: 0.3333333}
        outWeight: {x: 0.3333333, y: 0.3333333, z: 0.3333333}
      - serializedVersion: 3
        time: 0.2833333
        value: {x: 2.54, y: 2.54, z: 2.54}
        inSlope: {x: 0, y: 0, z: 0}
        outSlope: {x: 0, y: 0, z: 0}
        tangentMode: 1
        weightedMode: 0
        inWeight: {x: 0.3333333, y: 0.3333333, z: 0.3333333}
        outWeight: {x: 0.3333333, y: 0.3333333, z: 0.3333333}
      m_PreInfinity: 2
      m_PostInfinity: 2
      m_RotationOrder: 4
    path: Bone_trigger
  - curve:
      serializedVersion: 2
      m_Curve:
      - serializedVersion: 3
        time: 0
        value: {x: 1, y: 1, z: 1}
        inSlope: {x: 0, y: 0, z: 0}
        outSlope: {x: 0, y: 0, z: 0}
        tangentMode: 1
        weightedMode: 0
        inWeight: {x: 0.3333333, y: 0.3333333, z: 0.3333333}
        outWeight: {x: 0.3333333, y: 0.3333333, z: 0.3333333}
      - serializedVersion: 3
        time: 0.2833333
        value: {x: 1, y: 1, z: 1}
        inSlope: {x: 0, y: 0, z: 0}
        outSlope: {x: 0, y: 0, z: 0}
        tangentMode: 1
        weightedMode: 0
        inWeight: {x: 0.3333333, y: 0.3333333, z: 0.3333333}
        outWeight: {x: 0.3333333, y: 0.3333333, z: 0.3333333}
      m_PreInfinity: 2
      m_PostInfinity: 2
      m_RotationOrder: 4
    path: Bone_trigger/Bone_trigger_nub
  - curve:
      serializedVersion: 2
      m_Curve:
      - serializedVersion: 3
        time: 0
        value: {x: 2.54, y: 2.54, z: 2.54}
        inSlope: {x: 0, y: 0, z: 0}
        outSlope: {x: 0, y: 0, z: 0}
        tangentMode: 1
        weightedMode: 0
        inWeight: {x: 0.3333333, y: 0.3333333, z: 0.3333333}
        outWeight: {x: 0.3333333, y: 0.3333333, z: 0.3333333}
      - serializedVersion: 3
        time: 0.2833333
        value: {x: 2.54, y: 2.54, z: 2.54}
        inSlope: {x: 0, y: 0, z: 0}
        outSlope: {x: 0, y: 0, z: 0}
        tangentMode: 1
        weightedMode: 0
        inWeight: {x: 0.3333333, y: 0.3333333, z: 0.3333333}
        outWeight: {x: 0.3333333, y: 0.3333333, z: 0.3333333}
      m_PreInfinity: 2
      m_PostInfinity: 2
      m_RotationOrder: 4
    path: Bone_latch
  - curve:
      serializedVersion: 2
      m_Curve:
      - serializedVersion: 3
        time: 0
        value: {x: 1, y: 1, z: 1}
        inSlope: {x: 0, y: 0, z: 0}
        outSlope: {x: 0, y: 0, z: 0}
        tangentMode: 1
        weightedMode: 0
        inWeight: {x: 0.3333333, y: 0.3333333, z: 0.3333333}
        outWeight: {x: 0.3333333, y: 0.3333333, z: 0.3333333}
      - serializedVersion: 3
        time: 0.2833333
        value: {x: 1, y: 1, z: 1}
        inSlope: {x: 0, y: 0, z: 0}
        outSlope: {x: 0, y: 0, z: 0}
        tangentMode: 1
        weightedMode: 0
        inWeight: {x: 0.3333333, y: 0.3333333, z: 0.3333333}
        outWeight: {x: 0.3333333, y: 0.3333333, z: 0.3333333}
      m_PreInfinity: 2
      m_PostInfinity: 2
      m_RotationOrder: 4
    path: Bone_latch/Bone_latch_nub
  - curve:
      serializedVersion: 2
      m_Curve:
      - serializedVersion: 3
        time: 0
        value: {x: 2.54, y: 2.54, z: 2.54}
        inSlope: {x: 0, y: 0, z: 0}
        outSlope: {x: 0, y: 0, z: 0}
        tangentMode: 1
        weightedMode: 0
        inWeight: {x: 0.3333333, y: 0.3333333, z: 0.3333333}
        outWeight: {x: 0.3333333, y: 0.3333333, z: 0.3333333}
      - serializedVersion: 3
        time: 0.2833333
        value: {x: 2.54, y: 2.54, z: 2.54}
        inSlope: {x: 0, y: 0, z: 0}
        outSlope: {x: 0, y: 0, z: 0}
        tangentMode: 1
        weightedMode: 0
        inWeight: {x: 0.3333333, y: 0.3333333, z: 0.3333333}
        outWeight: {x: 0.3333333, y: 0.3333333, z: 0.3333333}
      m_PreInfinity: 2
      m_PostInfinity: 2
      m_RotationOrder: 4
    path: Bone_gear_front
  - curve:
      serializedVersion: 2
      m_Curve:
      - serializedVersion: 3
        time: 0
        value: {x: 1.313402, y: 4.144375, z: 4.144375}
        inSlope: {x: 0, y: 0, z: 0}
        outSlope: {x: 0, y: 0, z: 0}
        tangentMode: 1
        weightedMode: 0
        inWeight: {x: 0.3333333, y: 0.3333333, z: 0.3333333}
        outWeight: {x: 0.3333333, y: 0.3333333, z: 0.3333333}
      - serializedVersion: 3
        time: 0.2833333
        value: {x: 1.313402, y: 4.144375, z: 4.144375}
        inSlope: {x: 0, y: 0, z: 0}
        outSlope: {x: 0, y: 0, z: 0}
        tangentMode: 1
        weightedMode: 0
        inWeight: {x: 0.3333333, y: 0.3333333, z: 0.3333333}
        outWeight: {x: 0.3333333, y: 0.3333333, z: 0.3333333}
      m_PreInfinity: 2
      m_PostInfinity: 2
      m_RotationOrder: 4
    path: Bone_gear_front/Bone_gear_front_nub
  - curve:
      serializedVersion: 2
      m_Curve:
      - serializedVersion: 3
        time: 0
        value: {x: 2.54, y: 2.54, z: 2.54}
        inSlope: {x: 0, y: 0, z: 0}
        outSlope: {x: 0, y: 0, z: 0}
        tangentMode: 1
        weightedMode: 0
        inWeight: {x: 0.3333333, y: 0.3333333, z: 0.3333333}
        outWeight: {x: 0.3333333, y: 0.3333333, z: 0.3333333}
      - serializedVersion: 3
        time: 0.2833333
        value: {x: 2.54, y: 2.54, z: 2.54}
        inSlope: {x: 0, y: 0, z: 0}
        outSlope: {x: 0, y: 0, z: 0}
        tangentMode: 1
        weightedMode: 0
        inWeight: {x: 0.3333333, y: 0.3333333, z: 0.3333333}
        outWeight: {x: 0.3333333, y: 0.3333333, z: 0.3333333}
      m_PreInfinity: 2
      m_PostInfinity: 2
      m_RotationOrder: 4
    path: Bone_gear_back
  - curve:
      serializedVersion: 2
      m_Curve:
      - serializedVersion: 3
        time: 0
        value: {x: 1.480772, y: 4.183075, z: 4.183075}
        inSlope: {x: 0, y: 0, z: 0}
        outSlope: {x: 0, y: 0, z: 0}
        tangentMode: 1
        weightedMode: 0
        inWeight: {x: 0.3333333, y: 0.3333333, z: 0.3333333}
        outWeight: {x: 0.3333333, y: 0.3333333, z: 0.3333333}
      - serializedVersion: 3
        time: 0.2833333
        value: {x: 1.480772, y: 4.183075, z: 4.183075}
        inSlope: {x: 0, y: 0, z: 0}
        outSlope: {x: 0, y: 0, z: 0}
        tangentMode: 1
        weightedMode: 0
        inWeight: {x: 0.3333333, y: 0.3333333, z: 0.3333333}
        outWeight: {x: 0.3333333, y: 0.3333333, z: 0.3333333}
      m_PreInfinity: 2
      m_PostInfinity: 2
      m_RotationOrder: 4
    path: Bone_gear_back/Bone_gear_back_nub
  - curve:
      serializedVersion: 2
      m_Curve:
      - serializedVersion: 3
        time: 0
        value: {x: 2.54, y: 2.54, z: 2.54}
        inSlope: {x: 0, y: 0, z: 0}
        outSlope: {x: 0, y: 0, z: 0}
        tangentMode: 1
        weightedMode: 0
        inWeight: {x: 0.3333333, y: 0.3333333, z: 0.3333333}
        outWeight: {x: 0.3333333, y: 0.3333333, z: 0.3333333}
      - serializedVersion: 3
        time: 0.2833333
        value: {x: 2.54, y: 2.54, z: 2.54}
        inSlope: {x: 0, y: 0, z: 0}
        outSlope: {x: 0, y: 0, z: 0}
        tangentMode: 1
        weightedMode: 0
        inWeight: {x: 0.3333333, y: 0.3333333, z: 0.3333333}
        outWeight: {x: 0.3333333, y: 0.3333333, z: 0.3333333}
      m_PreInfinity: 2
      m_PostInfinity: 2
      m_RotationOrder: 4
    path: Bone_left_flap
  - curve:
      serializedVersion: 2
      m_Curve:
      - serializedVersion: 3
        time: 0
        value: {x: 0.6327112, y: 0.6327112, z: 0.6327112}
        inSlope: {x: 0, y: 0, z: 0}
        outSlope: {x: 0, y: 0, z: 0}
        tangentMode: 1
        weightedMode: 0
        inWeight: {x: 0.3333333, y: 0.3333333, z: 0.3333333}
        outWeight: {x: 0.3333333, y: 0.3333333, z: 0.3333333}
      - serializedVersion: 3
        time: 0.2833333
        value: {x: 0.6327112, y: 0.6327112, z: 0.6327112}
        inSlope: {x: 0, y: 0, z: 0}
        outSlope: {x: 0, y: 0, z: 0}
        tangentMode: 1
        weightedMode: 0
        inWeight: {x: 0.3333333, y: 0.3333333, z: 0.3333333}
        outWeight: {x: 0.3333333, y: 0.3333333, z: 0.3333333}
      m_PreInfinity: 2
      m_PostInfinity: 2
      m_RotationOrder: 4
    path: Bone_left_flap/Bone_left_flap_nub
  - curve:
      serializedVersion: 2
      m_Curve:
      - serializedVersion: 3
        time: 0
        value: {x: 2.54, y: 2.54, z: 2.54}
        inSlope: {x: 0, y: 0, z: 0}
        outSlope: {x: 0, y: 0, z: 0}
        tangentMode: 1
        weightedMode: 0
        inWeight: {x: 0.3333333, y: 0.3333333, z: 0.3333333}
        outWeight: {x: 0.3333333, y: 0.3333333, z: 0.3333333}
      - serializedVersion: 3
        time: 0.2833333
        value: {x: 2.54, y: 2.54, z: 2.54}
        inSlope: {x: 0, y: 0, z: 0}
        outSlope: {x: 0, y: 0, z: 0}
        tangentMode: 1
        weightedMode: 0
        inWeight: {x: 0.3333333, y: 0.3333333, z: 0.3333333}
        outWeight: {x: 0.3333333, y: 0.3333333, z: 0.3333333}
      m_PreInfinity: 2
      m_PostInfinity: 2
      m_RotationOrder: 4
    path: Bone_right_flap
  - curve:
      serializedVersion: 2
      m_Curve:
      - serializedVersion: 3
        time: 0
        value: {x: 0.6327112, y: 0.6327112, z: 0.6327112}
        inSlope: {x: 0, y: 0, z: 0}
        outSlope: {x: 0, y: 0, z: 0}
        tangentMode: 1
        weightedMode: 0
        inWeight: {x: 0.3333333, y: 0.3333333, z: 0.3333333}
        outWeight: {x: 0.3333333, y: 0.3333333, z: 0.3333333}
      - serializedVersion: 3
        time: 0.2833333
        value: {x: 0.6327112, y: 0.6327112, z: 0.6327112}
        inSlope: {x: 0, y: 0, z: 0}
        outSlope: {x: 0, y: 0, z: 0}
        tangentMode: 1
        weightedMode: 0
        inWeight: {x: 0.3333333, y: 0.3333333, z: 0.3333333}
        outWeight: {x: 0.3333333, y: 0.3333333, z: 0.3333333}
      m_PreInfinity: 2
      m_PostInfinity: 2
      m_RotationOrder: 4
    path: Bone_right_flap/Bone_right_flap_nub
  m_FloatCurves: []
  m_PPtrCurves: []
  m_SampleRate: 60
  m_WrapMode: 0
  m_Bounds:
    m_Center: {x: 0, y: 0, z: 0}
    m_Extent: {x: 0, y: 0, z: 0}
  m_ClipBindingConstant:
    genericBindings:
    - path: 3432391821
      attribute: 1
      script: {fileID: 0}
      classID: 4
      customType: 0
      isPPtrCurve: 0
    - path: 3016260046
      attribute: 2
      script: {fileID: 0}
      classID: 4
      customType: 0
      isPPtrCurve: 0
    - path: 1984810507
      attribute: 2
      script: {fileID: 0}
      classID: 4
      customType: 0
      isPPtrCurve: 0
    - path: 2586935775
      attribute: 2
      script: {fileID: 0}
      classID: 4
      customType: 0
      isPPtrCurve: 0
    - path: 871083557
      attribute: 1
      script: {fileID: 0}
      classID: 4
      customType: 0
      isPPtrCurve: 0
    - path: 709018149
      attribute: 1
      script: {fileID: 0}
      classID: 4
      customType: 0
      isPPtrCurve: 0
    - path: 289183131
      attribute: 1
      script: {fileID: 0}
      classID: 4
      customType: 0
      isPPtrCurve: 0
    - path: 438384941
      attribute: 1
      script: {fileID: 0}
      classID: 4
      customType: 0
      isPPtrCurve: 0
    - path: 3016260046
      attribute: 1
      script: {fileID: 0}
      classID: 4
      customType: 0
      isPPtrCurve: 0
    - path: 1984810507
      attribute: 1
      script: {fileID: 0}
      classID: 4
      customType: 0
      isPPtrCurve: 0
    - path: 1528871044
      attribute: 1
      script: {fileID: 0}
      classID: 4
      customType: 0
      isPPtrCurve: 0
    - path: 3188284450
      attribute: 1
      script: {fileID: 0}
      classID: 4
      customType: 0
      isPPtrCurve: 0
    - path: 3061468319
      attribute: 1
      script: {fileID: 0}
      classID: 4
      customType: 0
      isPPtrCurve: 0
    - path: 4104393081
      attribute: 1
      script: {fileID: 0}
      classID: 4
      customType: 0
      isPPtrCurve: 0
    - path: 2586935775
      attribute: 1
      script: {fileID: 0}
      classID: 4
      customType: 0
      isPPtrCurve: 0
    - path: 1159204577
      attribute: 1
      script: {fileID: 0}
      classID: 4
      customType: 0
      isPPtrCurve: 0
    - path: 1195213772
      attribute: 1
      script: {fileID: 0}
      classID: 4
      customType: 0
      isPPtrCurve: 0
    - path: 2792554611
      attribute: 1
      script: {fileID: 0}
      classID: 4
      customType: 0
      isPPtrCurve: 0
    - path: 3455840833
      attribute: 1
      script: {fileID: 0}
      classID: 4
      customType: 0
      isPPtrCurve: 0
    - path: 3064753804
      attribute: 1
      script: {fileID: 0}
      classID: 4
      customType: 0
      isPPtrCurve: 0
    - path: 1673076325
      attribute: 1
      script: {fileID: 0}
      classID: 4
      customType: 0
      isPPtrCurve: 0
    - path: 2997511541
      attribute: 1
      script: {fileID: 0}
      classID: 4
      customType: 0
      isPPtrCurve: 0
    - path: 4192041270
      attribute: 1
      script: {fileID: 0}
      classID: 4
      customType: 0
      isPPtrCurve: 0
    - path: 1649017537
      attribute: 1
      script: {fileID: 0}
      classID: 4
      customType: 0
      isPPtrCurve: 0
    - path: 871083557
      attribute: 2
      script: {fileID: 0}
      classID: 4
      customType: 0
      isPPtrCurve: 0
    - path: 709018149
      attribute: 2
      script: {fileID: 0}
      classID: 4
      customType: 0
      isPPtrCurve: 0
    - path: 289183131
      attribute: 2
      script: {fileID: 0}
      classID: 4
      customType: 0
      isPPtrCurve: 0
    - path: 438384941
      attribute: 2
      script: {fileID: 0}
      classID: 4
      customType: 0
      isPPtrCurve: 0
    - path: 1528871044
      attribute: 2
      script: {fileID: 0}
      classID: 4
      customType: 0
      isPPtrCurve: 0
    - path: 3432391821
      attribute: 2
      script: {fileID: 0}
      classID: 4
      customType: 0
      isPPtrCurve: 0
    - path: 3188284450
      attribute: 2
      script: {fileID: 0}
      classID: 4
      customType: 0
      isPPtrCurve: 0
    - path: 3061468319
      attribute: 2
      script: {fileID: 0}
      classID: 4
      customType: 0
      isPPtrCurve: 0
    - path: 4104393081
      attribute: 2
      script: {fileID: 0}
      classID: 4
      customType: 0
      isPPtrCurve: 0
    - path: 1159204577
      attribute: 2
      script: {fileID: 0}
      classID: 4
      customType: 0
      isPPtrCurve: 0
    - path: 1195213772
      attribute: 2
      script: {fileID: 0}
      classID: 4
      customType: 0
      isPPtrCurve: 0
    - path: 2792554611
      attribute: 2
      script: {fileID: 0}
      classID: 4
      customType: 0
      isPPtrCurve: 0
    - path: 3455840833
      attribute: 2
      script: {fileID: 0}
      classID: 4
      customType: 0
      isPPtrCurve: 0
    - path: 3064753804
      attribute: 2
      script: {fileID: 0}
      classID: 4
      customType: 0
      isPPtrCurve: 0
    - path: 1673076325
      attribute: 2
      script: {fileID: 0}
      classID: 4
      customType: 0
      isPPtrCurve: 0
    - path: 2997511541
      attribute: 2
      script: {fileID: 0}
      classID: 4
      customType: 0
      isPPtrCurve: 0
    - path: 4192041270
      attribute: 2
      script: {fileID: 0}
      classID: 4
      customType: 0
      isPPtrCurve: 0
    - path: 1649017537
      attribute: 2
      script: {fileID: 0}
      classID: 4
      customType: 0
      isPPtrCurve: 0
    - path: 871083557
      attribute: 3
      script: {fileID: 0}
      classID: 4
      customType: 0
      isPPtrCurve: 0
    - path: 709018149
      attribute: 3
      script: {fileID: 0}
      classID: 4
      customType: 0
      isPPtrCurve: 0
    - path: 289183131
      attribute: 3
      script: {fileID: 0}
      classID: 4
      customType: 0
      isPPtrCurve: 0
    - path: 438384941
      attribute: 3
      script: {fileID: 0}
      classID: 4
      customType: 0
      isPPtrCurve: 0
    - path: 3016260046
      attribute: 3
      script: {fileID: 0}
      classID: 4
      customType: 0
      isPPtrCurve: 0
    - path: 1984810507
      attribute: 3
      script: {fileID: 0}
      classID: 4
      customType: 0
      isPPtrCurve: 0
    - path: 1528871044
      attribute: 3
      script: {fileID: 0}
      classID: 4
      customType: 0
      isPPtrCurve: 0
    - path: 3432391821
      attribute: 3
      script: {fileID: 0}
      classID: 4
      customType: 0
      isPPtrCurve: 0
    - path: 3188284450
      attribute: 3
      script: {fileID: 0}
      classID: 4
      customType: 0
      isPPtrCurve: 0
    - path: 3061468319
      attribute: 3
      script: {fileID: 0}
      classID: 4
      customType: 0
      isPPtrCurve: 0
    - path: 4104393081
      attribute: 3
      script: {fileID: 0}
      classID: 4
      customType: 0
      isPPtrCurve: 0
    - path: 2586935775
      attribute: 3
      script: {fileID: 0}
      classID: 4
      customType: 0
      isPPtrCurve: 0
    - path: 1159204577
      attribute: 3
      script: {fileID: 0}
      classID: 4
      customType: 0
      isPPtrCurve: 0
    - path: 1195213772
      attribute: 3
      script: {fileID: 0}
      classID: 4
      customType: 0
      isPPtrCurve: 0
    - path: 2792554611
      attribute: 3
      script: {fileID: 0}
      classID: 4
      customType: 0
      isPPtrCurve: 0
    - path: 3455840833
      attribute: 3
      script: {fileID: 0}
      classID: 4
      customType: 0
      isPPtrCurve: 0
    - path: 3064753804
      attribute: 3
      script: {fileID: 0}
      classID: 4
      customType: 0
      isPPtrCurve: 0
    - path: 1673076325
      attribute: 3
      script: {fileID: 0}
      classID: 4
      customType: 0
      isPPtrCurve: 0
    - path: 2997511541
      attribute: 3
      script: {fileID: 0}
      classID: 4
      customType: 0
      isPPtrCurve: 0
    - path: 4192041270
      attribute: 3
      script: {fileID: 0}
      classID: 4
      customType: 0
      isPPtrCurve: 0
    - path: 1649017537
      attribute: 3
      script: {fileID: 0}
      classID: 4
      customType: 0
      isPPtrCurve: 0
    pptrCurveMapping: []
  m_AnimationClipSettings:
    serializedVersion: 2
    m_AdditiveReferencePoseClip: {fileID: 0}
    m_AdditiveReferencePoseTime: 0
    m_StartTime: 0
    m_StopTime: 0.25
    m_OrientationOffsetY: 0
    m_Level: 0
    m_CycleOffset: 0
    m_HasAdditiveReferencePose: 0
    m_LoopTime: 0
    m_LoopBlend: 0
    m_LoopBlendOrientation: 0
    m_LoopBlendPositionY: 0
    m_LoopBlendPositionXZ: 0
    m_KeepOriginalOrientation: 0
    m_KeepOriginalPositionY: 1
    m_KeepOriginalPositionXZ: 0
    m_HeightFromFeet: 0
    m_Mirror: 0
  m_EditorCurves: []
  m_EulerEditorCurves: []
  m_HasGenericRootTransform: 0
  m_HasMotionFloatCurves: 0
  m_GenerateMotionCurves: 0
  m_Events: []
