%YAML 1.1
%TAG !u! tag:unity3d.com,2011:
--- !u!74 &7400000
AnimationClip:
  m_CorrespondingSourceObject: {fileID: 0}
  m_PrefabInstance: {fileID: 0}
  m_PrefabAsset: {fileID: 0}
  m_Name: LMN8R_unload
  serializedVersion: 6
  m_Legacy: 0
  m_Compressed: 0
  m_UseHighQualityCurve: 0
  m_RotationCurves:
  - curve:
      serializedVersion: 2
      m_Curve:
      - serializedVersion: 3
        time: 0
        value: {x: -0.4999912, y: 0.5000088, z: -0.4999912, w: 0.5000088}
        inSlope: {x: 0, y: 0, z: 0, w: 0}
        outSlope: {x: 0, y: 0, z: 0, w: 0}
        tangentMode: 1
        weightedMode: 0
        inWeight: {x: 0.3333333, y: 0.3333333, z: 0.3333333, w: 0.3333333}
        outWeight: {x: 0.3333333, y: 0.3333333, z: 0.3333333, w: 0.3333333}
      - serializedVersion: 3
        time: 0.01666667
        value: {x: -0.4889932, y: 0.5107697, z: -0.4889932, w: 0.5107697}
        inSlope: {x: 0, y: 0, z: 0, w: 0}
        outSlope: {x: 0, y: 0, z: 0, w: 0}
        tangentMode: 1
        weightedMode: 0
        inWeight: {x: 0.3333333, y: 0.3333333, z: 0.3333333, w: 0.3333333}
        outWeight: {x: 0.3333333, y: 0.3333333, z: 0.3333333, w: 0.3333333}
      - serializedVersion: 3
        time: 0.03333334
        value: {x: -0.4594278, y: 0.5372616, z: -0.4594278, w: 0.5372615}
        inSlope: {x: 0, y: 0, z: 0, w: 0}
        outSlope: {x: 0, y: 0, z: 0, w: 0}
        tangentMode: 1
        weightedMode: 0
        inWeight: {x: 0.3333333, y: 0.3333333, z: 0.3333333, w: 0.3333333}
        outWeight: {x: 0.3333333, y: 0.3333333, z: 0.3333333, w: 0.3333333}
      - serializedVersion: 3
        time: 0.05
        value: {x: -0.4170531, y: 0.5710226, z: -0.417053, w: 0.5710226}
        inSlope: {x: 0, y: 0, z: 0, w: 0}
        outSlope: {x: 0, y: 0, z: 0, w: 0}
        tangentMode: 1
        weightedMode: 0
        inWeight: {x: 0.3333333, y: 0.3333333, z: 0.3333333, w: 0.3333333}
        outWeight: {x: 0.3333333, y: 0.3333333, z: 0.3333333, w: 0.3333333}
      - serializedVersion: 3
        time: 0.06666667
        value: {x: -0.3677624, y: 0.603522, z: -0.3677623, w: 0.6035219}
        inSlope: {x: 0, y: 0, z: 0, w: 0}
        outSlope: {x: 0, y: 0, z: 0, w: 0}
        tangentMode: 1
        weightedMode: 0
        inWeight: {x: 0.3333333, y: 0.3333333, z: 0.3333333, w: 0.3333333}
        outWeight: {x: 0.3333333, y: 0.3333333, z: 0.3333333, w: 0.3333333}
      - serializedVersion: 3
        time: 0.08333334
        value: {x: -0.3205838, y: 0.6302587, z: -0.3205838, w: 0.6302587}
        inSlope: {x: 0, y: 0, z: 0, w: 0}
        outSlope: {x: 0, y: 0, z: 0, w: 0}
        tangentMode: 1
        weightedMode: 0
        inWeight: {x: 0.3333333, y: 0.3333333, z: 0.3333333, w: 0.3333333}
        outWeight: {x: 0.3333333, y: 0.3333333, z: 0.3333333, w: 0.3333333}
      - serializedVersion: 3
        time: 0.1
        value: {x: -0.2869543, y: 0.6464427, z: -0.2869543, w: 0.6464426}
        inSlope: {x: 0, y: 0, z: 0, w: 0}
        outSlope: {x: 0, y: 0, z: 0, w: 0}
        tangentMode: 1
        weightedMode: 0
        inWeight: {x: 0.3333333, y: 0.3333333, z: 0.3333333, w: 0.3333333}
        outWeight: {x: 0.3333333, y: 0.3333333, z: 0.3333333, w: 0.3333333}
      - serializedVersion: 3
        time: 0.1166667
        value: {x: -0.2705866, y: 0.6532863, z: -0.2705866, w: 0.6532862}
        inSlope: {x: 0, y: 0, z: 0, w: 0}
        outSlope: {x: 0, y: 0, z: 0, w: 0}
        tangentMode: 1
        weightedMode: 0
        inWeight: {x: 0.3333333, y: 0.3333333, z: 0.3333333, w: 0.3333333}
        outWeight: {x: 0.3333333, y: 0.3333333, z: 0.3333333, w: 0.3333333}
      - serializedVersion: 3
        time: 0.1333333
        value: {x: -0.2688177, y: 0.6540416, z: -0.2688177, w: 0.6540415}
        inSlope: {x: 0, y: 0, z: 0, w: 0}
        outSlope: {x: 0, y: 0, z: 0, w: 0}
        tangentMode: 1
        weightedMode: 0
        inWeight: {x: 0.3333333, y: 0.3333333, z: 0.3333333, w: 0.3333333}
        outWeight: {x: 0.3333333, y: 0.3333333, z: 0.3333333, w: 0.3333333}
      - serializedVersion: 3
        time: 0.15
        value: {x: -0.2705866, y: 0.6532863, z: -0.2705866, w: 0.6532862}
        inSlope: {x: 0, y: 0, z: 0, w: 0}
        outSlope: {x: 0, y: 0, z: 0, w: 0}
        tangentMode: 1
        weightedMode: 0
        inWeight: {x: 0.3333333, y: 0.3333333, z: 0.3333333, w: 0.3333333}
        outWeight: {x: 0.3333333, y: 0.3333333, z: 0.3333333, w: 0.3333333}
      - serializedVersion: 3
        time: 0.1666667
        value: {x: -0.2705866, y: 0.6532863, z: -0.2705866, w: 0.6532862}
        inSlope: {x: 0, y: 0, z: 0, w: 0}
        outSlope: {x: 0, y: 0, z: 0, w: 0}
        tangentMode: 1
        weightedMode: 0
        inWeight: {x: 0.3333333, y: 0.3333333, z: 0.3333333, w: 0.3333333}
        outWeight: {x: 0.3333333, y: 0.3333333, z: 0.3333333, w: 0.3333333}
      - serializedVersion: 3
        time: 0.1833333
        value: {x: -0.2705866, y: 0.6532863, z: -0.2705866, w: 0.6532862}
        inSlope: {x: 0, y: 0, z: 0, w: 0}
        outSlope: {x: 0, y: 0, z: 0, w: 0}
        tangentMode: 1
        weightedMode: 0
        inWeight: {x: 0.3333333, y: 0.3333333, z: 0.3333333, w: 0.3333333}
        outWeight: {x: 0.3333333, y: 0.3333333, z: 0.3333333, w: 0.3333333}
      - serializedVersion: 3
        time: 0.2
        value: {x: -0.2705866, y: 0.6532863, z: -0.2705866, w: 0.6532862}
        inSlope: {x: 0, y: 0, z: 0, w: 0}
        outSlope: {x: 0, y: 0, z: 0, w: 0}
        tangentMode: 1
        weightedMode: 0
        inWeight: {x: 0.3333333, y: 0.3333333, z: 0.3333333, w: 0.3333333}
        outWeight: {x: 0.3333333, y: 0.3333333, z: 0.3333333, w: 0.3333333}
      - serializedVersion: 3
        time: 0.2166667
        value: {x: -0.2705866, y: 0.6532863, z: -0.2705866, w: 0.6532862}
        inSlope: {x: 0, y: 0, z: 0, w: 0}
        outSlope: {x: 0, y: 0, z: 0, w: 0}
        tangentMode: 1
        weightedMode: 0
        inWeight: {x: 0.3333333, y: 0.3333333, z: 0.3333333, w: 0.3333333}
        outWeight: {x: 0.3333333, y: 0.3333333, z: 0.3333333, w: 0.3333333}
      - serializedVersion: 3
        time: 0.2333333
        value: {x: -0.2705866, y: 0.6532863, z: -0.2705866, w: 0.6532862}
        inSlope: {x: 0, y: 0, z: 0, w: 0}
        outSlope: {x: 0, y: 0, z: 0, w: 0}
        tangentMode: 1
        weightedMode: 0
        inWeight: {x: 0.3333333, y: 0.3333333, z: 0.3333333, w: 0.3333333}
        outWeight: {x: 0.3333333, y: 0.3333333, z: 0.3333333, w: 0.3333333}
      - serializedVersion: 3
        time: 0.25
        value: {x: -0.2705866, y: 0.6532863, z: -0.2705866, w: 0.6532862}
        inSlope: {x: 0, y: 0, z: 0, w: 0}
        outSlope: {x: 0, y: 0, z: 0, w: 0}
        tangentMode: 1
        weightedMode: 0
        inWeight: {x: 0.3333333, y: 0.3333333, z: 0.3333333, w: 0.3333333}
        outWeight: {x: 0.3333333, y: 0.3333333, z: 0.3333333, w: 0.3333333}
      - serializedVersion: 3
        time: 0.2666667
        value: {x: -0.2705866, y: 0.6532863, z: -0.2705866, w: 0.6532862}
        inSlope: {x: 0, y: 0, z: 0, w: 0}
        outSlope: {x: 0, y: 0, z: 0, w: 0}
        tangentMode: 1
        weightedMode: 0
        inWeight: {x: 0.3333333, y: 0.3333333, z: 0.3333333, w: 0.3333333}
        outWeight: {x: 0.3333333, y: 0.3333333, z: 0.3333333, w: 0.3333333}
      m_PreInfinity: 2
      m_PostInfinity: 2
      m_RotationOrder: 4
    path: Bone_H8R_barrels
  - curve:
      serializedVersion: 2
      m_Curve:
      - serializedVersion: 3
        time: 0
        value: {x: -0.6532815, y: 0.270598, z: -0.270598, w: 0.6532815}
        inSlope: {x: 0, y: 0, z: 0, w: 0}
        outSlope: {x: 0, y: 0, z: 0, w: 0}
        tangentMode: 1
        weightedMode: 0
        inWeight: {x: 0.3333333, y: 0.3333333, z: 0.3333333, w: 0.3333333}
        outWeight: {x: 0.3333333, y: 0.3333333, z: 0.3333333, w: 0.3333333}
      - serializedVersion: 3
        time: 0.01666667
        value: {x: -0.6488081, y: 0.2811549, z: -0.2811549, w: 0.6488081}
        inSlope: {x: 0, y: 0, z: 0, w: 0}
        outSlope: {x: 0, y: 0, z: 0, w: 0}
        tangentMode: 1
        weightedMode: 0
        inWeight: {x: 0.3333333, y: 0.3333333, z: 0.3333333, w: 0.3333333}
        outWeight: {x: 0.3333333, y: 0.3333333, z: 0.3333333, w: 0.3333333}
      - serializedVersion: 3
        time: 0.03333334
        value: {x: -0.6359855, y: 0.3082923, z: -0.3082923, w: 0.6359855}
        inSlope: {x: 0, y: 0, z: 0, w: 0}
        outSlope: {x: 0, y: 0, z: 0, w: 0}
        tangentMode: 1
        weightedMode: 0
        inWeight: {x: 0.3333333, y: 0.3333333, z: 0.3333333, w: 0.3333333}
        outWeight: {x: 0.3333333, y: 0.3333333, z: 0.3333333, w: 0.3333333}
      - serializedVersion: 3
        time: 0.05
        value: {x: -0.6160005, y: 0.3465631, z: -0.3465631, w: 0.6160005}
        inSlope: {x: 0, y: 0, z: 0, w: 0}
        outSlope: {x: 0, y: 0, z: 0, w: 0}
        tangentMode: 1
        weightedMode: 0
        inWeight: {x: 0.3333333, y: 0.3333333, z: 0.3333333, w: 0.3333333}
        outWeight: {x: 0.3333333, y: 0.3333333, z: 0.3333333, w: 0.3333333}
      - serializedVersion: 3
        time: 0.06666667
        value: {x: -0.5909599, y: 0.3882865, z: -0.3882865, w: 0.5909599}
        inSlope: {x: 0, y: 0, z: 0, w: 0}
        outSlope: {x: 0, y: 0, z: 0, w: 0}
        tangentMode: 1
        weightedMode: 0
        inWeight: {x: 0.3333333, y: 0.3333333, z: 0.3333333, w: 0.3333333}
        outWeight: {x: 0.3333333, y: 0.3333333, z: 0.3333333, w: 0.3333333}
      - serializedVersion: 3
        time: 0.08333334
        value: {x: -0.5626037, y: 0.4278314, z: -0.4278314, w: 0.5626037}
        inSlope: {x: 0, y: 0, z: 0, w: 0}
        outSlope: {x: 0, y: 0, z: 0, w: 0}
        tangentMode: 1
        weightedMode: 0
        inWeight: {x: 0.3333333, y: 0.3333333, z: 0.3333333, w: 0.3333333}
        outWeight: {x: 0.3333333, y: 0.3333333, z: 0.3333333, w: 0.3333333}
      - serializedVersion: 3
        time: 0.1
        value: {x: -0.5354096, y: 0.4613656, z: -0.4613656, w: 0.5354096}
        inSlope: {x: 0, y: 0, z: 0, w: 0}
        outSlope: {x: 0, y: 0, z: 0, w: 0}
        tangentMode: 1
        weightedMode: 0
        inWeight: {x: 0.3333333, y: 0.3333333, z: 0.3333333, w: 0.3333333}
        outWeight: {x: 0.3333333, y: 0.3333333, z: 0.3333333, w: 0.3333333}
      - serializedVersion: 3
        time: 0.1166667
        value: {x: -0.5155914, y: 0.4839065, z: -0.4839065, w: 0.5155914}
        inSlope: {x: 0, y: 0, z: 0, w: 0}
        outSlope: {x: 0, y: 0, z: 0, w: 0}
        tangentMode: 1
        weightedMode: 0
        inWeight: {x: 0.3333333, y: 0.3333333, z: 0.3333333, w: 0.3333333}
        outWeight: {x: 0.3333333, y: 0.3333333, z: 0.3333333, w: 0.3333333}
      - serializedVersion: 3
        time: 0.1333333
        value: {x: -0.5072911, y: 0.4928945, z: -0.4928945, w: 0.5072911}
        inSlope: {x: 0, y: 0, z: 0, w: 0}
        outSlope: {x: 0, y: 0, z: 0, w: 0}
        tangentMode: 1
        weightedMode: 0
        inWeight: {x: 0.3333333, y: 0.3333333, z: 0.3333333, w: 0.3333333}
        outWeight: {x: 0.3333333, y: 0.3333333, z: 0.3333333, w: 0.3333333}
      - serializedVersion: 3
        time: 0.15
        value: {x: -0.506605, y: 0.4934705, z: -0.4934705, w: 0.506605}
        inSlope: {x: 0, y: 0, z: 0, w: 0}
        outSlope: {x: 0, y: 0, z: 0, w: 0}
        tangentMode: 1
        weightedMode: 0
        inWeight: {x: 0.3333333, y: 0.3333333, z: 0.3333333, w: 0.3333333}
        outWeight: {x: 0.3333333, y: 0.3333333, z: 0.3333333, w: 0.3333333}
      - serializedVersion: 3
        time: 0.1666667
        value: {x: -0.5076775, y: 0.4922028, z: -0.4922028, w: 0.5076775}
        inSlope: {x: 0, y: 0, z: 0, w: 0}
        outSlope: {x: 0, y: 0, z: 0, w: 0}
        tangentMode: 1
        weightedMode: 0
        inWeight: {x: 0.3333333, y: 0.3333333, z: 0.3333333, w: 0.3333333}
        outWeight: {x: 0.3333333, y: 0.3333333, z: 0.3333333, w: 0.3333333}
      - serializedVersion: 3
        time: 0.1833333
        value: {x: -0.5076775, y: 0.4922028, z: -0.4922028, w: 0.5076775}
        inSlope: {x: 0, y: 0, z: 0, w: 0}
        outSlope: {x: 0, y: 0, z: 0, w: 0}
        tangentMode: 1
        weightedMode: 0
        inWeight: {x: 0.3333333, y: 0.3333333, z: 0.3333333, w: 0.3333333}
        outWeight: {x: 0.3333333, y: 0.3333333, z: 0.3333333, w: 0.3333333}
      - serializedVersion: 3
        time: 0.2
        value: {x: -0.5076775, y: 0.4922028, z: -0.4922028, w: 0.5076775}
        inSlope: {x: 0, y: 0, z: 0, w: 0}
        outSlope: {x: 0, y: 0, z: 0, w: 0}
        tangentMode: 1
        weightedMode: 0
        inWeight: {x: 0.3333333, y: 0.3333333, z: 0.3333333, w: 0.3333333}
        outWeight: {x: 0.3333333, y: 0.3333333, z: 0.3333333, w: 0.3333333}
      - serializedVersion: 3
        time: 0.2166667
        value: {x: -0.5076775, y: 0.4922028, z: -0.4922028, w: 0.5076775}
        inSlope: {x: 0, y: 0, z: 0, w: 0}
        outSlope: {x: 0, y: 0, z: 0, w: 0}
        tangentMode: 1
        weightedMode: 0
        inWeight: {x: 0.3333333, y: 0.3333333, z: 0.3333333, w: 0.3333333}
        outWeight: {x: 0.3333333, y: 0.3333333, z: 0.3333333, w: 0.3333333}
      - serializedVersion: 3
        time: 0.2333333
        value: {x: -0.5076775, y: 0.4922028, z: -0.4922028, w: 0.5076775}
        inSlope: {x: 0, y: 0, z: 0, w: 0}
        outSlope: {x: 0, y: 0, z: 0, w: 0}
        tangentMode: 1
        weightedMode: 0
        inWeight: {x: 0.3333333, y: 0.3333333, z: 0.3333333, w: 0.3333333}
        outWeight: {x: 0.3333333, y: 0.3333333, z: 0.3333333, w: 0.3333333}
      - serializedVersion: 3
        time: 0.25
        value: {x: -0.5076775, y: 0.4922028, z: -0.4922028, w: 0.5076775}
        inSlope: {x: 0, y: 0, z: 0, w: 0}
        outSlope: {x: 0, y: 0, z: 0, w: 0}
        tangentMode: 1
        weightedMode: 0
        inWeight: {x: 0.3333333, y: 0.3333333, z: 0.3333333, w: 0.3333333}
        outWeight: {x: 0.3333333, y: 0.3333333, z: 0.3333333, w: 0.3333333}
      - serializedVersion: 3
        time: 0.2666667
        value: {x: -0.5076775, y: 0.4922028, z: -0.4922028, w: 0.5076775}
        inSlope: {x: 0, y: 0, z: 0, w: 0}
        outSlope: {x: 0, y: 0, z: 0, w: 0}
        tangentMode: 1
        weightedMode: 0
        inWeight: {x: 0.3333333, y: 0.3333333, z: 0.3333333, w: 0.3333333}
        outWeight: {x: 0.3333333, y: 0.3333333, z: 0.3333333, w: 0.3333333}
      m_PreInfinity: 2
      m_PostInfinity: 2
      m_RotationOrder: 4
    path: Bone_H8R_long_latch
  - curve:
      serializedVersion: 2
      m_Curve:
      - serializedVersion: 3
        time: 0
        value: {x: -0.6532816, y: 0.2705979, z: -0.2705979, w: 0.6532816}
        inSlope: {x: 0, y: 0, z: 0, w: 0}
        outSlope: {x: 0, y: 0, z: 0, w: 0}
        tangentMode: 1
        weightedMode: 0
        inWeight: {x: 0.3333333, y: 0.3333333, z: 0.3333333, w: 0.3333333}
        outWeight: {x: 0.3333333, y: 0.3333333, z: 0.3333333, w: 0.3333333}
      - serializedVersion: 3
        time: 0.01666667
        value: {x: -0.648621, y: 0.2815862, z: -0.2815862, w: 0.648621}
        inSlope: {x: 0, y: 0, z: 0, w: 0}
        outSlope: {x: 0, y: 0, z: 0, w: 0}
        tangentMode: 1
        weightedMode: 0
        inWeight: {x: 0.3333333, y: 0.3333333, z: 0.3333333, w: 0.3333333}
        outWeight: {x: 0.3333333, y: 0.3333333, z: 0.3333333, w: 0.3333333}
      - serializedVersion: 3
        time: 0.03333334
        value: {x: -0.6352146, y: 0.3098122, z: -0.3098122, w: 0.6352146}
        inSlope: {x: 0, y: 0, z: 0, w: 0}
        outSlope: {x: 0, y: 0, z: 0, w: 0}
        tangentMode: 1
        weightedMode: 0
        inWeight: {x: 0.3333333, y: 0.3333333, z: 0.3333333, w: 0.3333333}
        outWeight: {x: 0.3333333, y: 0.3333333, z: 0.3333333, w: 0.3333333}
      - serializedVersion: 3
        time: 0.05
        value: {x: -0.6142653, y: 0.3495767, z: -0.3495767, w: 0.6142653}
        inSlope: {x: 0, y: 0, z: 0, w: 0}
        outSlope: {x: 0, y: 0, z: 0, w: 0}
        tangentMode: 1
        weightedMode: 0
        inWeight: {x: 0.3333333, y: 0.3333333, z: 0.3333333, w: 0.3333333}
        outWeight: {x: 0.3333333, y: 0.3333333, z: 0.3333333, w: 0.3333333}
      - serializedVersion: 3
        time: 0.06666667
        value: {x: -0.5879379, y: 0.3928473, z: -0.3928473, w: 0.5879379}
        inSlope: {x: 0, y: 0, z: 0, w: 0}
        outSlope: {x: 0, y: 0, z: 0, w: 0}
        tangentMode: 1
        weightedMode: 0
        inWeight: {x: 0.3333333, y: 0.3333333, z: 0.3333333, w: 0.3333333}
        outWeight: {x: 0.3333333, y: 0.3333333, z: 0.3333333, w: 0.3333333}
      - serializedVersion: 3
        time: 0.08333334
        value: {x: -0.5580361, y: 0.4337296, z: -0.4337296, w: 0.5580361}
        inSlope: {x: 0, y: 0, z: 0, w: 0}
        outSlope: {x: 0, y: 0, z: 0, w: 0}
        tangentMode: 1
        weightedMode: 0
        inWeight: {x: 0.3333333, y: 0.3333333, z: 0.3333333, w: 0.3333333}
        outWeight: {x: 0.3333333, y: 0.3333333, z: 0.3333333, w: 0.3333333}
      - serializedVersion: 3
        time: 0.1
        value: {x: -0.5293155, y: 0.4683015, z: -0.4683015, w: 0.5293155}
        inSlope: {x: 0, y: 0, z: 0, w: 0}
        outSlope: {x: 0, y: 0, z: 0, w: 0}
        tangentMode: 1
        weightedMode: 0
        inWeight: {x: 0.3333333, y: 0.3333333, z: 0.3333333, w: 0.3333333}
        outWeight: {x: 0.3333333, y: 0.3333333, z: 0.3333333, w: 0.3333333}
      - serializedVersion: 3
        time: 0.1166667
        value: {x: -0.5083686, y: 0.491489, z: -0.491489, w: 0.5083686}
        inSlope: {x: 0, y: 0, z: 0, w: 0}
        outSlope: {x: 0, y: 0, z: 0, w: 0}
        tangentMode: 1
        weightedMode: 0
        inWeight: {x: 0.3333333, y: 0.3333333, z: 0.3333333, w: 0.3333333}
        outWeight: {x: 0.3333333, y: 0.3333333, z: 0.3333333, w: 0.3333333}
      - serializedVersion: 3
        time: 0.1333333
        value: {x: -0.4995933, y: 0.5007195, z: -0.5007195, w: 0.4995933}
        inSlope: {x: 0, y: 0, z: 0, w: 0}
        outSlope: {x: 0, y: 0, z: 0, w: 0}
        tangentMode: 1
        weightedMode: 0
        inWeight: {x: 0.3333333, y: 0.3333333, z: 0.3333333, w: 0.3333333}
        outWeight: {x: 0.3333333, y: 0.3333333, z: 0.3333333, w: 0.3333333}
      - serializedVersion: 3
        time: 0.15
        value: {x: -0.4988669, y: 0.5013053, z: -0.5013053, w: 0.4988669}
        inSlope: {x: 0, y: 0, z: 0, w: 0}
        outSlope: {x: 0, y: 0, z: 0, w: 0}
        tangentMode: 1
        weightedMode: 0
        inWeight: {x: 0.3333333, y: 0.3333333, z: 0.3333333, w: 0.3333333}
        outWeight: {x: 0.3333333, y: 0.3333333, z: 0.3333333, w: 0.3333333}
      - serializedVersion: 3
        time: 0.1666667
        value: {x: -0.5000001, y: 0.4999999, z: -0.4999999, w: 0.5000001}
        inSlope: {x: 0, y: 0, z: 0, w: 0}
        outSlope: {x: 0, y: 0, z: 0, w: 0}
        tangentMode: 1
        weightedMode: 0
        inWeight: {x: 0.3333333, y: 0.3333333, z: 0.3333333, w: 0.3333333}
        outWeight: {x: 0.3333333, y: 0.3333333, z: 0.3333333, w: 0.3333333}
      - serializedVersion: 3
        time: 0.1833333
        value: {x: -0.5000001, y: 0.4999999, z: -0.4999999, w: 0.5000001}
        inSlope: {x: 0, y: 0, z: 0, w: 0}
        outSlope: {x: 0, y: 0, z: 0, w: 0}
        tangentMode: 1
        weightedMode: 0
        inWeight: {x: 0.3333333, y: 0.3333333, z: 0.3333333, w: 0.3333333}
        outWeight: {x: 0.3333333, y: 0.3333333, z: 0.3333333, w: 0.3333333}
      - serializedVersion: 3
        time: 0.2
        value: {x: -0.5000001, y: 0.4999999, z: -0.4999999, w: 0.5000001}
        inSlope: {x: 0, y: 0, z: 0, w: 0}
        outSlope: {x: 0, y: 0, z: 0, w: 0}
        tangentMode: 1
        weightedMode: 0
        inWeight: {x: 0.3333333, y: 0.3333333, z: 0.3333333, w: 0.3333333}
        outWeight: {x: 0.3333333, y: 0.3333333, z: 0.3333333, w: 0.3333333}
      - serializedVersion: 3
        time: 0.2166667
        value: {x: -0.5000001, y: 0.4999999, z: -0.4999999, w: 0.5000001}
        inSlope: {x: 0, y: 0, z: 0, w: 0}
        outSlope: {x: 0, y: 0, z: 0, w: 0}
        tangentMode: 1
        weightedMode: 0
        inWeight: {x: 0.3333333, y: 0.3333333, z: 0.3333333, w: 0.3333333}
        outWeight: {x: 0.3333333, y: 0.3333333, z: 0.3333333, w: 0.3333333}
      - serializedVersion: 3
        time: 0.2333333
        value: {x: -0.5000001, y: 0.4999999, z: -0.4999999, w: 0.5000001}
        inSlope: {x: 0, y: 0, z: 0, w: 0}
        outSlope: {x: 0, y: 0, z: 0, w: 0}
        tangentMode: 1
        weightedMode: 0
        inWeight: {x: 0.3333333, y: 0.3333333, z: 0.3333333, w: 0.3333333}
        outWeight: {x: 0.3333333, y: 0.3333333, z: 0.3333333, w: 0.3333333}
      - serializedVersion: 3
        time: 0.25
        value: {x: -0.5000001, y: 0.4999999, z: -0.4999999, w: 0.5000001}
        inSlope: {x: 0, y: 0, z: 0, w: 0}
        outSlope: {x: 0, y: 0, z: 0, w: 0}
        tangentMode: 1
        weightedMode: 0
        inWeight: {x: 0.3333333, y: 0.3333333, z: 0.3333333, w: 0.3333333}
        outWeight: {x: 0.3333333, y: 0.3333333, z: 0.3333333, w: 0.3333333}
      - serializedVersion: 3
        time: 0.2666667
        value: {x: -0.5000001, y: 0.4999999, z: -0.4999999, w: 0.5000001}
        inSlope: {x: 0, y: 0, z: 0, w: 0}
        outSlope: {x: 0, y: 0, z: 0, w: 0}
        tangentMode: 1
        weightedMode: 0
        inWeight: {x: 0.3333333, y: 0.3333333, z: 0.3333333, w: 0.3333333}
        outWeight: {x: 0.3333333, y: 0.3333333, z: 0.3333333, w: 0.3333333}
      m_PreInfinity: 2
      m_PostInfinity: 2
      m_RotationOrder: 4
    path: Bone_H8R_short_latch
  - curve:
      serializedVersion: 2
      m_Curve:
      - serializedVersion: 3
        time: 0
        value: {x: 0.7071068, y: 1.930218E-05, z: 0.7071068, w: 1.930218E-05}
        inSlope: {x: 0, y: 0, z: 0, w: 0}
        outSlope: {x: 0, y: 0, z: 0, w: 0}
        tangentMode: 1
        weightedMode: 0
        inWeight: {x: 0.3333333, y: 0.3333333, z: 0.3333333, w: 0.3333333}
        outWeight: {x: 0.3333333, y: 0.3333333, z: 0.3333333, w: 0.3333333}
      - serializedVersion: 3
        time: 0.01666667
        value: {x: 0.7069398, y: -0.01536652, z: 0.7069398, w: -0.01536652}
        inSlope: {x: 0, y: 0, z: 0, w: 0}
        outSlope: {x: 0, y: 0, z: 0, w: 0}
        tangentMode: 1
        weightedMode: 0
        inWeight: {x: 0.3333333, y: 0.3333333, z: 0.3333333, w: 0.3333333}
        outWeight: {x: 0.3333333, y: 0.3333333, z: 0.3333333, w: 0.3333333}
      - serializedVersion: 3
        time: 0.03333334
        value: {x: 0.7047683, y: -0.05500515, z: 0.7047683, w: -0.05500515}
        inSlope: {x: 0, y: 0, z: 0, w: 0}
        outSlope: {x: 0, y: 0, z: 0, w: 0}
        tangentMode: 1
        weightedMode: 0
        inWeight: {x: 0.3333333, y: 0.3333333, z: 0.3333333, w: 0.3333333}
        outWeight: {x: 0.3333333, y: 0.3333333, z: 0.3333333, w: 0.3333333}
      - serializedVersion: 3
        time: 0.05
        value: {x: 0.6986799, y: -0.1088415, z: 0.6986799, w: -0.1088415}
        inSlope: {x: 0, y: 0, z: 0, w: 0}
        outSlope: {x: 0, y: 0, z: 0, w: 0}
        tangentMode: 1
        weightedMode: 0
        inWeight: {x: 0.3333333, y: 0.3333333, z: 0.3333333, w: 0.3333333}
        outWeight: {x: 0.3333333, y: 0.3333333, z: 0.3333333, w: 0.3333333}
      - serializedVersion: 3
        time: 0.06666667
        value: {x: 0.6868092, y: -0.1666764, z: 0.6868092, w: -0.1666764}
        inSlope: {x: 0, y: 0, z: 0, w: 0}
        outSlope: {x: 0, y: 0, z: 0, w: 0}
        tangentMode: 1
        weightedMode: 0
        inWeight: {x: 0.3333333, y: 0.3333333, z: 0.3333333, w: 0.3333333}
        outWeight: {x: 0.3333333, y: 0.3333333, z: 0.3333333, w: 0.3333333}
      - serializedVersion: 3
        time: 0.08333334
        value: {x: 0.672357, y: -0.2189431, z: 0.672357, w: -0.2189431}
        inSlope: {x: 0, y: 0, z: 0, w: 0}
        outSlope: {x: 0, y: 0, z: 0, w: 0}
        tangentMode: 1
        weightedMode: 0
        inWeight: {x: 0.3333333, y: 0.3333333, z: 0.3333333, w: 0.3333333}
        outWeight: {x: 0.3333333, y: 0.3333333, z: 0.3333333, w: 0.3333333}
      - serializedVersion: 3
        time: 0.1
        value: {x: 0.6600227, y: -0.2541671, z: 0.6600227, w: -0.2541671}
        inSlope: {x: 0, y: 0, z: 0, w: 0}
        outSlope: {x: 0, y: 0, z: 0, w: 0}
        tangentMode: 1
        weightedMode: 0
        inWeight: {x: 0.3333333, y: 0.3333333, z: 0.3333333, w: 0.3333333}
        outWeight: {x: 0.3333333, y: 0.3333333, z: 0.3333333, w: 0.3333333}
      - serializedVersion: 3
        time: 0.1166667
        value: {x: 0.6532889, y: -0.2705802, z: 0.6532889, w: -0.2705802}
        inSlope: {x: 0, y: 0, z: 0, w: 0}
        outSlope: {x: 0, y: 0, z: 0, w: 0}
        tangentMode: 1
        weightedMode: 0
        inWeight: {x: 0.3333333, y: 0.3333333, z: 0.3333333, w: 0.3333333}
        outWeight: {x: 0.3333333, y: 0.3333333, z: 0.3333333, w: 0.3333333}
      - serializedVersion: 3
        time: 0.1333333
        value: {x: 0.6525723, y: -0.2723651, z: 0.6525723, w: -0.2723651}
        inSlope: {x: 0, y: 0, z: 0, w: 0}
        outSlope: {x: 0, y: 0, z: 0, w: 0}
        tangentMode: 1
        weightedMode: 0
        inWeight: {x: 0.3333333, y: 0.3333333, z: 0.3333333, w: 0.3333333}
        outWeight: {x: 0.3333333, y: 0.3333333, z: 0.3333333, w: 0.3333333}
      - serializedVersion: 3
        time: 0.15
        value: {x: 0.6532889, y: -0.2705802, z: 0.6532889, w: -0.2705802}
        inSlope: {x: 0, y: 0, z: 0, w: 0}
        outSlope: {x: 0, y: 0, z: 0, w: 0}
        tangentMode: 1
        weightedMode: 0
        inWeight: {x: 0.3333333, y: 0.3333333, z: 0.3333333, w: 0.3333333}
        outWeight: {x: 0.3333333, y: 0.3333333, z: 0.3333333, w: 0.3333333}
      - serializedVersion: 3
        time: 0.1666667
        value: {x: 0.6532889, y: -0.2705802, z: 0.6532889, w: -0.2705802}
        inSlope: {x: 0, y: 0, z: 0, w: 0}
        outSlope: {x: 0, y: 0, z: 0, w: 0}
        tangentMode: 1
        weightedMode: 0
        inWeight: {x: 0.3333333, y: 0.3333333, z: 0.3333333, w: 0.3333333}
        outWeight: {x: 0.3333333, y: 0.3333333, z: 0.3333333, w: 0.3333333}
      - serializedVersion: 3
        time: 0.1833333
        value: {x: 0.6532889, y: -0.2705802, z: 0.6532889, w: -0.2705802}
        inSlope: {x: 0, y: 0, z: 0, w: 0}
        outSlope: {x: 0, y: 0, z: 0, w: 0}
        tangentMode: 1
        weightedMode: 0
        inWeight: {x: 0.3333333, y: 0.3333333, z: 0.3333333, w: 0.3333333}
        outWeight: {x: 0.3333333, y: 0.3333333, z: 0.3333333, w: 0.3333333}
      - serializedVersion: 3
        time: 0.2
        value: {x: 0.6532889, y: -0.2705802, z: 0.6532889, w: -0.2705802}
        inSlope: {x: 0, y: 0, z: 0, w: 0}
        outSlope: {x: 0, y: 0, z: 0, w: 0}
        tangentMode: 1
        weightedMode: 0
        inWeight: {x: 0.3333333, y: 0.3333333, z: 0.3333333, w: 0.3333333}
        outWeight: {x: 0.3333333, y: 0.3333333, z: 0.3333333, w: 0.3333333}
      - serializedVersion: 3
        time: 0.2166667
        value: {x: 0.6532889, y: -0.2705802, z: 0.6532889, w: -0.2705802}
        inSlope: {x: 0, y: 0, z: 0, w: 0}
        outSlope: {x: 0, y: 0, z: 0, w: 0}
        tangentMode: 1
        weightedMode: 0
        inWeight: {x: 0.3333333, y: 0.3333333, z: 0.3333333, w: 0.3333333}
        outWeight: {x: 0.3333333, y: 0.3333333, z: 0.3333333, w: 0.3333333}
      - serializedVersion: 3
        time: 0.2333333
        value: {x: 0.6532889, y: -0.2705802, z: 0.6532889, w: -0.2705802}
        inSlope: {x: 0, y: 0, z: 0, w: 0}
        outSlope: {x: 0, y: 0, z: 0, w: 0}
        tangentMode: 1
        weightedMode: 0
        inWeight: {x: 0.3333333, y: 0.3333333, z: 0.3333333, w: 0.3333333}
        outWeight: {x: 0.3333333, y: 0.3333333, z: 0.3333333, w: 0.3333333}
      - serializedVersion: 3
        time: 0.25
        value: {x: 0.6532889, y: -0.2705802, z: 0.6532889, w: -0.2705802}
        inSlope: {x: 0, y: 0, z: 0, w: 0}
        outSlope: {x: 0, y: 0, z: 0, w: 0}
        tangentMode: 1
        weightedMode: 0
        inWeight: {x: 0.3333333, y: 0.3333333, z: 0.3333333, w: 0.3333333}
        outWeight: {x: 0.3333333, y: 0.3333333, z: 0.3333333, w: 0.3333333}
      - serializedVersion: 3
        time: 0.2666667
        value: {x: 0.6532889, y: -0.2705802, z: 0.6532889, w: -0.2705802}
        inSlope: {x: 0, y: 0, z: 0, w: 0}
        outSlope: {x: 0, y: 0, z: 0, w: 0}
        tangentMode: 1
        weightedMode: 0
        inWeight: {x: 0.3333333, y: 0.3333333, z: 0.3333333, w: 0.3333333}
        outWeight: {x: 0.3333333, y: 0.3333333, z: 0.3333333, w: 0.3333333}
      m_PreInfinity: 2
      m_PostInfinity: 2
      m_RotationOrder: 4
    path: Bone_H8R_ejector
  - curve:
      serializedVersion: 2
      m_Curve:
      - serializedVersion: 3
        time: 0
        value: {x: 0, y: 0, z: 0, w: 1}
        inSlope: {x: 0, y: 0, z: 0, w: 0}
        outSlope: {x: 0, y: 0, z: 0, w: 0}
        tangentMode: 1
        weightedMode: 0
        inWeight: {x: 0.3333333, y: 0.3333333, z: 0.3333333, w: 0.3333333}
        outWeight: {x: 0.3333333, y: 0.3333333, z: 0.3333333, w: 0.3333333}
      - serializedVersion: 3
        time: 0.2833333
        value: {x: 0, y: 0, z: 0, w: 1}
        inSlope: {x: 0, y: 0, z: 0, w: 0}
        outSlope: {x: 0, y: 0, z: 0, w: 0}
        tangentMode: 1
        weightedMode: 0
        inWeight: {x: 0.3333333, y: 0.3333333, z: 0.3333333, w: 0.3333333}
        outWeight: {x: 0.3333333, y: 0.3333333, z: 0.3333333, w: 0.3333333}
      m_PreInfinity: 2
      m_PostInfinity: 2
      m_RotationOrder: 4
    path: Bone_H8R_barrels/Bone_H8R_barrels_nub
  - curve:
      serializedVersion: 2
      m_Curve:
      - serializedVersion: 3
        time: 0
        value: {x: 0, y: 0, z: 0, w: 1}
        inSlope: {x: 0, y: 0, z: 0, w: 0}
        outSlope: {x: 0, y: 0, z: 0, w: 0}
        tangentMode: 1
        weightedMode: 0
        inWeight: {x: 0.3333333, y: 0.3333333, z: 0.3333333, w: 0.3333333}
        outWeight: {x: 0.3333333, y: 0.3333333, z: 0.3333333, w: 0.3333333}
      - serializedVersion: 3
        time: 0.2833333
        value: {x: 0, y: 0, z: 0, w: 1}
        inSlope: {x: 0, y: 0, z: 0, w: 0}
        outSlope: {x: 0, y: 0, z: 0, w: 0}
        tangentMode: 1
        weightedMode: 0
        inWeight: {x: 0.3333333, y: 0.3333333, z: 0.3333333, w: 0.3333333}
        outWeight: {x: 0.3333333, y: 0.3333333, z: 0.3333333, w: 0.3333333}
      m_PreInfinity: 2
      m_PostInfinity: 2
      m_RotationOrder: 4
    path: Bone_H8R_grip/Bone_H8R_grip_nub
  - curve:
      serializedVersion: 2
      m_Curve:
      - serializedVersion: 3
        time: 0
        value: {x: 0, y: 0, z: -1.224647E-16, w: 1}
        inSlope: {x: 0, y: 0, z: 0, w: 0}
        outSlope: {x: 0, y: 0, z: 0, w: 0}
        tangentMode: 1
        weightedMode: 0
        inWeight: {x: 0.3333333, y: 0.3333333, z: 0.3333333, w: 0.3333333}
        outWeight: {x: 0.3333333, y: 0.3333333, z: 0.3333333, w: 0.3333333}
      - serializedVersion: 3
        time: 0.2833333
        value: {x: 0, y: 0, z: -1.224647E-16, w: 1}
        inSlope: {x: 0, y: 0, z: 0, w: 0}
        outSlope: {x: 0, y: 0, z: 0, w: 0}
        tangentMode: 1
        weightedMode: 0
        inWeight: {x: 0.3333333, y: 0.3333333, z: 0.3333333, w: 0.3333333}
        outWeight: {x: 0.3333333, y: 0.3333333, z: 0.3333333, w: 0.3333333}
      m_PreInfinity: 2
      m_PostInfinity: 2
      m_RotationOrder: 4
    path: Bone_H8R_cylinder/Bone_H8R_cylinder_nub
  - curve:
      serializedVersion: 2
      m_Curve:
      - serializedVersion: 3
        time: 0
        value: {x: 0, y: 0, z: 0, w: 1}
        inSlope: {x: 0, y: 0, z: 0, w: 0}
        outSlope: {x: 0, y: 0, z: 0, w: 0}
        tangentMode: 1
        weightedMode: 0
        inWeight: {x: 0.3333333, y: 0.3333333, z: 0.3333333, w: 0.3333333}
        outWeight: {x: 0.3333333, y: 0.3333333, z: 0.3333333, w: 0.3333333}
      - serializedVersion: 3
        time: 0.2833333
        value: {x: 0, y: 0, z: 0, w: 1}
        inSlope: {x: 0, y: 0, z: 0, w: 0}
        outSlope: {x: 0, y: 0, z: 0, w: 0}
        tangentMode: 1
        weightedMode: 0
        inWeight: {x: 0.3333333, y: 0.3333333, z: 0.3333333, w: 0.3333333}
        outWeight: {x: 0.3333333, y: 0.3333333, z: 0.3333333, w: 0.3333333}
      m_PreInfinity: 2
      m_PostInfinity: 2
      m_RotationOrder: 4
    path: Bone_H8R_trigger/Bone_H8R_trigger_nub
  - curve:
      serializedVersion: 2
      m_Curve:
      - serializedVersion: 3
        time: 0
        value: {x: 6.123234E-17, y: -6.123234E-17, z: 6.123234E-17, w: 1}
        inSlope: {x: 0, y: 0, z: 0, w: 0}
        outSlope: {x: 0, y: 0, z: 0, w: 0}
        tangentMode: 1
        weightedMode: 0
        inWeight: {x: 0.3333333, y: 0.3333333, z: 0.3333333, w: 0.3333333}
        outWeight: {x: 0.3333333, y: 0.3333333, z: 0.3333333, w: 0.3333333}
      - serializedVersion: 3
        time: 0.2833333
        value: {x: 6.123234E-17, y: -6.123234E-17, z: 6.123234E-17, w: 1}
        inSlope: {x: 0, y: 0, z: 0, w: 0}
        outSlope: {x: 0, y: 0, z: 0, w: 0}
        tangentMode: 1
        weightedMode: 0
        inWeight: {x: 0.3333333, y: 0.3333333, z: 0.3333333, w: 0.3333333}
        outWeight: {x: 0.3333333, y: 0.3333333, z: 0.3333333, w: 0.3333333}
      m_PreInfinity: 2
      m_PostInfinity: 2
      m_RotationOrder: 4
    path: Bone_H8R_long_latch/Bone_H8R_long_latch_nub
  - curve:
      serializedVersion: 2
      m_Curve:
      - serializedVersion: 3
        time: 0
        value: {x: 0, y: 0, z: 0, w: 1}
        inSlope: {x: 0, y: 0, z: 0, w: 0}
        outSlope: {x: 0, y: 0, z: 0, w: 0}
        tangentMode: 1
        weightedMode: 0
        inWeight: {x: 0.3333333, y: 0.3333333, z: 0.3333333, w: 0.3333333}
        outWeight: {x: 0.3333333, y: 0.3333333, z: 0.3333333, w: 0.3333333}
      - serializedVersion: 3
        time: 0.2833333
        value: {x: 0, y: 0, z: 0, w: 1}
        inSlope: {x: 0, y: 0, z: 0, w: 0}
        outSlope: {x: 0, y: 0, z: 0, w: 0}
        tangentMode: 1
        weightedMode: 0
        inWeight: {x: 0.3333333, y: 0.3333333, z: 0.3333333, w: 0.3333333}
        outWeight: {x: 0.3333333, y: 0.3333333, z: 0.3333333, w: 0.3333333}
      m_PreInfinity: 2
      m_PostInfinity: 2
      m_RotationOrder: 4
    path: Bone_H8R_short_latch/Bone_H8R_short_latch_nub
  - curve:
      serializedVersion: 2
      m_Curve:
      - serializedVersion: 3
        time: 0
        value: {x: -6.123234E-17, y: 6.123234E-17, z: 1.83697E-16, w: 1}
        inSlope: {x: 0, y: 0, z: 0, w: 0}
        outSlope: {x: 0, y: 0, z: 0, w: 0}
        tangentMode: 1
        weightedMode: 0
        inWeight: {x: 0.3333333, y: 0.3333333, z: 0.3333333, w: 0.3333333}
        outWeight: {x: 0.3333333, y: 0.3333333, z: 0.3333333, w: 0.3333333}
      - serializedVersion: 3
        time: 0.2833333
        value: {x: -6.123234E-17, y: 6.123234E-17, z: 1.83697E-16, w: 1}
        inSlope: {x: 0, y: 0, z: 0, w: 0}
        outSlope: {x: 0, y: 0, z: 0, w: 0}
        tangentMode: 1
        weightedMode: 0
        inWeight: {x: 0.3333333, y: 0.3333333, z: 0.3333333, w: 0.3333333}
        outWeight: {x: 0.3333333, y: 0.3333333, z: 0.3333333, w: 0.3333333}
      m_PreInfinity: 2
      m_PostInfinity: 2
      m_RotationOrder: 4
    path: Bone_H8R_top_hammer/Bone_H8R_top_hammer_nub
  - curve:
      serializedVersion: 2
      m_Curve:
      - serializedVersion: 3
        time: 0
        value: {x: -6.123234E-17, y: 6.123234E-17, z: 1.83697E-16, w: 1}
        inSlope: {x: 0, y: 0, z: 0, w: 0}
        outSlope: {x: 0, y: 0, z: 0, w: 0}
        tangentMode: 1
        weightedMode: 0
        inWeight: {x: 0.3333333, y: 0.3333333, z: 0.3333333, w: 0.3333333}
        outWeight: {x: 0.3333333, y: 0.3333333, z: 0.3333333, w: 0.3333333}
      - serializedVersion: 3
        time: 0.2833333
        value: {x: -6.123234E-17, y: 6.123234E-17, z: 1.83697E-16, w: 1}
        inSlope: {x: 0, y: 0, z: 0, w: 0}
        outSlope: {x: 0, y: 0, z: 0, w: 0}
        tangentMode: 1
        weightedMode: 0
        inWeight: {x: 0.3333333, y: 0.3333333, z: 0.3333333, w: 0.3333333}
        outWeight: {x: 0.3333333, y: 0.3333333, z: 0.3333333, w: 0.3333333}
      m_PreInfinity: 2
      m_PostInfinity: 2
      m_RotationOrder: 4
    path: Bone_H8R_bottom_hammer/Bone_H8R_bottom_hammer_nub
  - curve:
      serializedVersion: 2
      m_Curve:
      - serializedVersion: 3
        time: 0
        value: {x: 0, y: 0, z: 0, w: 1}
        inSlope: {x: 0, y: 0, z: 0, w: 0}
        outSlope: {x: 0, y: 0, z: 0, w: 0}
        tangentMode: 1
        weightedMode: 0
        inWeight: {x: 0.3333333, y: 0.3333333, z: 0.3333333, w: 0.3333333}
        outWeight: {x: 0.3333333, y: 0.3333333, z: 0.3333333, w: 0.3333333}
      - serializedVersion: 3
        time: 0.2833333
        value: {x: 0, y: 0, z: 0, w: 1}
        inSlope: {x: 0, y: 0, z: 0, w: 0}
        outSlope: {x: 0, y: 0, z: 0, w: 0}
        tangentMode: 1
        weightedMode: 0
        inWeight: {x: 0.3333333, y: 0.3333333, z: 0.3333333, w: 0.3333333}
        outWeight: {x: 0.3333333, y: 0.3333333, z: 0.3333333, w: 0.3333333}
      m_PreInfinity: 2
      m_PostInfinity: 2
      m_RotationOrder: 4
    path: Bone_H8R_ejector/Bone_H8R_ejector_nub
  m_CompressedRotationCurves: []
  m_EulerCurves: []
  m_PositionCurves:
  - curve:
      serializedVersion: 2
      m_Curve:
      - serializedVersion: 3
        time: 0
        value: {x: 0.0002857923, y: 0.01531914, z: 0.01906235}
        inSlope: {x: 0, y: 0, z: 0}
        outSlope: {x: 0, y: 0, z: 0}
        tangentMode: 1
        weightedMode: 0
        inWeight: {x: 0.3333333, y: 0.3333333, z: 0.3333333}
        outWeight: {x: 0.3333333, y: 0.3333333, z: 0.3333333}
      - serializedVersion: 3
        time: 0.01666667
        value: {x: 0.0002857923, y: 0.01531914, z: 0.01906235}
        inSlope: {x: 0, y: 0, z: 0}
        outSlope: {x: 0, y: 0, z: 0}
        tangentMode: 1
        weightedMode: 0
        inWeight: {x: 0.3333333, y: 0.3333333, z: 0.3333333}
        outWeight: {x: 0.3333333, y: 0.3333333, z: 0.3333333}
      - serializedVersion: 3
        time: 0.03333334
        value: {x: 0.0002857923, y: 0.01531914, z: 0.01906235}
        inSlope: {x: 0, y: 0, z: 0}
        outSlope: {x: 0, y: 0, z: 0}
        tangentMode: 1
        weightedMode: 0
        inWeight: {x: 0.3333333, y: 0.3333333, z: 0.3333333}
        outWeight: {x: 0.3333333, y: 0.3333333, z: 0.3333333}
      - serializedVersion: 3
        time: 0.05
        value: {x: 0.0002857923, y: 0.01531914, z: 0.01906235}
        inSlope: {x: 0, y: 0, z: 0}
        outSlope: {x: 0, y: 0, z: 0}
        tangentMode: 1
        weightedMode: 0
        inWeight: {x: 0.3333333, y: 0.3333333, z: 0.3333333}
        outWeight: {x: 0.3333333, y: 0.3333333, z: 0.3333333}
      - serializedVersion: 3
        time: 0.06666667
        value: {x: 0.0002857923, y: 0.01531914, z: 0.01906235}
        inSlope: {x: 0, y: 0, z: 0}
        outSlope: {x: 0, y: 0, z: 0}
        tangentMode: 1
        weightedMode: 0
        inWeight: {x: 0.3333333, y: 0.3333333, z: 0.3333333}
        outWeight: {x: 0.3333333, y: 0.3333333, z: 0.3333333}
      - serializedVersion: 3
        time: 0.08333334
        value: {x: 0.0002857923, y: 0.01531914, z: 0.01906235}
        inSlope: {x: 0, y: 0, z: 0}
        outSlope: {x: 0, y: 0, z: 0}
        tangentMode: 1
        weightedMode: 0
        inWeight: {x: 0.3333333, y: 0.3333333, z: 0.3333333}
        outWeight: {x: 0.3333333, y: 0.3333333, z: 0.3333333}
      - serializedVersion: 3
        time: 0.1
        value: {x: 0.0002857923, y: 0.01531914, z: 0.01906235}
        inSlope: {x: 0, y: 0, z: 0}
        outSlope: {x: 0, y: 0, z: 0}
        tangentMode: 1
        weightedMode: 0
        inWeight: {x: 0.3333333, y: 0.3333333, z: 0.3333333}
        outWeight: {x: 0.3333333, y: 0.3333333, z: 0.3333333}
      - serializedVersion: 3
        time: 0.1166667
        value: {x: 0.0002857923, y: 0.01531914, z: 0.01906235}
        inSlope: {x: 0, y: 0, z: 0}
        outSlope: {x: 0, y: 0, z: 0}
        tangentMode: 1
        weightedMode: 0
        inWeight: {x: 0.3333333, y: 0.3333333, z: 0.3333333}
        outWeight: {x: 0.3333333, y: 0.3333333, z: 0.3333333}
      - serializedVersion: 3
        time: 0.1333333
        value: {x: 0.0002857921, y: 0.01594556, z: 0.01843587}
        inSlope: {x: 0, y: 0, z: 0}
        outSlope: {x: 0, y: 0, z: 0}
        tangentMode: 1
        weightedMode: 0
        inWeight: {x: 0.3333333, y: 0.3333333, z: 0.3333333}
        outWeight: {x: 0.3333333, y: 0.3333333, z: 0.3333333}
      - serializedVersion: 3
        time: 0.15
        value: {x: 0.000285792, y: 0.01759701, z: 0.01678424}
        inSlope: {x: 0, y: 0, z: 0}
        outSlope: {x: 0, y: 0, z: 0}
        tangentMode: 1
        weightedMode: 0
        inWeight: {x: 0.3333333, y: 0.3333333, z: 0.3333333}
        outWeight: {x: 0.3333333, y: 0.3333333, z: 0.3333333}
      - serializedVersion: 3
        time: 0.1666667
        value: {x: 0.000285792, y: 0.01993181, z: 0.01444917}
        inSlope: {x: 0, y: 0, z: 0}
        outSlope: {x: 0, y: 0, z: 0}
        tangentMode: 1
        weightedMode: 0
        inWeight: {x: 0.3333333, y: 0.3333333, z: 0.3333333}
        outWeight: {x: 0.3333333, y: 0.3333333, z: 0.3333333}
      - serializedVersion: 3
        time: 0.1833333
        value: {x: 0.000285792, y: 0.0226083, z: 0.01177239}
        inSlope: {x: 0, y: 0, z: 0}
        outSlope: {x: 0, y: 0, z: 0}
        tangentMode: 1
        weightedMode: 0
        inWeight: {x: 0.3333333, y: 0.3333333, z: 0.3333333}
        outWeight: {x: 0.3333333, y: 0.3333333, z: 0.3333333}
      - serializedVersion: 3
        time: 0.2
        value: {x: 0.000285792, y: 0.02528478, z: 0.00909561}
        inSlope: {x: 0, y: 0, z: 0}
        outSlope: {x: 0, y: 0, z: 0}
        tangentMode: 1
        weightedMode: 0
        inWeight: {x: 0.3333333, y: 0.3333333, z: 0.3333333}
        outWeight: {x: 0.3333333, y: 0.3333333, z: 0.3333333}
      - serializedVersion: 3
        time: 0.2166667
        value: {x: 0.0002857921, y: 0.02761959, z: 0.006760544}
        inSlope: {x: 0, y: 0, z: 0}
        outSlope: {x: 0, y: 0, z: 0}
        tangentMode: 1
        weightedMode: 0
        inWeight: {x: 0.3333333, y: 0.3333333, z: 0.3333333}
        outWeight: {x: 0.3333333, y: 0.3333333, z: 0.3333333}
      - serializedVersion: 3
        time: 0.2333333
        value: {x: 0.0002857921, y: 0.02927105, z: 0.005108911}
        inSlope: {x: 0, y: 0, z: 0}
        outSlope: {x: 0, y: 0, z: 0}
        tangentMode: 1
        weightedMode: 0
        inWeight: {x: 0.3333333, y: 0.3333333, z: 0.3333333}
        outWeight: {x: 0.3333333, y: 0.3333333, z: 0.3333333}
      - serializedVersion: 3
        time: 0.25
        value: {x: 0.0002857922, y: 0.02989747, z: 0.004482423}
        inSlope: {x: 0, y: 0, z: 0}
        outSlope: {x: 0, y: 0, z: 0}
        tangentMode: 1
        weightedMode: 0
        inWeight: {x: 0.3333333, y: 0.3333333, z: 0.3333333}
        outWeight: {x: 0.3333333, y: 0.3333333, z: 0.3333333}
      - serializedVersion: 3
        time: 0.2666667
        value: {x: 0.0002857922, y: 0.02989747, z: 0.004482423}
        inSlope: {x: 0, y: 0, z: 0}
        outSlope: {x: 0, y: 0, z: 0}
        tangentMode: 1
        weightedMode: 0
        inWeight: {x: 0.3333333, y: 0.3333333, z: 0.3333333}
        outWeight: {x: 0.3333333, y: 0.3333333, z: 0.3333333}
      m_PreInfinity: 2
      m_PostInfinity: 2
      m_RotationOrder: 4
    path: Bone_H8R_ejector
  - curve:
      serializedVersion: 2
      m_Curve:
      - serializedVersion: 3
        time: 0
        value: {x: 0.0002857923, y: 0.01531914, z: 0.01906235}
        inSlope: {x: 0, y: 0, z: 0}
        outSlope: {x: 0, y: 0, z: 0}
        tangentMode: 1
        weightedMode: 0
        inWeight: {x: 0.3333333, y: 0.3333333, z: 0.3333333}
        outWeight: {x: 0.3333333, y: 0.3333333, z: 0.3333333}
      - serializedVersion: 3
        time: 0.2833333
        value: {x: 0.0002857923, y: 0.01531914, z: 0.01906235}
        inSlope: {x: 0, y: 0, z: 0}
        outSlope: {x: 0, y: 0, z: 0}
        tangentMode: 1
        weightedMode: 0
        inWeight: {x: 0.3333333, y: 0.3333333, z: 0.3333333}
        outWeight: {x: 0.3333333, y: 0.3333333, z: 0.3333333}
      m_PreInfinity: 2
      m_PostInfinity: 2
      m_RotationOrder: 4
    path: Bone_H8R_barrels
  - curve:
      serializedVersion: 2
      m_Curve:
      - serializedVersion: 3
        time: 0
        value: {x: -0.0292894, y: -1.68958E-08, z: 1.207753E-10}
        inSlope: {x: 0, y: 0, z: 0}
        outSlope: {x: 0, y: 0, z: 0}
        tangentMode: 1
        weightedMode: 0
        inWeight: {x: 0.3333333, y: 0.3333333, z: 0.3333333}
        outWeight: {x: 0.3333333, y: 0.3333333, z: 0.3333333}
      - serializedVersion: 3
        time: 0.2833333
        value: {x: -0.0292894, y: -1.68958E-08, z: 1.207753E-10}
        inSlope: {x: 0, y: 0, z: 0}
        outSlope: {x: 0, y: 0, z: 0}
        tangentMode: 1
        weightedMode: 0
        inWeight: {x: 0.3333333, y: 0.3333333, z: 0.3333333}
        outWeight: {x: 0.3333333, y: 0.3333333, z: 0.3333333}
      m_PreInfinity: 2
      m_PostInfinity: 2
      m_RotationOrder: 4
    path: Bone_H8R_barrels/Bone_H8R_barrels_nub
  - curve:
      serializedVersion: 2
      m_Curve:
      - serializedVersion: 3
        time: 0
        value: {x: -0.05392999, y: -2.909833E-08, z: -8.785849E-09}
        inSlope: {x: 0, y: 0, z: 0}
        outSlope: {x: 0, y: 0, z: 0}
        tangentMode: 1
        weightedMode: 0
        inWeight: {x: 0.3333333, y: 0.3333333, z: 0.3333333}
        outWeight: {x: 0.3333333, y: 0.3333333, z: 0.3333333}
      - serializedVersion: 3
        time: 0.2833333
        value: {x: -0.05392999, y: -2.909833E-08, z: -8.785849E-09}
        inSlope: {x: 0, y: 0, z: 0}
        outSlope: {x: 0, y: 0, z: 0}
        tangentMode: 1
        weightedMode: 0
        inWeight: {x: 0.3333333, y: 0.3333333, z: 0.3333333}
        outWeight: {x: 0.3333333, y: 0.3333333, z: 0.3333333}
      m_PreInfinity: 2
      m_PostInfinity: 2
      m_RotationOrder: 4
    path: Bone_H8R_grip/Bone_H8R_grip_nub
  - curve:
      serializedVersion: 2
      m_Curve:
      - serializedVersion: 3
        time: 0
        value: {x: -0.006195818, y: 0, z: 7.383372E-11}
        inSlope: {x: 0, y: 0, z: 0}
        outSlope: {x: 0, y: 0, z: 0}
        tangentMode: 1
        weightedMode: 0
        inWeight: {x: 0.3333333, y: 0.3333333, z: 0.3333333}
        outWeight: {x: 0.3333333, y: 0.3333333, z: 0.3333333}
      - serializedVersion: 3
        time: 0.2833333
        value: {x: -0.006195818, y: 0, z: 7.383372E-11}
        inSlope: {x: 0, y: 0, z: 0}
        outSlope: {x: 0, y: 0, z: 0}
        tangentMode: 1
        weightedMode: 0
        inWeight: {x: 0.3333333, y: 0.3333333, z: 0.3333333}
        outWeight: {x: 0.3333333, y: 0.3333333, z: 0.3333333}
      m_PreInfinity: 2
      m_PostInfinity: 2
      m_RotationOrder: 4
    path: Bone_H8R_cylinder/Bone_H8R_cylinder_nub
  - curve:
      serializedVersion: 2
      m_Curve:
      - serializedVersion: 3
        time: 0
        value: {x: -0.01122982, y: 9.386558E-10, z: 1.381626E-09}
        inSlope: {x: 0, y: 0, z: 0}
        outSlope: {x: 0, y: 0, z: 0}
        tangentMode: 1
        weightedMode: 0
        inWeight: {x: 0.3333333, y: 0.3333333, z: 0.3333333}
        outWeight: {x: 0.3333333, y: 0.3333333, z: 0.3333333}
      - serializedVersion: 3
        time: 0.2833333
        value: {x: -0.01122982, y: 9.386558E-10, z: 1.381626E-09}
        inSlope: {x: 0, y: 0, z: 0}
        outSlope: {x: 0, y: 0, z: 0}
        tangentMode: 1
        weightedMode: 0
        inWeight: {x: 0.3333333, y: 0.3333333, z: 0.3333333}
        outWeight: {x: 0.3333333, y: 0.3333333, z: 0.3333333}
      m_PreInfinity: 2
      m_PostInfinity: 2
      m_RotationOrder: 4
    path: Bone_H8R_trigger/Bone_H8R_trigger_nub
  - curve:
      serializedVersion: 2
      m_Curve:
      - serializedVersion: 3
        time: 0
        value: {x: -0.009997253, y: 0.04219772, z: -0.0535585}
        inSlope: {x: 0, y: 0, z: 0}
        outSlope: {x: 0, y: 0, z: 0}
        tangentMode: 1
        weightedMode: 0
        inWeight: {x: 0.3333333, y: 0.3333333, z: 0.3333333}
        outWeight: {x: 0.3333333, y: 0.3333333, z: 0.3333333}
      - serializedVersion: 3
        time: 0.2833333
        value: {x: -0.009997253, y: 0.04219772, z: -0.0535585}
        inSlope: {x: 0, y: 0, z: 0}
        outSlope: {x: 0, y: 0, z: 0}
        tangentMode: 1
        weightedMode: 0
        inWeight: {x: 0.3333333, y: 0.3333333, z: 0.3333333}
        outWeight: {x: 0.3333333, y: 0.3333333, z: 0.3333333}
      m_PreInfinity: 2
      m_PostInfinity: 2
      m_RotationOrder: 4
    path: Bone_H8R_long_latch
  - curve:
      serializedVersion: 2
      m_Curve:
      - serializedVersion: 3
        time: 0
        value: {x: -0.01429057, y: -8.823365E-08, z: 7.47012E-11}
        inSlope: {x: 0, y: 0, z: 0}
        outSlope: {x: 0, y: 0, z: 0}
        tangentMode: 1
        weightedMode: 0
        inWeight: {x: 0.3333333, y: 0.3333333, z: 0.3333333}
        outWeight: {x: 0.3333333, y: 0.3333333, z: 0.3333333}
      - serializedVersion: 3
        time: 0.2833333
        value: {x: -0.01429057, y: -8.823365E-08, z: 7.47012E-11}
        inSlope: {x: 0, y: 0, z: 0}
        outSlope: {x: 0, y: 0, z: 0}
        tangentMode: 1
        weightedMode: 0
        inWeight: {x: 0.3333333, y: 0.3333333, z: 0.3333333}
        outWeight: {x: 0.3333333, y: 0.3333333, z: 0.3333333}
      m_PreInfinity: 2
      m_PostInfinity: 2
      m_RotationOrder: 4
    path: Bone_H8R_long_latch/Bone_H8R_long_latch_nub
  - curve:
      serializedVersion: 2
      m_Curve:
      - serializedVersion: 3
        time: 0
        value: {x: -0.009997253, y: 0.05477554, z: -0.04641983}
        inSlope: {x: 0, y: 0, z: 0}
        outSlope: {x: 0, y: 0, z: 0}
        tangentMode: 1
        weightedMode: 0
        inWeight: {x: 0.3333333, y: 0.3333333, z: 0.3333333}
        outWeight: {x: 0.3333333, y: 0.3333333, z: 0.3333333}
      - serializedVersion: 3
        time: 0.2833333
        value: {x: -0.009997253, y: 0.05477554, z: -0.04641983}
        inSlope: {x: 0, y: 0, z: 0}
        outSlope: {x: 0, y: 0, z: 0}
        tangentMode: 1
        weightedMode: 0
        inWeight: {x: 0.3333333, y: 0.3333333, z: 0.3333333}
        outWeight: {x: 0.3333333, y: 0.3333333, z: 0.3333333}
      m_PreInfinity: 2
      m_PostInfinity: 2
      m_RotationOrder: 4
    path: Bone_H8R_short_latch
  - curve:
      serializedVersion: 2
      m_Curve:
      - serializedVersion: 3
        time: 0
        value: {x: -0.01009082, y: -1.877312E-09, z: -1.208522E-09}
        inSlope: {x: 0, y: 0, z: 0}
        outSlope: {x: 0, y: 0, z: 0}
        tangentMode: 1
        weightedMode: 0
        inWeight: {x: 0.3333333, y: 0.3333333, z: 0.3333333}
        outWeight: {x: 0.3333333, y: 0.3333333, z: 0.3333333}
      - serializedVersion: 3
        time: 0.2833333
        value: {x: -0.01009082, y: -1.877312E-09, z: -1.208522E-09}
        inSlope: {x: 0, y: 0, z: 0}
        outSlope: {x: 0, y: 0, z: 0}
        tangentMode: 1
        weightedMode: 0
        inWeight: {x: 0.3333333, y: 0.3333333, z: 0.3333333}
        outWeight: {x: 0.3333333, y: 0.3333333, z: 0.3333333}
      m_PreInfinity: 2
      m_PostInfinity: 2
      m_RotationOrder: 4
    path: Bone_H8R_short_latch/Bone_H8R_short_latch_nub
  - curve:
      serializedVersion: 2
      m_Curve:
      - serializedVersion: 3
        time: 0
        value: {x: -0.004018509, y: 1.877312E-09, z: -1.522569E-10}
        inSlope: {x: 0, y: 0, z: 0}
        outSlope: {x: 0, y: 0, z: 0}
        tangentMode: 1
        weightedMode: 0
        inWeight: {x: 0.3333333, y: 0.3333333, z: 0.3333333}
        outWeight: {x: 0.3333333, y: 0.3333333, z: 0.3333333}
      - serializedVersion: 3
        time: 0.2833333
        value: {x: -0.004018509, y: 1.877312E-09, z: -1.522569E-10}
        inSlope: {x: 0, y: 0, z: 0}
        outSlope: {x: 0, y: 0, z: 0}
        tangentMode: 1
        weightedMode: 0
        inWeight: {x: 0.3333333, y: 0.3333333, z: 0.3333333}
        outWeight: {x: 0.3333333, y: 0.3333333, z: 0.3333333}
      m_PreInfinity: 2
      m_PostInfinity: 2
      m_RotationOrder: 4
    path: Bone_H8R_top_hammer/Bone_H8R_top_hammer_nub
  - curve:
      serializedVersion: 2
      m_Curve:
      - serializedVersion: 3
        time: 0
        value: {x: -0.004018509, y: 1.877312E-09, z: -1.522569E-10}
        inSlope: {x: 0, y: 0, z: 0}
        outSlope: {x: 0, y: 0, z: 0}
        tangentMode: 1
        weightedMode: 0
        inWeight: {x: 0.3333333, y: 0.3333333, z: 0.3333333}
        outWeight: {x: 0.3333333, y: 0.3333333, z: 0.3333333}
      - serializedVersion: 3
        time: 0.2833333
        value: {x: -0.004018509, y: 1.877312E-09, z: -1.522569E-10}
        inSlope: {x: 0, y: 0, z: 0}
        outSlope: {x: 0, y: 0, z: 0}
        tangentMode: 1
        weightedMode: 0
        inWeight: {x: 0.3333333, y: 0.3333333, z: 0.3333333}
        outWeight: {x: 0.3333333, y: 0.3333333, z: 0.3333333}
      m_PreInfinity: 2
      m_PostInfinity: 2
      m_RotationOrder: 4
    path: Bone_H8R_bottom_hammer/Bone_H8R_bottom_hammer_nub
  - curve:
      serializedVersion: 2
      m_Curve:
      - serializedVersion: 3
        time: 0
        value: {x: -0.01978954, y: -1.407984E-09, z: 2.359527E-10}
        inSlope: {x: 0, y: 0, z: 0}
        outSlope: {x: 0, y: 0, z: 0}
        tangentMode: 1
        weightedMode: 0
        inWeight: {x: 0.3333333, y: 0.3333333, z: 0.3333333}
        outWeight: {x: 0.3333333, y: 0.3333333, z: 0.3333333}
      - serializedVersion: 3
        time: 0.2833333
        value: {x: -0.01978954, y: -1.407984E-09, z: 2.359527E-10}
        inSlope: {x: 0, y: 0, z: 0}
        outSlope: {x: 0, y: 0, z: 0}
        tangentMode: 1
        weightedMode: 0
        inWeight: {x: 0.3333333, y: 0.3333333, z: 0.3333333}
        outWeight: {x: 0.3333333, y: 0.3333333, z: 0.3333333}
      m_PreInfinity: 2
      m_PostInfinity: 2
      m_RotationOrder: 4
    path: Bone_H8R_ejector/Bone_H8R_ejector_nub
  m_ScaleCurves:
  - curve:
      serializedVersion: 2
      m_Curve:
      - serializedVersion: 3
        time: 0
        value: {x: 2.54, y: 2.54, z: 2.54}
        inSlope: {x: 0, y: 0, z: 0}
        outSlope: {x: 0, y: 0, z: 0}
        tangentMode: 1
        weightedMode: 0
        inWeight: {x: 0.3333333, y: 0.3333333, z: 0.3333333}
        outWeight: {x: 0.3333333, y: 0.3333333, z: 0.3333333}
      - serializedVersion: 3
        time: 0.2833333
        value: {x: 2.54, y: 2.54, z: 2.54}
        inSlope: {x: 0, y: 0, z: 0}
        outSlope: {x: 0, y: 0, z: 0}
        tangentMode: 1
        weightedMode: 0
        inWeight: {x: 0.3333333, y: 0.3333333, z: 0.3333333}
        outWeight: {x: 0.3333333, y: 0.3333333, z: 0.3333333}
      m_PreInfinity: 2
      m_PostInfinity: 2
      m_RotationOrder: 4
    path: Bone_H8R_barrels
  - curve:
      serializedVersion: 2
      m_Curve:
      - serializedVersion: 3
        time: 0
        value: {x: 1, y: 1, z: 1}
        inSlope: {x: 0, y: 0, z: 0}
        outSlope: {x: 0, y: 0, z: 0}
        tangentMode: 1
        weightedMode: 0
        inWeight: {x: 0.3333333, y: 0.3333333, z: 0.3333333}
        outWeight: {x: 0.3333333, y: 0.3333333, z: 0.3333333}
      - serializedVersion: 3
        time: 0.2833333
        value: {x: 1, y: 1, z: 1}
        inSlope: {x: 0, y: 0, z: 0}
        outSlope: {x: 0, y: 0, z: 0}
        tangentMode: 1
        weightedMode: 0
        inWeight: {x: 0.3333333, y: 0.3333333, z: 0.3333333}
        outWeight: {x: 0.3333333, y: 0.3333333, z: 0.3333333}
      m_PreInfinity: 2
      m_PostInfinity: 2
      m_RotationOrder: 4
    path: Bone_H8R_barrels/Bone_H8R_barrels_nub
  - curve:
      serializedVersion: 2
      m_Curve:
      - serializedVersion: 3
        time: 0
        value: {x: 0.6485925, y: 0.6485925, z: 0.6485925}
        inSlope: {x: 0, y: 0, z: 0}
        outSlope: {x: 0, y: 0, z: 0}
        tangentMode: 1
        weightedMode: 0
        inWeight: {x: 0.3333333, y: 0.3333333, z: 0.3333333}
        outWeight: {x: 0.3333333, y: 0.3333333, z: 0.3333333}
      - serializedVersion: 3
        time: 0.2833333
        value: {x: 0.6485925, y: 0.6485925, z: 0.6485925}
        inSlope: {x: 0, y: 0, z: 0}
        outSlope: {x: 0, y: 0, z: 0}
        tangentMode: 1
        weightedMode: 0
        inWeight: {x: 0.3333333, y: 0.3333333, z: 0.3333333}
        outWeight: {x: 0.3333333, y: 0.3333333, z: 0.3333333}
      m_PreInfinity: 2
      m_PostInfinity: 2
      m_RotationOrder: 4
    path: Bone_H8R_grip/Bone_H8R_grip_nub
  - curve:
      serializedVersion: 2
      m_Curve:
      - serializedVersion: 3
        time: 0
        value: {x: 0.6783916, y: 0.6783916, z: 0.6783916}
        inSlope: {x: 0, y: 0, z: 0}
        outSlope: {x: 0, y: 0, z: 0}
        tangentMode: 1
        weightedMode: 0
        inWeight: {x: 0.3333333, y: 0.3333333, z: 0.3333333}
        outWeight: {x: 0.3333333, y: 0.3333333, z: 0.3333333}
      - serializedVersion: 3
        time: 0.2833333
        value: {x: 0.6783916, y: 0.6783916, z: 0.6783916}
        inSlope: {x: 0, y: 0, z: 0}
        outSlope: {x: 0, y: 0, z: 0}
        tangentMode: 1
        weightedMode: 0
        inWeight: {x: 0.3333333, y: 0.3333333, z: 0.3333333}
        outWeight: {x: 0.3333333, y: 0.3333333, z: 0.3333333}
      m_PreInfinity: 2
      m_PostInfinity: 2
      m_RotationOrder: 4
    path: Bone_H8R_cylinder/Bone_H8R_cylinder_nub
  - curve:
      serializedVersion: 2
      m_Curve:
      - serializedVersion: 3
        time: 0
        value: {x: 0.3019027, y: 0.3019027, z: 0.3019027}
        inSlope: {x: 0, y: 0, z: 0}
        outSlope: {x: 0, y: 0, z: 0}
        tangentMode: 1
        weightedMode: 0
        inWeight: {x: 0.3333333, y: 0.3333333, z: 0.3333333}
        outWeight: {x: 0.3333333, y: 0.3333333, z: 0.3333333}
      - serializedVersion: 3
        time: 0.2833333
        value: {x: 0.3019027, y: 0.3019027, z: 0.3019027}
        inSlope: {x: 0, y: 0, z: 0}
        outSlope: {x: 0, y: 0, z: 0}
        tangentMode: 1
        weightedMode: 0
        inWeight: {x: 0.3333333, y: 0.3333333, z: 0.3333333}
        outWeight: {x: 0.3333333, y: 0.3333333, z: 0.3333333}
      m_PreInfinity: 2
      m_PostInfinity: 2
      m_RotationOrder: 4
    path: Bone_H8R_trigger/Bone_H8R_trigger_nub
  - curve:
      serializedVersion: 2
      m_Curve:
      - serializedVersion: 3
        time: 0
        value: {x: 2.54, y: 2.54, z: 2.54}
        inSlope: {x: 0, y: 0, z: 0}
        outSlope: {x: 0, y: 0, z: 0}
        tangentMode: 1
        weightedMode: 0
        inWeight: {x: 0.3333333, y: 0.3333333, z: 0.3333333}
        outWeight: {x: 0.3333333, y: 0.3333333, z: 0.3333333}
      - serializedVersion: 3
        time: 0.2833333
        value: {x: 2.54, y: 2.54, z: 2.54}
        inSlope: {x: 0, y: 0, z: 0}
        outSlope: {x: 0, y: 0, z: 0}
        tangentMode: 1
        weightedMode: 0
        inWeight: {x: 0.3333333, y: 0.3333333, z: 0.3333333}
        outWeight: {x: 0.3333333, y: 0.3333333, z: 0.3333333}
      m_PreInfinity: 2
      m_PostInfinity: 2
      m_RotationOrder: 4
    path: Bone_H8R_long_latch
  - curve:
      serializedVersion: 2
      m_Curve:
      - serializedVersion: 3
        time: 0
        value: {x: 0.2746291, y: 0.2746291, z: 0.2746291}
        inSlope: {x: 0, y: 0, z: 0}
        outSlope: {x: 0, y: 0, z: 0}
        tangentMode: 1
        weightedMode: 0
        inWeight: {x: 0.3333333, y: 0.3333333, z: 0.3333333}
        outWeight: {x: 0.3333333, y: 0.3333333, z: 0.3333333}
      - serializedVersion: 3
        time: 0.2833333
        value: {x: 0.2746291, y: 0.2746291, z: 0.2746291}
        inSlope: {x: 0, y: 0, z: 0}
        outSlope: {x: 0, y: 0, z: 0}
        tangentMode: 1
        weightedMode: 0
        inWeight: {x: 0.3333333, y: 0.3333333, z: 0.3333333}
        outWeight: {x: 0.3333333, y: 0.3333333, z: 0.3333333}
      m_PreInfinity: 2
      m_PostInfinity: 2
      m_RotationOrder: 4
    path: Bone_H8R_long_latch/Bone_H8R_long_latch_nub
  - curve:
      serializedVersion: 2
      m_Curve:
      - serializedVersion: 3
        time: 0
        value: {x: 2.54, y: 2.54, z: 2.54}
        inSlope: {x: 0, y: 0, z: 0}
        outSlope: {x: 0, y: 0, z: 0}
        tangentMode: 1
        weightedMode: 0
        inWeight: {x: 0.3333333, y: 0.3333333, z: 0.3333333}
        outWeight: {x: 0.3333333, y: 0.3333333, z: 0.3333333}
      - serializedVersion: 3
        time: 0.2833333
        value: {x: 2.54, y: 2.54, z: 2.54}
        inSlope: {x: 0, y: 0, z: 0}
        outSlope: {x: 0, y: 0, z: 0}
        tangentMode: 1
        weightedMode: 0
        inWeight: {x: 0.3333333, y: 0.3333333, z: 0.3333333}
        outWeight: {x: 0.3333333, y: 0.3333333, z: 0.3333333}
      m_PreInfinity: 2
      m_PostInfinity: 2
      m_RotationOrder: 4
    path: Bone_H8R_short_latch
  - curve:
      serializedVersion: 2
      m_Curve:
      - serializedVersion: 3
        time: 0
        value: {x: 0.268913, y: 0.268913, z: 0.268913}
        inSlope: {x: 0, y: 0, z: 0}
        outSlope: {x: 0, y: 0, z: 0}
        tangentMode: 1
        weightedMode: 0
        inWeight: {x: 0.3333333, y: 0.3333333, z: 0.3333333}
        outWeight: {x: 0.3333333, y: 0.3333333, z: 0.3333333}
      - serializedVersion: 3
        time: 0.2833333
        value: {x: 0.268913, y: 0.268913, z: 0.268913}
        inSlope: {x: 0, y: 0, z: 0}
        outSlope: {x: 0, y: 0, z: 0}
        tangentMode: 1
        weightedMode: 0
        inWeight: {x: 0.3333333, y: 0.3333333, z: 0.3333333}
        outWeight: {x: 0.3333333, y: 0.3333333, z: 0.3333333}
      m_PreInfinity: 2
      m_PostInfinity: 2
      m_RotationOrder: 4
    path: Bone_H8R_short_latch/Bone_H8R_short_latch_nub
  - curve:
      serializedVersion: 2
      m_Curve:
      - serializedVersion: 3
        time: 0
        value: {x: 1, y: 1, z: 1}
        inSlope: {x: 0, y: 0, z: 0}
        outSlope: {x: 0, y: 0, z: 0}
        tangentMode: 1
        weightedMode: 0
        inWeight: {x: 0.3333333, y: 0.3333333, z: 0.3333333}
        outWeight: {x: 0.3333333, y: 0.3333333, z: 0.3333333}
      - serializedVersion: 3
        time: 0.2833333
        value: {x: 1, y: 1, z: 1}
        inSlope: {x: 0, y: 0, z: 0}
        outSlope: {x: 0, y: 0, z: 0}
        tangentMode: 1
        weightedMode: 0
        inWeight: {x: 0.3333333, y: 0.3333333, z: 0.3333333}
        outWeight: {x: 0.3333333, y: 0.3333333, z: 0.3333333}
      m_PreInfinity: 2
      m_PostInfinity: 2
      m_RotationOrder: 4
    path: Bone_H8R_top_hammer/Bone_H8R_top_hammer_nub
  - curve:
      serializedVersion: 2
      m_Curve:
      - serializedVersion: 3
        time: 0
        value: {x: 1, y: 1, z: 1}
        inSlope: {x: 0, y: 0, z: 0}
        outSlope: {x: 0, y: 0, z: 0}
        tangentMode: 1
        weightedMode: 0
        inWeight: {x: 0.3333333, y: 0.3333333, z: 0.3333333}
        outWeight: {x: 0.3333333, y: 0.3333333, z: 0.3333333}
      - serializedVersion: 3
        time: 0.2833333
        value: {x: 1, y: 1, z: 1}
        inSlope: {x: 0, y: 0, z: 0}
        outSlope: {x: 0, y: 0, z: 0}
        tangentMode: 1
        weightedMode: 0
        inWeight: {x: 0.3333333, y: 0.3333333, z: 0.3333333}
        outWeight: {x: 0.3333333, y: 0.3333333, z: 0.3333333}
      m_PreInfinity: 2
      m_PostInfinity: 2
      m_RotationOrder: 4
    path: Bone_H8R_bottom_hammer/Bone_H8R_bottom_hammer_nub
  - curve:
      serializedVersion: 2
      m_Curve:
      - serializedVersion: 3
        time: 0
        value: {x: 2.54, y: 2.54, z: 2.54}
        inSlope: {x: 0, y: 0, z: 0}
        outSlope: {x: 0, y: 0, z: 0}
        tangentMode: 1
        weightedMode: 0
        inWeight: {x: 0.3333333, y: 0.3333333, z: 0.3333333}
        outWeight: {x: 0.3333333, y: 0.3333333, z: 0.3333333}
      - serializedVersion: 3
        time: 0.2833333
        value: {x: 2.54, y: 2.54, z: 2.54}
        inSlope: {x: 0, y: 0, z: 0}
        outSlope: {x: 0, y: 0, z: 0}
        tangentMode: 1
        weightedMode: 0
        inWeight: {x: 0.3333333, y: 0.3333333, z: 0.3333333}
        outWeight: {x: 0.3333333, y: 0.3333333, z: 0.3333333}
      m_PreInfinity: 2
      m_PostInfinity: 2
      m_RotationOrder: 4
    path: Bone_H8R_ejector
  - curve:
      serializedVersion: 2
      m_Curve:
      - serializedVersion: 3
        time: 0
        value: {x: 1, y: 1, z: 1}
        inSlope: {x: 0, y: 0, z: 0}
        outSlope: {x: 0, y: 0, z: 0}
        tangentMode: 1
        weightedMode: 0
        inWeight: {x: 0.3333333, y: 0.3333333, z: 0.3333333}
        outWeight: {x: 0.3333333, y: 0.3333333, z: 0.3333333}
      - serializedVersion: 3
        time: 0.2833333
        value: {x: 1, y: 1, z: 1}
        inSlope: {x: 0, y: 0, z: 0}
        outSlope: {x: 0, y: 0, z: 0}
        tangentMode: 1
        weightedMode: 0
        inWeight: {x: 0.3333333, y: 0.3333333, z: 0.3333333}
        outWeight: {x: 0.3333333, y: 0.3333333, z: 0.3333333}
      m_PreInfinity: 2
      m_PostInfinity: 2
      m_RotationOrder: 4
    path: Bone_H8R_ejector/Bone_H8R_ejector_nub
  m_FloatCurves: []
  m_PPtrCurves: []
  m_SampleRate: 60
  m_WrapMode: 0
  m_Bounds:
    m_Center: {x: 0, y: 0, z: 0}
    m_Extent: {x: 0, y: 0, z: 0}
  m_ClipBindingConstant:
    genericBindings:
    - path: 2308805261
      attribute: 1
      script: {fileID: 0}
      classID: 4
      customType: 0
      isPPtrCurve: 0
    - path: 1565953466
      attribute: 2
      script: {fileID: 0}
      classID: 4
      customType: 0
      isPPtrCurve: 0
    - path: 4075054655
      attribute: 2
      script: {fileID: 0}
      classID: 4
      customType: 0
      isPPtrCurve: 0
    - path: 4052998275
      attribute: 2
      script: {fileID: 0}
      classID: 4
      customType: 0
      isPPtrCurve: 0
    - path: 2308805261
      attribute: 2
      script: {fileID: 0}
      classID: 4
      customType: 0
      isPPtrCurve: 0
    - path: 1565953466
      attribute: 1
      script: {fileID: 0}
      classID: 4
      customType: 0
      isPPtrCurve: 0
    - path: 2694346236
      attribute: 1
      script: {fileID: 0}
      classID: 4
      customType: 0
      isPPtrCurve: 0
    - path: 1007783725
      attribute: 1
      script: {fileID: 0}
      classID: 4
      customType: 0
      isPPtrCurve: 0
    - path: 4138008169
      attribute: 1
      script: {fileID: 0}
      classID: 4
      customType: 0
      isPPtrCurve: 0
    - path: 279705023
      attribute: 1
      script: {fileID: 0}
      classID: 4
      customType: 0
      isPPtrCurve: 0
    - path: 4075054655
      attribute: 1
      script: {fileID: 0}
      classID: 4
      customType: 0
      isPPtrCurve: 0
    - path: 1743528675
      attribute: 1
      script: {fileID: 0}
      classID: 4
      customType: 0
      isPPtrCurve: 0
    - path: 4052998275
      attribute: 1
      script: {fileID: 0}
      classID: 4
      customType: 0
      isPPtrCurve: 0
    - path: 1684582528
      attribute: 1
      script: {fileID: 0}
      classID: 4
      customType: 0
      isPPtrCurve: 0
    - path: 135847951
      attribute: 1
      script: {fileID: 0}
      classID: 4
      customType: 0
      isPPtrCurve: 0
    - path: 2181885120
      attribute: 1
      script: {fileID: 0}
      classID: 4
      customType: 0
      isPPtrCurve: 0
    - path: 373264674
      attribute: 1
      script: {fileID: 0}
      classID: 4
      customType: 0
      isPPtrCurve: 0
    - path: 2694346236
      attribute: 2
      script: {fileID: 0}
      classID: 4
      customType: 0
      isPPtrCurve: 0
    - path: 1007783725
      attribute: 2
      script: {fileID: 0}
      classID: 4
      customType: 0
      isPPtrCurve: 0
    - path: 4138008169
      attribute: 2
      script: {fileID: 0}
      classID: 4
      customType: 0
      isPPtrCurve: 0
    - path: 279705023
      attribute: 2
      script: {fileID: 0}
      classID: 4
      customType: 0
      isPPtrCurve: 0
    - path: 1743528675
      attribute: 2
      script: {fileID: 0}
      classID: 4
      customType: 0
      isPPtrCurve: 0
    - path: 1684582528
      attribute: 2
      script: {fileID: 0}
      classID: 4
      customType: 0
      isPPtrCurve: 0
    - path: 135847951
      attribute: 2
      script: {fileID: 0}
      classID: 4
      customType: 0
      isPPtrCurve: 0
    - path: 2181885120
      attribute: 2
      script: {fileID: 0}
      classID: 4
      customType: 0
      isPPtrCurve: 0
    - path: 373264674
      attribute: 2
      script: {fileID: 0}
      classID: 4
      customType: 0
      isPPtrCurve: 0
    - path: 1565953466
      attribute: 3
      script: {fileID: 0}
      classID: 4
      customType: 0
      isPPtrCurve: 0
    - path: 2694346236
      attribute: 3
      script: {fileID: 0}
      classID: 4
      customType: 0
      isPPtrCurve: 0
    - path: 1007783725
      attribute: 3
      script: {fileID: 0}
      classID: 4
      customType: 0
      isPPtrCurve: 0
    - path: 4138008169
      attribute: 3
      script: {fileID: 0}
      classID: 4
      customType: 0
      isPPtrCurve: 0
    - path: 279705023
      attribute: 3
      script: {fileID: 0}
      classID: 4
      customType: 0
      isPPtrCurve: 0
    - path: 4075054655
      attribute: 3
      script: {fileID: 0}
      classID: 4
      customType: 0
      isPPtrCurve: 0
    - path: 1743528675
      attribute: 3
      script: {fileID: 0}
      classID: 4
      customType: 0
      isPPtrCurve: 0
    - path: 4052998275
      attribute: 3
      script: {fileID: 0}
      classID: 4
      customType: 0
      isPPtrCurve: 0
    - path: 1684582528
      attribute: 3
      script: {fileID: 0}
      classID: 4
      customType: 0
      isPPtrCurve: 0
    - path: 135847951
      attribute: 3
      script: {fileID: 0}
      classID: 4
      customType: 0
      isPPtrCurve: 0
    - path: 2181885120
      attribute: 3
      script: {fileID: 0}
      classID: 4
      customType: 0
      isPPtrCurve: 0
    - path: 2308805261
      attribute: 3
      script: {fileID: 0}
      classID: 4
      customType: 0
      isPPtrCurve: 0
    - path: 373264674
      attribute: 3
      script: {fileID: 0}
      classID: 4
      customType: 0
      isPPtrCurve: 0
    pptrCurveMapping: []
  m_AnimationClipSettings:
    serializedVersion: 2
    m_AdditiveReferencePoseClip: {fileID: 0}
    m_AdditiveReferencePoseTime: 0
    m_StartTime: 0
    m_StopTime: 0.25
    m_OrientationOffsetY: 0
    m_Level: 0
    m_CycleOffset: 0
    m_HasAdditiveReferencePose: 0
    m_LoopTime: 0
    m_LoopBlend: 0
    m_LoopBlendOrientation: 0
    m_LoopBlendPositionY: 0
    m_LoopBlendPositionXZ: 0
    m_KeepOriginalOrientation: 0
    m_KeepOriginalPositionY: 1
    m_KeepOriginalPositionXZ: 0
    m_HeightFromFeet: 0
    m_Mirror: 0
  m_EditorCurves: []
  m_EulerEditorCurves: []
  m_HasGenericRootTransform: 0
  m_HasMotionFloatCurves: 0
  m_GenerateMotionCurves: 0
  m_Events:
  - time: 0.2459302
    functionName: TriggerEjectionFX
    data:
    objectReferenceParameter: {fileID: 0}
    floatParameter: 0
    intParameter: 0
    messageOptions: 0
